(footprint "ATB2012"
	(version 20240108)
	(generator "pcbnew")
	(generator_version "8.0")
	(layer "F.Cu")
	(descr "ATB2012, https://product.tdk.com/info/en/documents/data_sheet/rf_balun_atb2012_en.pdf")
	(tags "Balun Transformer")
	(property "Reference" "REF**"
		(at -0.0127 1.7399 0)
		(layer "F.SilkS")
		(uuid "53f6fba1-394a-4cd6-a4ee-3a00d000223d")
		(effects
			(font
				(size 1 1)
				(thickness 0.15)
			)
		)
	)
	(property "Value" "ATB2012"
		(at 0 -1.6129 0)
		(layer "F.Fab")
		(uuid "9fb04bf3-68df-466b-bab4-392a14c83ffc")
		(effects
			(font
				(size 1 1)
				(thickness 0.15)
			)
		)
	)
	(property "Footprint" ""
		(at 0 0 0)
		(layer "F.Fab")
		(hide yes)
		(uuid "9d76bb3c-d461-429e-b6d1-56e7492dd674")
		(effects
			(font
				(size 1.27 1.27)
				(thickness 0.15)
			)
		)
	)
	(property "Datasheet" ""
		(at 0 0 0)
		(layer "F.Fab")
		(hide yes)
		(uuid "9b785ba1-d697-4f47-9847-dded5268b298")
		(effects
			(font
				(size 1.27 1.27)
				(thickness 0.15)
			)
		)
	)
	(property "Description" ""
		(at 0 0 0)
		(layer "F.Fab")
		(hide yes)
		(uuid "520d41a7-a4f1-496c-adac-65000f954e72")
		(effects
			(font
				(size 1.27 1.27)
				(thickness 0.15)
			)
		)
	)
	(attr smd)
	(fp_line
		(start -1.45 -0.8)
		(end -0.6 -0.8)
		(stroke
			(width 0.12)
			(type solid)
		)
		(layer "F.SilkS")
		(uuid "d5ffd44e-c651-4560-a8ca-3dfec9dcba95")
	)
	(fp_line
		(start -1.45 -0.2)
		(end -1.45 -0.8)
		(stroke
			(width 0.12)
			(type solid)
		)
		(layer "F.SilkS")
		(uuid "f0f6350d-dd06-4cf3-8aa3-f1cbe864697f")
	)
	(fp_line
		(start -1.1 -0.7)
		(end -1.1 0.7)
		(stroke
			(width 0.05)
			(type solid)
		)
		(layer "F.CrtYd")
		(uuid "eaa5768c-bf35-4c04-8653-e635ff718012")
	)
	(fp_line
		(start -1.1 -0.7)
		(end 1.1 -0.7)
		(stroke
			(width 0.05)
			(type solid)
		)
		(layer "F.CrtYd")
		(uuid "59e1be77-ae78-4d48-9af1-71c61ebe02ac")
	)
	(fp_line
		(start -1.1 0.7)
		(end 1.1 0.7)
		(stroke
			(width 0.05)
			(type solid)
		)
		(layer "F.CrtYd")
		(uuid "d3569428-72f7-4cf1-bf8e-1603180c2775")
	)
	(fp_line
		(start 1.1 -0.7)
		(end 1.1 0.7)
		(stroke
			(width 0.05)
			(type solid)
		)
		(layer "F.CrtYd")
		(uuid "0a832cb9-49ef-4067-9cac-fd93d12c56a9")
	)
	(fp_line
		(start -1 -0.6)
		(end -1 0.6)
		(stroke
			(width 0.1)
			(type solid)
		)
		(layer "F.Fab")
		(uuid "cfa9ac28-ec4a-4e30-a4ae-3bc3f760cfa1")
	)
	(fp_line
		(start -1 0.6)
		(end 1 0.6)
		(stroke
			(width 0.1)
			(type solid)
		)
		(layer "F.Fab")
		(uuid "04cff190-c691-4296-b75f-63f568f128f6")
	)
	(fp_line
		(start 1 -0.6)
		(end -1 -0.6)
		(stroke
			(width 0.1)
			(type solid)
		)
		(layer "F.Fab")
		(uuid "b66fa609-46db-47d5-a126-46522b12807d")
	)
	(fp_line
		(start 1 0.6)
		(end 1 -0.6)
		(stroke
			(width 0.1)
			(type solid)
		)
		(layer "F.Fab")
		(uuid "c0a540d7-6b46-4c7c-865a-26468817bfce")
	)
	(fp_text user "${REFERENCE}"
		(at -0.0127 1.7399 0)
		(layer "F.Fab")
		(uuid "c412198e-72f4-4b49-a7f7-c58a005cfa6c")
		(effects
			(font
				(size 1 1)
				(thickness 0.15)
			)
		)
	)
	(pad "1" smd rect
		(at -0.975 -0.4)
		(size 0.75 0.4)
		(layers "F.Cu" "F.Paste" "F.Mask")
		(uuid "e0f8cf5f-269c-4c11-9bcd-2dd2d8358132")
	)
	(pad "2" smd rect
		(at -0.975 0.4)
		(size 0.75 0.4)
		(layers "F.Cu" "F.Paste" "F.Mask")
		(uuid "4cf15dc6-b094-463f-98d9-7fa36dcd8357")
	)
	(pad "3" smd rect
		(at 0.975 0.4)
		(size 0.75 0.4)
		(layers "F.Cu" "F.Paste" "F.Mask")
		(uuid "343e28d3-4ce3-4840-a96d-66eb40ff7fee")
	)
	(pad "4" smd rect
		(at 0.975 -0.4 180)
		(size 0.75 0.4)
		(layers "F.Cu" "F.Paste" "F.Mask")
		(uuid "38905cdc-e538-42b7-a92b-ae0456edcf44")
	)
	(model "${LSF_KICAD_LIB}/lsf-kicad-lib.3dshapes/ATB2012.wrl"
		(offset
			(xyz 0 0 0)
		)
		(scale
			(xyz 1 1 1)
		)
		(rotate
			(xyz 0 0 0)
		)
	)
)
