(footprint "BGA-153_13.0mmx11.5mm_P0.5mm"
	(version 20240108)
	(generator "pcbnew")
	(generator_version "8.0")
	(layer "F.Cu")
	(descr "BGA-153, https://datasheet.lcsc.com/lcsc/2006081112_SANDISK-SDINBDG4-8G_C577444.pdf")
	(tags "BGA-153")
	(property "Reference" "REF**"
		(at 0.1 -7.85 0)
		(layer "F.SilkS")
		(uuid "3bf490e9-d5a6-4fd5-b334-b102b9c7aae0")
		(effects
			(font
				(size 1 1)
				(thickness 0.15)
			)
		)
	)
	(property "Value" "BGA-153_13.0mmx11.5mm_P0.5mm"
		(at 0.15 7.9 0)
		(layer "F.Fab")
		(uuid "b92dcdff-37e1-45a6-a242-6f90cdb12eac")
		(effects
			(font
				(size 1 1)
				(thickness 0.15)
			)
		)
	)
	(property "Footprint" ""
		(at 0 0 0)
		(layer "F.Fab")
		(hide yes)
		(uuid "45e857b7-a15e-4bb6-a644-e4a0311e5af5")
		(effects
			(font
				(size 1.27 1.27)
				(thickness 0.15)
			)
		)
	)
	(property "Datasheet" ""
		(at 0 0 0)
		(layer "F.Fab")
		(hide yes)
		(uuid "e5b964ac-b97e-4bd1-9988-3cacc1db698b")
		(effects
			(font
				(size 1.27 1.27)
				(thickness 0.15)
			)
		)
	)
	(property "Description" ""
		(at 0 0 0)
		(layer "F.Fab")
		(hide yes)
		(uuid "993d3a7d-dd7e-4991-a261-a95ed904a186")
		(effects
			(font
				(size 1.27 1.27)
				(thickness 0.15)
			)
		)
	)
	(attr smd)
	(fp_line
		(start -5.75 6.5)
		(end -5.75 -6.5)
		(stroke
			(width 0.12)
			(type solid)
		)
		(layer "F.SilkS")
		(uuid "961b0dd3-32bd-45a5-a724-8105a5a517bd")
	)
	(fp_line
		(start 5.75 -6.5)
		(end -5.75 -6.5)
		(stroke
			(width 0.12)
			(type solid)
		)
		(layer "F.SilkS")
		(uuid "d0fde5e2-0eee-4308-adc5-f810efbf7858")
	)
	(fp_line
		(start 5.75 6.5)
		(end -5.75 6.5)
		(stroke
			(width 0.12)
			(type solid)
		)
		(layer "F.SilkS")
		(uuid "9b703f5d-b450-45dd-95be-e1a3ac348a93")
	)
	(fp_line
		(start 5.75 6.5)
		(end 5.75 -6.5)
		(stroke
			(width 0.12)
			(type solid)
		)
		(layer "F.SilkS")
		(uuid "9915a45a-47b0-4088-818d-03968bcf6878")
	)
	(fp_circle
		(center -6.3 -3.3)
		(end -6.1 -3.3)
		(stroke
			(width 0.12)
			(type solid)
		)
		(fill none)
		(layer "F.SilkS")
		(uuid "50a9d64a-8231-40a3-8189-46790c07eb4b")
	)
	(fp_line
		(start -6 -6.75)
		(end 6 -6.75)
		(stroke
			(width 0.05)
			(type solid)
		)
		(layer "F.CrtYd")
		(uuid "8f1fc02d-91ec-4e13-aaf7-2a70178cbb6d")
	)
	(fp_line
		(start -6 6.75)
		(end -6 -6.75)
		(stroke
			(width 0.05)
			(type solid)
		)
		(layer "F.CrtYd")
		(uuid "d5ee9d7f-f4f7-4d1b-aab4-e4f91ccf7c71")
	)
	(fp_line
		(start -6 6.75)
		(end 6 6.75)
		(stroke
			(width 0.05)
			(type solid)
		)
		(layer "F.CrtYd")
		(uuid "64171ef1-8360-485b-9b77-18fdd3f70f15")
	)
	(fp_line
		(start 6 6.75)
		(end 6 -6.75)
		(stroke
			(width 0.05)
			(type solid)
		)
		(layer "F.CrtYd")
		(uuid "c086fca1-e4f1-40de-a2b1-2370d31613a4")
	)
	(fp_line
		(start -5.75 6.5)
		(end -5.75 -6.5)
		(stroke
			(width 0.1)
			(type solid)
		)
		(layer "F.Fab")
		(uuid "94177c9f-147e-45a7-aa82-c560cc07c812")
	)
	(fp_line
		(start 5.75 -6.5)
		(end -5.75 -6.5)
		(stroke
			(width 0.1)
			(type solid)
		)
		(layer "F.Fab")
		(uuid "3bcf8e42-098c-429f-86dc-c802d7d73612")
	)
	(fp_line
		(start 5.75 6.5)
		(end -5.75 6.5)
		(stroke
			(width 0.1)
			(type solid)
		)
		(layer "F.Fab")
		(uuid "bc2b4213-5cbc-46e6-8f1b-7bc6801310fb")
	)
	(fp_line
		(start 5.75 6.5)
		(end 5.75 -6.5)
		(stroke
			(width 0.1)
			(type solid)
		)
		(layer "F.Fab")
		(uuid "b35836e0-d794-47ac-9b6c-10fe5506d48d")
	)
	(fp_text user "${REFERENCE}"
		(at 0 0 0)
		(layer "F.Fab")
		(uuid "cdebd31d-4451-43f8-833b-85e812b2b2d4")
		(effects
			(font
				(size 1 1)
				(thickness 0.15)
			)
		)
	)
	(pad "A1" smd circle
		(at -3.25 -3.25)
		(size 0.24 0.24)
		(layers "F.Cu" "F.Paste" "F.Mask")
		(uuid "af6db4f7-f33d-41ba-ad8f-092adb3bf6ba")
	)
	(pad "A2" smd circle
		(at -2.75 -3.25)
		(size 0.24 0.24)
		(layers "F.Cu" "F.Paste" "F.Mask")
		(uuid "01f43ff1-e4af-4665-9441-c0c964b7670f")
	)
	(pad "A3" smd circle
		(at -2.25 -3.25)
		(size 0.24 0.24)
		(layers "F.Cu" "F.Paste" "F.Mask")
		(uuid "d6a636ea-4244-4f9a-9fa4-604f6b001696")
	)
	(pad "A4" smd circle
		(at -1.75 -3.25)
		(size 0.24 0.24)
		(layers "F.Cu" "F.Paste" "F.Mask")
		(uuid "2145e9a2-59ab-4f4b-bf9e-f88f82a4a83d")
	)
	(pad "A5" smd circle
		(at -1.25 -3.25)
		(size 0.24 0.24)
		(layers "F.Cu" "F.Paste" "F.Mask")
		(uuid "30d93464-32bd-40f3-a6ed-5806fbc3cb8b")
	)
	(pad "A6" smd circle
		(at -0.75 -3.25)
		(size 0.24 0.24)
		(layers "F.Cu" "F.Paste" "F.Mask")
		(uuid "90d1a92a-771c-4d5b-949e-56620dbf9030")
	)
	(pad "A7" smd circle
		(at -0.25 -3.25)
		(size 0.24 0.24)
		(layers "F.Cu" "F.Paste" "F.Mask")
		(uuid "26050de7-32f3-4367-b7d8-15ee6bed9427")
	)
	(pad "A8" smd circle
		(at 0.25 -3.25)
		(size 0.24 0.24)
		(layers "F.Cu" "F.Paste" "F.Mask")
		(uuid "cc7bd444-ff9a-49c2-8984-823f488c4ae2")
	)
	(pad "A9" smd circle
		(at 0.75 -3.25)
		(size 0.24 0.24)
		(layers "F.Cu" "F.Paste" "F.Mask")
		(uuid "65c0c4f6-8416-45b5-a88a-d68ad2ea6c05")
	)
	(pad "A10" smd circle
		(at 1.25 -3.25)
		(size 0.24 0.24)
		(layers "F.Cu" "F.Paste" "F.Mask")
		(uuid "ed22ad84-3e6a-46d3-99d4-81248ffe301b")
	)
	(pad "A11" smd circle
		(at 1.75 -3.25)
		(size 0.24 0.24)
		(layers "F.Cu" "F.Paste" "F.Mask")
		(uuid "85b2a591-490b-4b2d-8bb1-eb8d75f1242e")
	)
	(pad "A12" smd circle
		(at 2.25 -3.25)
		(size 0.24 0.24)
		(layers "F.Cu" "F.Paste" "F.Mask")
		(uuid "3deb6123-1da8-4839-820f-eb23c19c6dd5")
	)
	(pad "A13" smd circle
		(at 2.75 -3.25)
		(size 0.24 0.24)
		(layers "F.Cu" "F.Paste" "F.Mask")
		(uuid "c4909f24-63ee-4ee4-8eb7-1663d103520c")
	)
	(pad "A14" smd circle
		(at 3.25 -3.25)
		(size 0.24 0.24)
		(layers "F.Cu" "F.Paste" "F.Mask")
		(uuid "56f8c095-8c8f-4e26-8be0-648d043a32d5")
	)
	(pad "B1" smd circle
		(at -3.25 -2.75)
		(size 0.24 0.24)
		(layers "F.Cu" "F.Paste" "F.Mask")
		(uuid "81251df7-0685-4222-8b36-cb3ea6e4ab6e")
	)
	(pad "B2" smd circle
		(at -2.75 -2.75)
		(size 0.24 0.24)
		(layers "F.Cu" "F.Paste" "F.Mask")
		(uuid "2ac76c14-cec5-43a0-b461-71afc57ca45a")
	)
	(pad "B3" smd circle
		(at -2.25 -2.75)
		(size 0.24 0.24)
		(layers "F.Cu" "F.Paste" "F.Mask")
		(uuid "49c53577-aa5e-47c7-8fc2-7acd2e08a116")
	)
	(pad "B4" smd circle
		(at -1.75 -2.75)
		(size 0.24 0.24)
		(layers "F.Cu" "F.Paste" "F.Mask")
		(uuid "64939db2-dd04-41cc-ab7d-369857425635")
	)
	(pad "B5" smd circle
		(at -1.25 -2.75)
		(size 0.24 0.24)
		(layers "F.Cu" "F.Paste" "F.Mask")
		(uuid "519b7662-7562-4cab-b2ff-471b0532e56c")
	)
	(pad "B6" smd circle
		(at -0.75 -2.75)
		(size 0.24 0.24)
		(layers "F.Cu" "F.Paste" "F.Mask")
		(uuid "4c2f7d17-219d-43e3-8d34-cc251b1ec34d")
	)
	(pad "B7" smd circle
		(at -0.25 -2.75)
		(size 0.24 0.24)
		(layers "F.Cu" "F.Paste" "F.Mask")
		(uuid "0140f95a-3301-47eb-9c14-e29e161cd601")
	)
	(pad "B8" smd circle
		(at 0.25 -2.75)
		(size 0.24 0.24)
		(layers "F.Cu" "F.Paste" "F.Mask")
		(uuid "33240e55-8479-47d3-87a0-dc73c95fb472")
	)
	(pad "B9" smd circle
		(at 0.75 -2.75)
		(size 0.24 0.24)
		(layers "F.Cu" "F.Paste" "F.Mask")
		(uuid "8b129547-5571-41bc-8754-96a03dd90936")
	)
	(pad "B10" smd circle
		(at 1.25 -2.75)
		(size 0.24 0.24)
		(layers "F.Cu" "F.Paste" "F.Mask")
		(uuid "30c0c53e-8799-4ba1-818a-566da597a359")
	)
	(pad "B11" smd circle
		(at 1.75 -2.75)
		(size 0.24 0.24)
		(layers "F.Cu" "F.Paste" "F.Mask")
		(uuid "7988ca61-d09a-4112-ab55-5b45c3cd8690")
	)
	(pad "B12" smd circle
		(at 2.25 -2.75)
		(size 0.24 0.24)
		(layers "F.Cu" "F.Paste" "F.Mask")
		(uuid "c8a5af50-de85-4385-ac44-9e94dda11463")
	)
	(pad "B13" smd circle
		(at 2.75 -2.75)
		(size 0.24 0.24)
		(layers "F.Cu" "F.Paste" "F.Mask")
		(uuid "d805da80-47d8-4500-b1dc-56db4ba65b1e")
	)
	(pad "B14" smd circle
		(at 3.25 -2.75)
		(size 0.24 0.24)
		(layers "F.Cu" "F.Paste" "F.Mask")
		(uuid "65562035-77fa-4783-92c8-79ac05f1684c")
	)
	(pad "C1" smd circle
		(at -3.25 -2.25)
		(size 0.24 0.24)
		(layers "F.Cu" "F.Paste" "F.Mask")
		(uuid "772d56c5-4b54-4186-8a66-6ef2fbc29053")
	)
	(pad "C2" smd circle
		(at -2.75 -2.25)
		(size 0.24 0.24)
		(layers "F.Cu" "F.Paste" "F.Mask")
		(uuid "1999e0e4-c5c8-46b0-b63d-52b7ecab8fb7")
	)
	(pad "C3" smd circle
		(at -2.25 -2.25)
		(size 0.24 0.24)
		(layers "F.Cu" "F.Paste" "F.Mask")
		(uuid "06240ff7-7d63-4733-9002-35287735502f")
	)
	(pad "C4" smd circle
		(at -1.75 -2.25)
		(size 0.24 0.24)
		(layers "F.Cu" "F.Paste" "F.Mask")
		(uuid "e2587f7f-7988-467a-a714-4b1e677a4be8")
	)
	(pad "C5" smd circle
		(at -1.25 -2.25)
		(size 0.24 0.24)
		(layers "F.Cu" "F.Paste" "F.Mask")
		(uuid "009477ad-2ff8-4e47-9559-2f5cf7dcb77c")
	)
	(pad "C6" smd circle
		(at -0.75 -2.25)
		(size 0.24 0.24)
		(layers "F.Cu" "F.Paste" "F.Mask")
		(uuid "2e8eddd4-2a8a-4f4d-8b3b-d83d22f3d613")
	)
	(pad "C7" smd circle
		(at -0.25 -2.25)
		(size 0.24 0.24)
		(layers "F.Cu" "F.Paste" "F.Mask")
		(uuid "7e4b4092-2356-4c66-875d-63f5361884e8")
	)
	(pad "C8" smd circle
		(at 0.25 -2.25)
		(size 0.24 0.24)
		(layers "F.Cu" "F.Paste" "F.Mask")
		(uuid "77ec9232-a580-498c-a7e1-863ed23daa99")
	)
	(pad "C9" smd circle
		(at 0.75 -2.25)
		(size 0.24 0.24)
		(layers "F.Cu" "F.Paste" "F.Mask")
		(uuid "93e28d16-1929-49b2-bb73-913f8dad047b")
	)
	(pad "C10" smd circle
		(at 1.25 -2.25)
		(size 0.24 0.24)
		(layers "F.Cu" "F.Paste" "F.Mask")
		(uuid "10df5270-ff49-471e-a09f-ad018e6bdd9f")
	)
	(pad "C11" smd circle
		(at 1.75 -2.25)
		(size 0.24 0.24)
		(layers "F.Cu" "F.Paste" "F.Mask")
		(uuid "2b5b3718-87be-4c53-b86d-ff569c7cfe05")
	)
	(pad "C12" smd circle
		(at 2.25 -2.25)
		(size 0.24 0.24)
		(layers "F.Cu" "F.Paste" "F.Mask")
		(uuid "89ade82e-a650-4c39-a605-7b76913a01ab")
	)
	(pad "C13" smd circle
		(at 2.75 -2.25)
		(size 0.24 0.24)
		(layers "F.Cu" "F.Paste" "F.Mask")
		(uuid "2cd5977c-bad6-4e64-bbd5-bb065e3ef795")
	)
	(pad "C14" smd circle
		(at 3.25 -2.25)
		(size 0.24 0.24)
		(layers "F.Cu" "F.Paste" "F.Mask")
		(uuid "4d64a0f0-65db-4e6a-a4fb-edbd08b50ae2")
	)
	(pad "D1" smd circle
		(at -3.25 -1.75)
		(size 0.24 0.24)
		(layers "F.Cu" "F.Paste" "F.Mask")
		(uuid "70b34c40-5835-4212-829f-8b3097e8ff41")
	)
	(pad "D2" smd circle
		(at -2.75 -1.75)
		(size 0.24 0.24)
		(layers "F.Cu" "F.Paste" "F.Mask")
		(uuid "89e3f95c-c7da-4538-a83c-4c7c3518ca51")
	)
	(pad "D3" smd circle
		(at -2.25 -1.75)
		(size 0.24 0.24)
		(layers "F.Cu" "F.Paste" "F.Mask")
		(uuid "e74dc3ee-53d0-4fc3-a4d2-eba45174acb8")
	)
	(pad "D4" smd circle
		(at -1.75 -1.75)
		(size 0.24 0.24)
		(layers "F.Cu" "F.Paste" "F.Mask")
		(uuid "22279216-9ca4-4a08-8944-edae43fecfd9")
	)
	(pad "D12" smd circle
		(at 2.25 -1.75)
		(size 0.24 0.24)
		(layers "F.Cu" "F.Paste" "F.Mask")
		(uuid "960d126a-9490-47e8-a298-2edb01de106e")
	)
	(pad "D13" smd circle
		(at 2.75 -1.75)
		(size 0.24 0.24)
		(layers "F.Cu" "F.Paste" "F.Mask")
		(uuid "441a004f-4f58-481a-971f-ad06e123a6b6")
	)
	(pad "D14" smd circle
		(at 3.25 -1.75)
		(size 0.24 0.24)
		(layers "F.Cu" "F.Paste" "F.Mask")
		(uuid "8407c24b-3ab3-4d9e-8206-133c2856db17")
	)
	(pad "E1" smd circle
		(at -3.25 -1.25)
		(size 0.24 0.24)
		(layers "F.Cu" "F.Paste" "F.Mask")
		(uuid "5727427c-5d3c-41db-9bad-b7750769f53e")
	)
	(pad "E2" smd circle
		(at -2.75 -1.25)
		(size 0.24 0.24)
		(layers "F.Cu" "F.Paste" "F.Mask")
		(uuid "d076c0eb-2b28-45c2-b3b8-4bda154dfd3a")
	)
	(pad "E3" smd circle
		(at -2.25 -1.25)
		(size 0.24 0.24)
		(layers "F.Cu" "F.Paste" "F.Mask")
		(uuid "1c5c8809-a38e-4139-ab36-1beb48c62cc2")
	)
	(pad "E5" smd circle
		(at -1.25 -1.25)
		(size 0.24 0.24)
		(layers "F.Cu" "F.Paste" "F.Mask")
		(uuid "0830534a-6a6f-4d18-a2b5-102a22b2ac98")
	)
	(pad "E6" smd circle
		(at -0.75 -1.25)
		(size 0.24 0.24)
		(layers "F.Cu" "F.Paste" "F.Mask")
		(uuid "d6ded2f0-2204-413c-b1cd-4c56fa00b20e")
	)
	(pad "E7" smd circle
		(at -0.25 -1.25)
		(size 0.24 0.24)
		(layers "F.Cu" "F.Paste" "F.Mask")
		(uuid "bfb1ef6b-eddd-4814-aa4c-2b098776139b")
	)
	(pad "E8" smd circle
		(at 0.25 -1.25)
		(size 0.24 0.24)
		(layers "F.Cu" "F.Paste" "F.Mask")
		(uuid "c2837bd6-4787-460e-81bb-a1f5e973da58")
	)
	(pad "E9" smd circle
		(at 0.75 -1.25)
		(size 0.24 0.24)
		(layers "F.Cu" "F.Paste" "F.Mask")
		(uuid "fbb6a4e5-8f3d-41f8-b1a4-4749b4f08ab2")
	)
	(pad "E10" smd circle
		(at 1.25 -1.25)
		(size 0.24 0.24)
		(layers "F.Cu" "F.Paste" "F.Mask")
		(uuid "20ef329b-2d69-4cd8-bd04-021809999d51")
	)
	(pad "E12" smd circle
		(at 2.25 -1.25)
		(size 0.24 0.24)
		(layers "F.Cu" "F.Paste" "F.Mask")
		(uuid "59fb0471-5858-4093-b194-c1bc1e0a3e6c")
	)
	(pad "E13" smd circle
		(at 2.75 -1.25)
		(size 0.24 0.24)
		(layers "F.Cu" "F.Paste" "F.Mask")
		(uuid "353112bb-99cd-4267-8608-8bec4ba8b61a")
	)
	(pad "E14" smd circle
		(at 3.25 -1.25)
		(size 0.24 0.24)
		(layers "F.Cu" "F.Paste" "F.Mask")
		(uuid "8a8f72d0-f2d1-4278-9eca-53e3c3878196")
	)
	(pad "F1" smd circle
		(at -3.25 -0.75)
		(size 0.24 0.24)
		(layers "F.Cu" "F.Paste" "F.Mask")
		(uuid "836e01fd-b501-46ed-9b60-19c9d0304186")
	)
	(pad "F2" smd circle
		(at -2.75 -0.75)
		(size 0.24 0.24)
		(layers "F.Cu" "F.Paste" "F.Mask")
		(uuid "e483caab-c379-4f1d-9934-91bf3a4ae9d6")
	)
	(pad "F3" smd circle
		(at -2.25 -0.75)
		(size 0.24 0.24)
		(layers "F.Cu" "F.Paste" "F.Mask")
		(uuid "80a9a267-b64f-4289-b7cb-543a0e2c1de3")
	)
	(pad "F5" smd circle
		(at -1.25 -0.75)
		(size 0.24 0.24)
		(layers "F.Cu" "F.Paste" "F.Mask")
		(uuid "cee58a9a-2459-4850-9990-0219123f34f7")
	)
	(pad "F10" smd circle
		(at 1.25 -0.75)
		(size 0.24 0.24)
		(layers "F.Cu" "F.Paste" "F.Mask")
		(uuid "f3d5f199-6d09-49b5-8a44-e671bcaa31ff")
	)
	(pad "F12" smd circle
		(at 2.25 -0.75)
		(size 0.24 0.24)
		(layers "F.Cu" "F.Paste" "F.Mask")
		(uuid "7b1945ac-9c42-42c9-aecd-1c6b5f5bfc27")
	)
	(pad "F13" smd circle
		(at 2.75 -0.75)
		(size 0.24 0.24)
		(layers "F.Cu" "F.Paste" "F.Mask")
		(uuid "bddd47ea-a545-4876-a74d-87e5673af7eb")
	)
	(pad "F14" smd circle
		(at 3.25 -0.75)
		(size 0.24 0.24)
		(layers "F.Cu" "F.Paste" "F.Mask")
		(uuid "73586b51-7716-4df5-affa-e49910702f2d")
	)
	(pad "G1" smd circle
		(at -3.25 -0.25)
		(size 0.24 0.24)
		(layers "F.Cu" "F.Paste" "F.Mask")
		(uuid "427295bf-b5e9-4b01-8344-3370cb610282")
	)
	(pad "G2" smd circle
		(at -2.75 -0.25)
		(size 0.24 0.24)
		(layers "F.Cu" "F.Paste" "F.Mask")
		(uuid "58fdb666-6061-4726-a225-a5e4104ebb3c")
	)
	(pad "G3" smd circle
		(at -2.25 -0.25)
		(size 0.24 0.24)
		(layers "F.Cu" "F.Paste" "F.Mask")
		(uuid "9d4a5b1a-97a7-48b0-8891-a3a66ceda99a")
	)
	(pad "G5" smd circle
		(at -1.25 -0.25)
		(size 0.24 0.24)
		(layers "F.Cu" "F.Paste" "F.Mask")
		(uuid "bd79c4d4-cff5-4541-9ed0-b6ac5082bb9a")
	)
	(pad "G10" smd circle
		(at 1.25 -0.25)
		(size 0.24 0.24)
		(layers "F.Cu" "F.Paste" "F.Mask")
		(uuid "4f6de423-4694-499e-bd67-2950f21f2156")
	)
	(pad "G12" smd circle
		(at 2.25 -0.25)
		(size 0.24 0.24)
		(layers "F.Cu" "F.Paste" "F.Mask")
		(uuid "42107398-96f6-4a8d-b12b-cedc6172cb8e")
	)
	(pad "G13" smd circle
		(at 2.75 -0.25)
		(size 0.24 0.24)
		(layers "F.Cu" "F.Paste" "F.Mask")
		(uuid "51b7fdda-9741-4bd6-ad73-3377f37450af")
	)
	(pad "G14" smd circle
		(at 3.25 -0.25)
		(size 0.24 0.24)
		(layers "F.Cu" "F.Paste" "F.Mask")
		(uuid "5b38965a-15df-47d5-b706-7e95f6b41041")
	)
	(pad "H1" smd circle
		(at -3.25 0.25)
		(size 0.24 0.24)
		(layers "F.Cu" "F.Paste" "F.Mask")
		(uuid "f65b82bc-b513-484a-a4c5-945717dad168")
	)
	(pad "H2" smd circle
		(at -2.75 0.25)
		(size 0.24 0.24)
		(layers "F.Cu" "F.Paste" "F.Mask")
		(uuid "f2d01c59-9c03-4e8e-a715-925f083d1ef5")
	)
	(pad "H3" smd circle
		(at -2.25 0.25)
		(size 0.24 0.24)
		(layers "F.Cu" "F.Paste" "F.Mask")
		(uuid "0f9f1c74-6399-44ff-929e-d535c1dff9fd")
	)
	(pad "H5" smd circle
		(at -1.25 0.25)
		(size 0.24 0.24)
		(layers "F.Cu" "F.Paste" "F.Mask")
		(uuid "3e1f640c-0b11-45ec-b43f-3ad9db142445")
	)
	(pad "H10" smd circle
		(at 1.25 0.25)
		(size 0.24 0.24)
		(layers "F.Cu" "F.Paste" "F.Mask")
		(uuid "9175980d-2739-4526-8677-0c01d44e6d49")
	)
	(pad "H12" smd circle
		(at 2.25 0.25)
		(size 0.24 0.24)
		(layers "F.Cu" "F.Paste" "F.Mask")
		(uuid "7dd9c5ef-7ec8-414c-948f-50b1d93bdd67")
	)
	(pad "H13" smd circle
		(at 2.75 0.25)
		(size 0.24 0.24)
		(layers "F.Cu" "F.Paste" "F.Mask")
		(uuid "5b56fdd9-0317-49e0-badc-96b5ebbd0564")
	)
	(pad "H14" smd circle
		(at 3.25 0.25)
		(size 0.24 0.24)
		(layers "F.Cu" "F.Paste" "F.Mask")
		(uuid "164096a9-ca3c-4018-8581-4506e13e214d")
	)
	(pad "J1" smd circle
		(at -3.25 0.75)
		(size 0.24 0.24)
		(layers "F.Cu" "F.Paste" "F.Mask")
		(uuid "6473b753-0225-4fde-8022-12113c9251f6")
	)
	(pad "J2" smd circle
		(at -2.75 0.75)
		(size 0.24 0.24)
		(layers "F.Cu" "F.Paste" "F.Mask")
		(uuid "a55fca88-9844-4daf-a998-cf844d76f79f")
	)
	(pad "J3" smd circle
		(at -2.25 0.75)
		(size 0.24 0.24)
		(layers "F.Cu" "F.Paste" "F.Mask")
		(uuid "b921dae7-870b-4f45-9e4d-93680f851356")
	)
	(pad "J5" smd circle
		(at -1.25 0.75)
		(size 0.24 0.24)
		(layers "F.Cu" "F.Paste" "F.Mask")
		(uuid "bcbcce69-2e86-42f9-beda-dcafa22e6568")
	)
	(pad "J10" smd circle
		(at 1.25 0.75)
		(size 0.24 0.24)
		(layers "F.Cu" "F.Paste" "F.Mask")
		(uuid "42a7c30a-ce6b-4252-be7f-0205b440436b")
	)
	(pad "J12" smd circle
		(at 2.25 0.75)
		(size 0.24 0.24)
		(layers "F.Cu" "F.Paste" "F.Mask")
		(uuid "e8cb33c0-6c71-4717-9302-14dbe863d9e2")
	)
	(pad "J13" smd circle
		(at 2.75 0.75)
		(size 0.24 0.24)
		(layers "F.Cu" "F.Paste" "F.Mask")
		(uuid "7552da3e-1adc-4af3-95fd-4b4c935b20be")
	)
	(pad "J14" smd circle
		(at 3.25 0.75)
		(size 0.24 0.24)
		(layers "F.Cu" "F.Paste" "F.Mask")
		(uuid "dfab7348-fcba-4276-baf8-7ec226060a8c")
	)
	(pad "K1" smd circle
		(at -3.25 1.25)
		(size 0.24 0.24)
		(layers "F.Cu" "F.Paste" "F.Mask")
		(uuid "cf357089-adac-4d14-8011-32aba0d3114a")
	)
	(pad "K2" smd circle
		(at -2.75 1.25)
		(size 0.24 0.24)
		(layers "F.Cu" "F.Paste" "F.Mask")
		(uuid "2a6b3aad-4d69-416c-9ae2-f2419ac485a6")
	)
	(pad "K3" smd circle
		(at -2.25 1.25)
		(size 0.24 0.24)
		(layers "F.Cu" "F.Paste" "F.Mask")
		(uuid "03c11e34-821e-48d3-8c87-25df1002994b")
	)
	(pad "K5" smd circle
		(at -1.25 1.25)
		(size 0.24 0.24)
		(layers "F.Cu" "F.Paste" "F.Mask")
		(uuid "6b7a2b42-0d52-4c71-9021-7ee1cd4a6e99")
	)
	(pad "K6" smd circle
		(at -0.75 1.25)
		(size 0.24 0.24)
		(layers "F.Cu" "F.Paste" "F.Mask")
		(uuid "79b0f5c7-65b3-4cc4-b716-c1f4dade195b")
	)
	(pad "K7" smd circle
		(at -0.25 1.25)
		(size 0.24 0.24)
		(layers "F.Cu" "F.Paste" "F.Mask")
		(uuid "2db79993-9b48-4250-9ed9-c6e228a942c1")
	)
	(pad "K8" smd circle
		(at 0.25 1.25)
		(size 0.24 0.24)
		(layers "F.Cu" "F.Paste" "F.Mask")
		(uuid "d95e01c9-d183-4762-86ce-ef22bf693e6e")
	)
	(pad "K9" smd circle
		(at 0.75 1.25)
		(size 0.24 0.24)
		(layers "F.Cu" "F.Paste" "F.Mask")
		(uuid "c9484e9a-6e4e-430f-ac5b-5e545d5b1efb")
	)
	(pad "K10" smd circle
		(at 1.25 1.25)
		(size 0.24 0.24)
		(layers "F.Cu" "F.Paste" "F.Mask")
		(uuid "5cbf2478-002f-4438-b78c-5ec8b80cd70c")
	)
	(pad "K12" smd circle
		(at 2.25 1.25)
		(size 0.24 0.24)
		(layers "F.Cu" "F.Paste" "F.Mask")
		(uuid "7c266311-cc09-4802-b8f0-4772857df5ce")
	)
	(pad "K13" smd circle
		(at 2.75 1.25)
		(size 0.24 0.24)
		(layers "F.Cu" "F.Paste" "F.Mask")
		(uuid "75b845a6-fb5c-41f1-a77b-d450b35a02f7")
	)
	(pad "K14" smd circle
		(at 3.25 1.25)
		(size 0.24 0.24)
		(layers "F.Cu" "F.Paste" "F.Mask")
		(uuid "250865be-ec43-4bcc-8fed-67cbebb73163")
	)
	(pad "L1" smd circle
		(at -3.25 1.75)
		(size 0.24 0.24)
		(layers "F.Cu" "F.Paste" "F.Mask")
		(uuid "013d91b8-df93-42ec-bf66-a87e12604ea8")
	)
	(pad "L2" smd circle
		(at -2.75 1.75)
		(size 0.24 0.24)
		(layers "F.Cu" "F.Paste" "F.Mask")
		(uuid "a78bade3-7945-484f-be3b-dfa6b2947bbb")
	)
	(pad "L3" smd circle
		(at -2.25 1.75)
		(size 0.24 0.24)
		(layers "F.Cu" "F.Paste" "F.Mask")
		(uuid "85377156-a444-4cd5-adec-edf5313d2f9c")
	)
	(pad "L12" smd circle
		(at 2.25 1.75)
		(size 0.24 0.24)
		(layers "F.Cu" "F.Paste" "F.Mask")
		(uuid "420f21de-45b9-4c9e-90c8-a006d8e19578")
	)
	(pad "L13" smd circle
		(at 2.75 1.75)
		(size 0.24 0.24)
		(layers "F.Cu" "F.Paste" "F.Mask")
		(uuid "87748303-4c0a-4b9a-97e0-41b3cf8f475d")
	)
	(pad "L14" smd circle
		(at 3.25 1.75)
		(size 0.24 0.24)
		(layers "F.Cu" "F.Paste" "F.Mask")
		(uuid "e9ade752-b88e-472f-906c-dd0110cc3b69")
	)
	(pad "M1" smd circle
		(at -3.25 2.25)
		(size 0.24 0.24)
		(layers "F.Cu" "F.Paste" "F.Mask")
		(uuid "d4fc106d-ac24-462e-af72-9d82bf15567e")
	)
	(pad "M2" smd circle
		(at -2.75 2.25)
		(size 0.24 0.24)
		(layers "F.Cu" "F.Paste" "F.Mask")
		(uuid "ca87d1ee-01ce-4494-8e95-1ba796c06f54")
	)
	(pad "M3" smd circle
		(at -2.25 2.25)
		(size 0.24 0.24)
		(layers "F.Cu" "F.Paste" "F.Mask")
		(uuid "7cb11338-1936-40e5-a614-f2b58759f710")
	)
	(pad "M4" smd circle
		(at -1.75 2.25)
		(size 0.24 0.24)
		(layers "F.Cu" "F.Paste" "F.Mask")
		(uuid "4a69657c-76d2-43fc-8b0f-a33069f7a9cc")
	)
	(pad "M5" smd circle
		(at -1.25 2.25)
		(size 0.24 0.24)
		(layers "F.Cu" "F.Paste" "F.Mask")
		(uuid "c280a2ea-3551-41eb-a798-cd66c9c592a5")
	)
	(pad "M6" smd circle
		(at -0.75 2.25)
		(size 0.24 0.24)
		(layers "F.Cu" "F.Paste" "F.Mask")
		(uuid "e44c8fe9-3f4d-4673-add1-e48460656ea6")
	)
	(pad "M7" smd circle
		(at -0.25 2.25)
		(size 0.24 0.24)
		(layers "F.Cu" "F.Paste" "F.Mask")
		(uuid "85654e6f-959d-4189-abe0-23b31bd18f05")
	)
	(pad "M8" smd circle
		(at 0.25 2.25)
		(size 0.24 0.24)
		(layers "F.Cu" "F.Paste" "F.Mask")
		(uuid "21194c79-9292-487f-bce0-8ab5679bf2c9")
	)
	(pad "M9" smd circle
		(at 0.75 2.25)
		(size 0.24 0.24)
		(layers "F.Cu" "F.Paste" "F.Mask")
		(uuid "831dc623-4e94-403e-942f-11d72a3662d0")
	)
	(pad "M10" smd circle
		(at 1.25 2.25)
		(size 0.24 0.24)
		(layers "F.Cu" "F.Paste" "F.Mask")
		(uuid "9d82e9e7-8891-43bb-8c62-6b1f4acc8e7b")
	)
	(pad "M11" smd circle
		(at 1.75 2.25)
		(size 0.24 0.24)
		(layers "F.Cu" "F.Paste" "F.Mask")
		(uuid "61387ab1-d1f0-4700-ac0f-122260bc9619")
	)
	(pad "M12" smd circle
		(at 2.25 2.25)
		(size 0.24 0.24)
		(layers "F.Cu" "F.Paste" "F.Mask")
		(uuid "82350464-f890-43a9-86e4-c9a177441a9e")
	)
	(pad "M13" smd circle
		(at 2.75 2.25)
		(size 0.24 0.24)
		(layers "F.Cu" "F.Paste" "F.Mask")
		(uuid "bada607e-3de1-4c6a-bc77-9740bf8e8f03")
	)
	(pad "M14" smd circle
		(at 3.25 2.25)
		(size 0.24 0.24)
		(layers "F.Cu" "F.Paste" "F.Mask")
		(uuid "a4f68f4b-b11f-4849-9a4e-be34df76d234")
	)
	(pad "N1" smd circle
		(at -3.25 2.75)
		(size 0.24 0.24)
		(layers "F.Cu" "F.Paste" "F.Mask")
		(uuid "c5918f93-4863-457a-a820-3e15504fa4fe")
	)
	(pad "N2" smd circle
		(at -2.75 2.75)
		(size 0.24 0.24)
		(layers "F.Cu" "F.Paste" "F.Mask")
		(uuid "254ac6ae-84eb-4a79-aac3-21485a0df6da")
	)
	(pad "N3" smd circle
		(at -2.25 2.75)
		(size 0.24 0.24)
		(layers "F.Cu" "F.Paste" "F.Mask")
		(uuid "42c38172-2a2f-4101-8058-21350b63a5f3")
	)
	(pad "N4" smd circle
		(at -1.75 2.75)
		(size 0.24 0.24)
		(layers "F.Cu" "F.Paste" "F.Mask")
		(uuid "be4b2c89-6ef2-4991-ab57-4662a47950eb")
	)
	(pad "N5" smd circle
		(at -1.25 2.75)
		(size 0.24 0.24)
		(layers "F.Cu" "F.Paste" "F.Mask")
		(uuid "34beed86-c788-460d-beda-d764aee90d81")
	)
	(pad "N6" smd circle
		(at -0.75 2.75)
		(size 0.24 0.24)
		(layers "F.Cu" "F.Paste" "F.Mask")
		(uuid "f3e0e411-60bc-4c53-a9b5-f20e65331753")
	)
	(pad "N7" smd circle
		(at -0.25 2.75)
		(size 0.24 0.24)
		(layers "F.Cu" "F.Paste" "F.Mask")
		(uuid "12100e00-db78-42dc-8bc6-ca278b15e4ea")
	)
	(pad "N8" smd circle
		(at 0.25 2.75)
		(size 0.24 0.24)
		(layers "F.Cu" "F.Paste" "F.Mask")
		(uuid "41cc5cee-975f-4802-8cf8-ce8db7477e71")
	)
	(pad "N9" smd circle
		(at 0.75 2.75)
		(size 0.24 0.24)
		(layers "F.Cu" "F.Paste" "F.Mask")
		(uuid "7107b734-0c32-4c93-ae31-955aadcb0e08")
	)
	(pad "N10" smd circle
		(at 1.25 2.75)
		(size 0.24 0.24)
		(layers "F.Cu" "F.Paste" "F.Mask")
		(uuid "3cc7d4ba-0833-4457-940e-b90fc1dfce95")
	)
	(pad "N11" smd circle
		(at 1.75 2.75)
		(size 0.24 0.24)
		(layers "F.Cu" "F.Paste" "F.Mask")
		(uuid "2b5213fc-428c-4c13-b39f-f67653c82cb0")
	)
	(pad "N12" smd circle
		(at 2.25 2.75)
		(size 0.24 0.24)
		(layers "F.Cu" "F.Paste" "F.Mask")
		(uuid "56d6db16-1b04-4511-98da-e74cd75c5022")
	)
	(pad "N13" smd circle
		(at 2.75 2.75)
		(size 0.24 0.24)
		(layers "F.Cu" "F.Paste" "F.Mask")
		(uuid "6be07141-cc83-4718-bb12-bbe62ba48cf3")
	)
	(pad "N14" smd circle
		(at 3.25 2.75)
		(size 0.24 0.24)
		(layers "F.Cu" "F.Paste" "F.Mask")
		(uuid "5f056a97-d1f7-4ccd-bb69-a0104affea3b")
	)
	(pad "P1" smd circle
		(at -3.25 3.25)
		(size 0.24 0.24)
		(layers "F.Cu" "F.Paste" "F.Mask")
		(uuid "bb1847da-d849-4d52-9e57-4a2494a55b36")
	)
	(pad "P2" smd circle
		(at -2.75 3.25)
		(size 0.24 0.24)
		(layers "F.Cu" "F.Paste" "F.Mask")
		(uuid "a66a362c-146b-4a1f-8f72-7018f60a0aca")
	)
	(pad "P3" smd circle
		(at -2.25 3.25)
		(size 0.24 0.24)
		(layers "F.Cu" "F.Paste" "F.Mask")
		(uuid "e7928797-6050-4bb5-b784-0e93338562dc")
	)
	(pad "P4" smd circle
		(at -1.75 3.25)
		(size 0.24 0.24)
		(layers "F.Cu" "F.Paste" "F.Mask")
		(uuid "70099ad8-d8dd-4d75-8d29-98eef675bd97")
	)
	(pad "P5" smd circle
		(at -1.25 3.25)
		(size 0.24 0.24)
		(layers "F.Cu" "F.Paste" "F.Mask")
		(uuid "956f695c-5478-4e6f-9b4e-f0c8f74c6b51")
	)
	(pad "P6" smd circle
		(at -0.75 3.25)
		(size 0.24 0.24)
		(layers "F.Cu" "F.Paste" "F.Mask")
		(uuid "f25e4775-d4a3-4835-8cb5-01688c0efefb")
	)
	(pad "P7" smd circle
		(at -0.25 3.25)
		(size 0.24 0.24)
		(layers "F.Cu" "F.Paste" "F.Mask")
		(uuid "2beac6a1-8d5c-4ddb-ad0d-30446a322775")
	)
	(pad "P8" smd circle
		(at 0.25 3.25)
		(size 0.24 0.24)
		(layers "F.Cu" "F.Paste" "F.Mask")
		(uuid "d4e91a54-e8f1-4598-972e-38614a76f260")
	)
	(pad "P9" smd circle
		(at 0.75 3.25)
		(size 0.24 0.24)
		(layers "F.Cu" "F.Paste" "F.Mask")
		(uuid "80e0cc6e-aa69-47fe-92e5-5f80e1038753")
	)
	(pad "P10" smd circle
		(at 1.25 3.25)
		(size 0.24 0.24)
		(layers "F.Cu" "F.Paste" "F.Mask")
		(uuid "1f0a0024-9acb-424c-9e8e-5dcca4d40065")
	)
	(pad "P11" smd circle
		(at 1.75 3.25)
		(size 0.24 0.24)
		(layers "F.Cu" "F.Paste" "F.Mask")
		(uuid "05100592-a463-47ca-a773-b9f39552a98e")
	)
	(pad "P12" smd circle
		(at 2.25 3.25)
		(size 0.24 0.24)
		(layers "F.Cu" "F.Paste" "F.Mask")
		(uuid "accab650-744a-461a-af8a-2d913af37ca7")
	)
	(pad "P13" smd circle
		(at 2.75 3.25)
		(size 0.24 0.24)
		(layers "F.Cu" "F.Paste" "F.Mask")
		(uuid "cdf6198c-b2a0-410e-83d3-ff3f3ecdf094")
	)
	(pad "P14" smd circle
		(at 3.25 3.25)
		(size 0.24 0.24)
		(layers "F.Cu" "F.Paste" "F.Mask")
		(uuid "e16a2f44-d740-4d33-90dd-adfe0a23157c")
	)
	(model "${LSF_KICAD_LIB}/lsf-kicad-lib.3dshapes/BGA-153_13.0mmx11.5mm_P0.5mm.wrl"
		(offset
			(xyz 0 0 0)
		)
		(scale
			(xyz 1 1 1)
		)
		(rotate
			(xyz 0 0 0)
		)
	)
)
