(footprint "Crystal_SMD_Kyocera_MC2016Z-4Pin_2.00x1.6mm"
	(version 20240108)
	(generator "pcbnew")
	(generator_version "8.0")
	(layer "F.Cu")
	(descr "MC2016Z-4Pin_2.00x1.6mm, https://ele.kyocera.com/assets/products/crystal-device/clock_mcz_e.pdf")
	(tags "Kyocera crystal oscillator")
	(property "Reference" "REF**"
		(at -0.1 -1.75 0)
		(unlocked yes)
		(layer "F.SilkS")
		(uuid "bed91181-ec46-4daf-99af-a07717575d59")
		(effects
			(font
				(size 1 1)
				(thickness 0.15)
			)
		)
	)
	(property "Value" "Crystal_SMD_Kyocera_MC2016Z-4Pin_2.00x1.6mm"
		(at -0.1 2.55 0)
		(unlocked yes)
		(layer "F.Fab")
		(uuid "2cf3aab4-d12f-4362-8a1c-9435e8a768f5")
		(effects
			(font
				(size 1 1)
				(thickness 0.15)
			)
		)
	)
	(property "Footprint" ""
		(at 0 0 0)
		(unlocked yes)
		(layer "F.Fab")
		(hide yes)
		(uuid "8a8e1dc2-a01f-4e38-97cd-11817cfd5a3a")
		(effects
			(font
				(size 1.27 1.27)
				(thickness 0.15)
			)
		)
	)
	(property "Datasheet" ""
		(at 0 0 0)
		(unlocked yes)
		(layer "F.Fab")
		(hide yes)
		(uuid "160910a1-7c6b-475c-a75e-c5ea8682b93f")
		(effects
			(font
				(size 1.27 1.27)
				(thickness 0.15)
			)
		)
	)
	(property "Description" ""
		(at 0 0 0)
		(unlocked yes)
		(layer "F.Fab")
		(hide yes)
		(uuid "5a636d1e-56f4-4473-9a59-861059ac39fd")
		(effects
			(font
				(size 1.27 1.27)
				(thickness 0.15)
			)
		)
	)
	(attr smd)
	(fp_line
		(start -1.45 -1.1)
		(end -1.45 1.2)
		(stroke
			(width 0.12)
			(type solid)
		)
		(layer "F.SilkS")
		(uuid "639ba793-4da3-4de0-97fe-bdefc1e5b442")
	)
	(fp_line
		(start -1.45 1.2)
		(end 1.25 1.2)
		(stroke
			(width 0.12)
			(type solid)
		)
		(layer "F.SilkS")
		(uuid "9d993d68-ea6a-4eab-b2d3-1052c770c798")
	)
	(fp_line
		(start -1.5 -1.25)
		(end -1.5 1.35)
		(stroke
			(width 0.05)
			(type solid)
		)
		(layer "F.CrtYd")
		(uuid "98dc52d7-4c41-4fa0-83bf-af36b9687767")
	)
	(fp_line
		(start -1.5 -1.25)
		(end 1.3 -1.25)
		(stroke
			(width 0.05)
			(type solid)
		)
		(layer "F.CrtYd")
		(uuid "f381c274-ac4d-4f01-bae9-2968f0626354")
	)
	(fp_line
		(start -1.5 1.35)
		(end 1.3 1.35)
		(stroke
			(width 0.05)
			(type solid)
		)
		(layer "F.CrtYd")
		(uuid "0ff928db-b91a-4057-92cb-ad62d70febb1")
	)
	(fp_line
		(start 1.3 -1.25)
		(end 1.3 1.35)
		(stroke
			(width 0.05)
			(type solid)
		)
		(layer "F.CrtYd")
		(uuid "b62da94f-cde8-4f2e-897d-8d88d1905446")
	)
	(fp_line
		(start -1 -0.55)
		(end -0.9 -0.65)
		(stroke
			(width 0.1)
			(type solid)
		)
		(layer "F.Fab")
		(uuid "5971faa9-c7a1-4b16-bebc-07a4855ad9f5")
	)
	(fp_line
		(start -1 0.55)
		(end -1 -0.55)
		(stroke
			(width 0.1)
			(type solid)
		)
		(layer "F.Fab")
		(uuid "2b7b74da-cf9f-4f20-a233-35c184016d53")
	)
	(fp_line
		(start -0.9 -0.65)
		(end 0.8 -0.65)
		(stroke
			(width 0.1)
			(type solid)
		)
		(layer "F.Fab")
		(uuid "c104beec-ab1f-45e9-b710-3874adc7da2e")
	)
	(fp_line
		(start -0.8 0.85)
		(end -1 0.55)
		(stroke
			(width 0.1)
			(type solid)
		)
		(layer "F.Fab")
		(uuid "d096defc-4f8b-4793-a019-3a6f4fc118b9")
	)
	(fp_line
		(start 0.8 -0.65)
		(end 0.9 -0.55)
		(stroke
			(width 0.1)
			(type solid)
		)
		(layer "F.Fab")
		(uuid "a2a57372-00be-4270-b806-16fc28e66af6")
	)
	(fp_line
		(start 0.8 0.85)
		(end -0.8 0.85)
		(stroke
			(width 0.1)
			(type solid)
		)
		(layer "F.Fab")
		(uuid "1d58c1a5-7a18-433d-b6e1-6bd49b492093")
	)
	(fp_line
		(start 0.8 0.85)
		(end 0.9 0.75)
		(stroke
			(width 0.1)
			(type default)
		)
		(layer "F.Fab")
		(uuid "2bf8c6f1-4573-4577-93b9-ee6bbf87bc4c")
	)
	(fp_line
		(start 0.9 -0.55)
		(end 0.9 0.75)
		(stroke
			(width 0.1)
			(type solid)
		)
		(layer "F.Fab")
		(uuid "4368e468-b6ed-41ca-9181-5bff4c9b5b1a")
	)
	(fp_text user "${REFERENCE}"
		(at -0.1 4.05 0)
		(unlocked yes)
		(layer "F.Fab")
		(uuid "895f076b-dc59-4973-a2d9-481061e6bf16")
		(effects
			(font
				(size 1 1)
				(thickness 0.15)
			)
		)
	)
	(pad "1" smd rect
		(at -0.9 0.6)
		(size 0.6 0.8)
		(layers "F.Cu" "F.Paste" "F.Mask")
		(uuid "5f8a9468-10f8-45e7-b026-bbca7546b454")
	)
	(pad "2" smd rect
		(at 0.9 0.6)
		(size 0.6 0.8)
		(layers "F.Cu" "F.Paste" "F.Mask")
		(uuid "363d9c78-1b16-4813-93c0-1b7218a459c7")
	)
	(pad "3" smd rect
		(at 0.9 -0.6)
		(size 0.6 0.8)
		(layers "F.Cu" "F.Paste" "F.Mask")
		(uuid "f903eed2-849d-4ffd-8fa2-8df087c7b2aa")
	)
	(pad "4" smd rect
		(at -0.9 -0.6)
		(size 0.6 0.8)
		(layers "F.Cu" "F.Paste" "F.Mask")
		(uuid "9fad21a8-1966-4100-9f45-84cc5d6119cc")
	)
	(model "${LSF_KICAD_LIB}/lsf-kicad-lib.3dshapes/Crystal_SMD_Kyocera_MC2016Z-4Pin_2.00x1.6mm.wrl"
		(offset
			(xyz 0 0 0)
		)
		(scale
			(xyz 1 1 1)
		)
		(rotate
			(xyz 0 0 0)
		)
	)
)
