(footprint "D2F-L2-A" (version 20211014) (generator pcbnew)
  (layer "F.Cu")
  (tedit 5DCD3FE1)
  (descr "Ultra Subminiature Basic Switch; https://omronfs.omron.com/en_US/ecb/products/pdf/en-d2f.pdf")
  (tags "switch spdt")
  (attr through_hole)
  (fp_text reference "REF**" (at -4.6 2.75) (layer "F.SilkS")
    (effects (font (size 1 1) (thickness 0.15)))
    (tstamp 8b5e27f4-0170-4cec-9f9b-1a71f198a676)
  )
  (fp_text value "D2F-L2-A" (at -5.1 -2) (layer "F.Fab")
    (effects (font (size 1 1) (thickness 0.15)))
    (tstamp 9e40bb9f-348b-4d63-a517-cddcadd8162c)
  )
  (fp_text user "${REFERENCE}" (at -4.6 2.7575) (layer "F.Fab")
    (effects (font (size 1 1) (thickness 0.15)))
    (tstamp fb723382-acf0-4b46-afc4-3e725df31714)
  )
  (fp_line (start -11.5 -2.8) (end 1.3 -2.8) (layer "F.SilkS") (width 0.12) (tstamp 2dcb5c50-633a-466a-afd3-d583d03901ad))
  (fp_line (start -11.5 -2.8) (end -11.5 1.4) (layer "F.SilkS") (width 0.12) (tstamp 3e0fdd6e-8a3b-4e28-b181-b7681f649a84))
  (fp_line (start -11.5 1.4) (end 1.3 1.4) (layer "F.SilkS") (width 0.12) (tstamp b9a51245-133e-41e2-8041-2b4a72c85995))
  (fp_line (start 1.3 0.699) (end 1.3 1.4) (layer "F.SilkS") (width 0.12) (tstamp ba9b0fca-92e8-489e-95a0-9619423bb683))
  (fp_line (start 1.3 -2.8) (end 1.3 -0.699) (layer "F.SilkS") (width 0.12) (tstamp e0945dc2-934b-4124-afc4-e02020ea592f))
  (fp_line (start 1.7 1.9) (end -12 1.9) (layer "F.CrtYd") (width 0.05) (tstamp 19812630-d3c5-496f-bb5d-68a8dd4e06b0))
  (fp_line (start 1.7 -7.8) (end 1.7 1.9) (layer "F.CrtYd") (width 0.05) (tstamp 26e1e558-ea52-429b-978b-a3b16d14ed9b))
  (fp_line (start 5.6 -8.6) (end 1.7 -7.8) (layer "F.CrtYd") (width 0.05) (tstamp 2bca4c57-260c-4e6e-b9eb-3b1fbef5af9e))
  (fp_line (start -2.3 -16.2) (end 3.7 -17.4) (layer "F.CrtYd") (width 0.05) (tstamp 42e0b4ce-f588-4f12-9455-2ce1f0a15d86))
  (fp_line (start -1.3 -11.1) (end -2.3 -16.2) (layer "F.CrtYd") (width 0.05) (tstamp 7ac48c97-4ebe-4193-931a-be3bb29c9b2e))
  (fp_line (start -12 -8.9) (end -1.3 -11.1) (layer "F.CrtYd") (width 0.05) (tstamp 8ef5088b-892d-4e79-9a49-a8a061048b65))
  (fp_line (start 3.7 -17.4) (end 5.6 -8.6) (layer "F.CrtYd") (width 0.05) (tstamp 9128f403-d748-4aaf-8ba3-2e04c78cc283))
  (fp_line (start -12 1.9) (end -12 -8.9) (layer "F.CrtYd") (width 0.05) (tstamp fa4d7b27-dd43-4fd3-bae6-74d440b1f8fa))
  (fp_line (start -11.5 -7.8) (end 1.3 -7.8) (layer "F.Fab") (width 0.1) (tstamp 0380d17a-65a2-495e-8282-074559bf9332))
  (fp_line (start -10.9 -7.8) (end 3.7 -10.5) (layer "F.Fab") (width 0.1) (tstamp 302a26a4-8906-4eb3-b694-6b71bba26129))
  (fp_line (start 1.3 1.4) (end -11.5 1.4) (layer "F.Fab") (width 0.1) (tstamp 5375cfb9-9da8-4502-a020-f753adb343c3))
  (fp_line (start -11.5 -2.8) (end 1.3 -2.8) (layer "F.Fab") (width 0.1) (tstamp 5d05c776-f12f-43d1-9a26-952e2c749b82))
  (fp_line (start -11.5 -7.8) (end -11.5 1.4) (layer "F.Fab") (width 0.1) (tstamp 82235f76-f754-4994-8285-34de01a32729))
  (fp_line (start 2.9 -14.599999) (end 3.7 -10.5) (layer "F.Fab") (width 0.1) (tstamp 8864d2ca-bdc4-455e-8893-fb3b7bcd4ef6))
  (fp_line (start -0.160965 -13.848232) (end 0.6 -10) (layer "F.Fab") (width 0.1) (tstamp b5565e57-7ec0-4766-8e8a-e5dedc985540))
  (fp_line (start 1.3 -7.8) (end 1.3 1.4) (layer "F.Fab") (width 0.1) (tstamp cd508ce5-c991-4809-b47f-01571bf463b5))
  (fp_arc (start -0.161085 -13.848979) (mid 1.02325 -15.635597) (end 2.9 -14.599999) (layer "F.Fab") (width 0.1) (tstamp 1ce67f29-1d0b-4b46-95c8-ff6fd6693b44))
  (fp_arc (start -7.45 -7.8) (mid -6.85 -8.4) (end -6.25 -7.8) (layer "F.Fab") (width 0.1) (tstamp 8b4a7def-2465-4c07-a40e-25e0509a09f5))
  (fp_circle (center -1.85 -4.3) (end -0.85 -4.3) (layer "F.Fab") (width 0.1) (fill none) (tstamp 01797e1d-921d-4cc7-9a54-3611d77a06ea))
  (fp_circle (center 1.4 -14.1) (end 3.8 -14.1) (layer "F.Fab") (width 0.1) (fill none) (tstamp 6250cccc-cc62-4e6f-a46e-6c9785acb61b))
  (fp_circle (center -8.35 -4.3) (end -7.35 -4.3) (layer "F.Fab") (width 0.1) (fill none) (tstamp 628f3c59-8ea1-423a-9d3d-9a0c67db2164))
  (pad "1" thru_hole rect (at 0 0) (size 2.5 2.5) (drill 1.2) (layers *.Cu *.Mask) (tstamp 5025bf25-9546-4af9-9241-0bcfa4279aa0))
  (pad "2" thru_hole circle (at -10.16 0) (size 2.5 2.5) (drill 1.2) (layers *.Cu *.Mask) (tstamp 1afd289c-22f5-46a6-9695-e96afa9ced40))
  (pad "3" thru_hole circle (at -5.08 0) (size 2.5 2.5) (drill 1.2) (layers *.Cu *.Mask) (tstamp 1be026b8-285b-4b16-bb44-feedf042e467))
  (model "${LSF_KICAD_LIB}/lsf-kicad-lib.3dshapes/D2F-L2-A.wrl"
    (offset (xyz 0 0 0))
    (scale (xyz 1 1 1))
    (rotate (xyz 0 0 0))
  )
)
