(footprint "GE0805C-2"
	(version 20240108)
	(generator "pcbnew")
	(generator_version "8.0")
	(layer "F.Cu")
	(descr "GE0805C-2, https://www.minicircuits.com/case_style/GE0805C-2.pdf")
	(tags "RF Filter")
	(property "Reference" "REF**"
		(at 0 2.4638 0)
		(layer "F.SilkS")
		(uuid "93a1f6a7-23c1-4243-804a-f539554f5ff3")
		(effects
			(font
				(size 1 1)
				(thickness 0.15)
			)
		)
	)
	(property "Value" "GE0805C-2"
		(at 0 -2.7305 0)
		(layer "F.Fab")
		(uuid "2e230ae2-ec12-44f9-8944-398fbd7d4ddd")
		(effects
			(font
				(size 1 1)
				(thickness 0.15)
			)
		)
	)
	(property "Footprint" ""
		(at 0 0 0)
		(layer "F.Fab")
		(hide yes)
		(uuid "caa276ca-8439-4f65-a6f2-3f1e166e6fa5")
		(effects
			(font
				(size 1.27 1.27)
				(thickness 0.15)
			)
		)
	)
	(property "Datasheet" ""
		(at 0 0 0)
		(layer "F.Fab")
		(hide yes)
		(uuid "8e044986-3ccf-4d40-8997-08e5ead58df5")
		(effects
			(font
				(size 1.27 1.27)
				(thickness 0.15)
			)
		)
	)
	(property "Description" ""
		(at 0 0 0)
		(layer "F.Fab")
		(hide yes)
		(uuid "c08d9d9c-112c-432b-bce1-96570f3ed6f7")
		(effects
			(font
				(size 1.27 1.27)
				(thickness 0.15)
			)
		)
	)
	(attr smd)
	(fp_line
		(start -1.2192 0.8382)
		(end -1.2192 0.254)
		(stroke
			(width 0.12)
			(type solid)
		)
		(layer "F.SilkS")
		(uuid "1baa9643-eedd-4048-b4ce-140cebefc19d")
	)
	(fp_line
		(start -0.9017 0.8382)
		(end -1.2192 0.8382)
		(stroke
			(width 0.12)
			(type solid)
		)
		(layer "F.SilkS")
		(uuid "51599a7a-81ce-4f82-aec9-ba101badad0c")
	)
	(fp_line
		(start -1.1 -0.72)
		(end -1.1 0.72)
		(stroke
			(width 0.05)
			(type solid)
		)
		(layer "F.CrtYd")
		(uuid "5590ac85-0314-4665-a361-b641cfebd9db")
	)
	(fp_line
		(start -1.1 0.72)
		(end 1.1 0.72)
		(stroke
			(width 0.05)
			(type solid)
		)
		(layer "F.CrtYd")
		(uuid "4794915a-9a35-449a-a6de-b1523c5d4e72")
	)
	(fp_line
		(start 1.1 -0.72)
		(end -1.1 -0.72)
		(stroke
			(width 0.05)
			(type solid)
		)
		(layer "F.CrtYd")
		(uuid "c6b06829-a873-4f20-91de-b040e181ff7a")
	)
	(fp_line
		(start 1.1 0.72)
		(end 1.1 -0.72)
		(stroke
			(width 0.05)
			(type solid)
		)
		(layer "F.CrtYd")
		(uuid "d93afaaf-5bc1-4f97-b2aa-a7bc578067e4")
	)
	(fp_line
		(start -1 -0.625)
		(end -1 0.625)
		(stroke
			(width 0.1)
			(type solid)
		)
		(layer "F.Fab")
		(uuid "dd3268d1-2693-4c39-94f2-225ed399dd0f")
	)
	(fp_line
		(start -1 0.625)
		(end 1 0.625)
		(stroke
			(width 0.1)
			(type solid)
		)
		(layer "F.Fab")
		(uuid "3a2c62bd-2683-4a77-ad09-648a75ffb680")
	)
	(fp_line
		(start 1 -0.625)
		(end -1 -0.625)
		(stroke
			(width 0.1)
			(type solid)
		)
		(layer "F.Fab")
		(uuid "9dfe2dc4-d373-41d5-a311-62b299a9c714")
	)
	(fp_line
		(start 1 0.625)
		(end 1 -0.625)
		(stroke
			(width 0.1)
			(type solid)
		)
		(layer "F.Fab")
		(uuid "f7c12a2d-701e-49c7-83c1-f41d1d1221c0")
	)
	(fp_text user "${REFERENCE}"
		(at 0 2.4638 0)
		(layer "F.Fab")
		(uuid "376b016b-c042-4708-a738-e31295690cc6")
		(effects
			(font
				(size 1 1)
				(thickness 0.15)
			)
		)
	)
	(pad "1" smd rect
		(at -0.65 0.9 180)
		(size 0.35 1)
		(layers "F.Cu" "F.Paste" "F.Mask")
		(uuid "41a8a7f6-ee87-4681-8c83-433f2482ac29")
	)
	(pad "2" smd rect
		(at 0 0.9 180)
		(size 0.35 1)
		(layers "F.Cu" "F.Paste" "F.Mask")
		(uuid "0480fd56-8278-4e06-a613-ee0b91cac872")
	)
	(pad "3" smd rect
		(at 0.65 0.9 180)
		(size 0.35 1)
		(layers "F.Cu" "F.Paste" "F.Mask")
		(uuid "c63de6f6-ec23-4eff-84b9-0ae289d7d550")
	)
	(pad "4" smd rect
		(at 1.2 0 90)
		(size 0.35 1)
		(layers "F.Cu" "F.Paste" "F.Mask")
		(uuid "cf2e86cd-9637-42dd-bb7a-1f747bde9f6f")
	)
	(pad "5" smd rect
		(at 0.65 -0.9 180)
		(size 0.35 1)
		(layers "F.Cu" "F.Paste" "F.Mask")
		(uuid "33f42c77-fa2e-40bc-a1c3-bcf6c595249b")
	)
	(pad "6" smd rect
		(at 0 -0.9 180)
		(size 0.35 1)
		(layers "F.Cu" "F.Paste" "F.Mask")
		(uuid "894bfa26-e40e-462c-b11b-f00a66bf7c18")
	)
	(pad "7" smd rect
		(at -0.65 -0.9 180)
		(size 0.35 1)
		(layers "F.Cu" "F.Paste" "F.Mask")
		(uuid "2c21fe3d-c6d7-4878-bea2-655fb3e9a636")
	)
	(pad "8" smd rect
		(at -1.2 0 90)
		(size 0.35 1)
		(layers "F.Cu" "F.Paste" "F.Mask")
		(uuid "9ae7c780-e745-4a5e-9603-f30328f524d9")
	)
	(model "${LSF_KICAD_LIB}/lsf-kicad-lib.3dshapes/GE0805C-2.wrl"
		(offset
			(xyz 0 0 0)
		)
		(scale
			(xyz 1 1 1)
		)
		(rotate
			(xyz 0 0 0)
		)
	)
)
