(footprint "L_Bourns_SDR1307"
	(version 20240108)
	(generator "pcbnew")
	(generator_version "8.0")
	(layer "F.Cu")
	(descr "Bourns SDR1307, https://www.bourns.com/docs/Product-Datasheets/SDR1307.pdf")
	(tags "Bourns SDR1307")
	(property "Reference" "REF**"
		(at 0 0.5 0)
		(layer "F.SilkS")
		(uuid "a690eb8a-00c8-4e11-8fc1-17b3db18a3be")
		(effects
			(font
				(size 1 1)
				(thickness 0.15)
			)
		)
	)
	(property "Value" "L_Bourns_SDR1307"
		(at 0 -0.5 0)
		(layer "F.Fab")
		(uuid "bab356fe-b532-4384-afab-45348cc769b4")
		(effects
			(font
				(size 1 1)
				(thickness 0.15)
			)
		)
	)
	(property "Footprint" ""
		(at 0 0 0)
		(layer "F.Fab")
		(hide yes)
		(uuid "520e45c1-c410-43e1-b82f-7088d339b786")
		(effects
			(font
				(size 1.27 1.27)
				(thickness 0.15)
			)
		)
	)
	(property "Datasheet" ""
		(at 0 0 0)
		(layer "F.Fab")
		(hide yes)
		(uuid "859c53ff-804f-413c-87a0-8010dc62c746")
		(effects
			(font
				(size 1.27 1.27)
				(thickness 0.15)
			)
		)
	)
	(property "Description" ""
		(at 0 0 0)
		(layer "F.Fab")
		(hide yes)
		(uuid "64e7ac0f-85b0-4f22-a7af-c07c749dca91")
		(effects
			(font
				(size 1.27 1.27)
				(thickness 0.15)
			)
		)
	)
	(attr smd)
	(fp_line
		(start -8.25 -8.25)
		(end -8.25 8.25)
		(stroke
			(width 0.05)
			(type solid)
		)
		(layer "F.CrtYd")
		(uuid "c01cce11-15f9-4e6e-9a56-627a0882e404")
	)
	(fp_line
		(start -8.25 -8.25)
		(end 8.25 -8.25)
		(stroke
			(width 0.05)
			(type solid)
		)
		(layer "F.CrtYd")
		(uuid "11bcd275-3cb1-4af6-88e8-90d4a9c3c077")
	)
	(fp_line
		(start 8.25 8.25)
		(end -8.25 8.25)
		(stroke
			(width 0.05)
			(type solid)
		)
		(layer "F.CrtYd")
		(uuid "09a0c23e-ab75-461f-b975-b1cacc1396bf")
	)
	(fp_line
		(start 8.25 8.25)
		(end 8.25 -8.25)
		(stroke
			(width 0.05)
			(type solid)
		)
		(layer "F.CrtYd")
		(uuid "1af7bbdc-ecc0-42a1-b212-c9171c0e5bf5")
	)
	(fp_line
		(start -8 -8)
		(end 8 -8)
		(stroke
			(width 0.1)
			(type solid)
		)
		(layer "F.Fab")
		(uuid "ff609492-4822-4454-a9e2-2d77fae97a23")
	)
	(fp_line
		(start -8 8)
		(end -8 -8)
		(stroke
			(width 0.1)
			(type solid)
		)
		(layer "F.Fab")
		(uuid "07538913-e670-472c-a650-37e1e942162e")
	)
	(fp_line
		(start 8 -8)
		(end 8 8)
		(stroke
			(width 0.1)
			(type solid)
		)
		(layer "F.Fab")
		(uuid "d2dc611e-a306-4057-ad2e-7ff9a7b4ab00")
	)
	(fp_line
		(start 8 8)
		(end -8 8)
		(stroke
			(width 0.1)
			(type solid)
		)
		(layer "F.Fab")
		(uuid "0340ed52-6fe0-4c92-b4c4-b0ea95fa109a")
	)
	(fp_text user "${REFERENCE}"
		(at 0 0 0)
		(layer "F.Fab")
		(uuid "bff586f9-4157-45e2-8748-cd3db735dd8d")
		(effects
			(font
				(size 1 1)
				(thickness 0.15)
			)
		)
	)
	(pad "1" smd rect
		(at 0 -4.625)
		(size 14 4.75)
		(layers "F.Cu" "F.Paste" "F.Mask")
		(solder_mask_margin 0.1016)
		(uuid "6ad89e8c-ed2b-4d45-8fe4-aedec3e58902")
	)
	(pad "2" smd rect
		(at 0 4.625)
		(size 14 4.75)
		(layers "F.Cu" "F.Paste" "F.Mask")
		(solder_mask_margin 0.1016)
		(uuid "ece645d8-de3c-4415-b7d6-5b94f0b8ac84")
	)
	(model "${LSF_KICAD_LIB}/lsf-kicad-lib.3dshapes/L_Bourns_SDR1307.wrl"
		(offset
			(xyz 0 0 0)
		)
		(scale
			(xyz 1 1 1)
		)
		(rotate
			(xyz 0 0 0)
		)
	)
)
