(footprint "L_Bourns_SRP1040"
	(version 20240108)
	(generator "pcbnew")
	(generator_version "8.0")
	(layer "F.Cu")
	(descr "Bourns SRP1040, https://www.bourns.com/docs/product-datasheets/srp1040.pdf")
	(tags "Bourns SRP1040")
	(property "Reference" "REF**"
		(at 0 0.5 0)
		(layer "F.SilkS")
		(uuid "a4e53a1e-63b8-4161-9536-cdb55e7383ac")
		(effects
			(font
				(size 1 1)
				(thickness 0.15)
			)
		)
	)
	(property "Value" "L_Bourns_SRP1040"
		(at 0 -0.5 0)
		(layer "F.Fab")
		(uuid "a47b65e2-3766-485d-96ee-7385a0d2b127")
		(effects
			(font
				(size 1 1)
				(thickness 0.15)
			)
		)
	)
	(property "Footprint" ""
		(at 0 0 0)
		(layer "F.Fab")
		(hide yes)
		(uuid "7c4f7b41-dd70-4b9a-b67c-7401e4401d32")
		(effects
			(font
				(size 1.27 1.27)
				(thickness 0.15)
			)
		)
	)
	(property "Datasheet" ""
		(at 0 0 0)
		(layer "F.Fab")
		(hide yes)
		(uuid "237a60e2-4c4e-44b3-9304-3d627ba35e7b")
		(effects
			(font
				(size 1.27 1.27)
				(thickness 0.15)
			)
		)
	)
	(property "Description" ""
		(at 0 0 0)
		(layer "F.Fab")
		(hide yes)
		(uuid "206ac73a-666e-40ae-a957-d6440431829b")
		(effects
			(font
				(size 1.27 1.27)
				(thickness 0.15)
			)
		)
	)
	(attr smd)
	(fp_line
		(start -5 -5)
		(end -5 -1.9)
		(stroke
			(width 0.12)
			(type solid)
		)
		(layer "F.SilkS")
		(uuid "baf5f6ae-e149-4d71-b6d8-677a406e96cf")
	)
	(fp_line
		(start -5 -5)
		(end 5 -5)
		(stroke
			(width 0.12)
			(type solid)
		)
		(layer "F.SilkS")
		(uuid "ab77f6c7-85c5-40e8-93d0-a81ae8e6ef94")
	)
	(fp_line
		(start -5 1.9)
		(end -5 5)
		(stroke
			(width 0.12)
			(type solid)
		)
		(layer "F.SilkS")
		(uuid "f2c6a88b-6e16-4d4e-a3d4-248279b59a76")
	)
	(fp_line
		(start -5 5)
		(end 5 5)
		(stroke
			(width 0.12)
			(type solid)
		)
		(layer "F.SilkS")
		(uuid "eb363889-fb1d-45ed-957e-81f0fa9ec4c9")
	)
	(fp_line
		(start 5 -5)
		(end 5 -1.9)
		(stroke
			(width 0.12)
			(type solid)
		)
		(layer "F.SilkS")
		(uuid "12636072-37d5-4960-8e45-30f39f430de4")
	)
	(fp_line
		(start 5 5)
		(end 5 1.9)
		(stroke
			(width 0.12)
			(type solid)
		)
		(layer "F.SilkS")
		(uuid "758ccb38-bad8-4f82-862b-b952178c6e50")
	)
	(fp_line
		(start -5.2 -5.2)
		(end -5.2 5.2)
		(stroke
			(width 0.05)
			(type solid)
		)
		(layer "F.CrtYd")
		(uuid "bd7a643b-8093-426a-b8e2-6ec4d5392224")
	)
	(fp_line
		(start -5.2 -5.2)
		(end 5.2 -5.2)
		(stroke
			(width 0.05)
			(type solid)
		)
		(layer "F.CrtYd")
		(uuid "f46c7f6e-7a31-4750-b0f8-99c02de1f171")
	)
	(fp_line
		(start 5.2 5.2)
		(end -5.2 5.2)
		(stroke
			(width 0.05)
			(type solid)
		)
		(layer "F.CrtYd")
		(uuid "b03152b5-e407-4f26-a1a9-f4fc1670c2d2")
	)
	(fp_line
		(start 5.2 5.2)
		(end 5.2 -5.2)
		(stroke
			(width 0.05)
			(type solid)
		)
		(layer "F.CrtYd")
		(uuid "22ec142d-dd8e-422e-9e28-8e29da427d0b")
	)
	(fp_line
		(start -5 -5)
		(end -5 5)
		(stroke
			(width 0.1)
			(type solid)
		)
		(layer "F.Fab")
		(uuid "0be3febd-a84a-4963-9ebf-e9782119baa8")
	)
	(fp_line
		(start -5 -5)
		(end 5 -5)
		(stroke
			(width 0.1)
			(type solid)
		)
		(layer "F.Fab")
		(uuid "7682ea1a-fdcc-4e71-82aa-81e575b3ccd6")
	)
	(fp_line
		(start -5 5)
		(end 5 5)
		(stroke
			(width 0.1)
			(type solid)
		)
		(layer "F.Fab")
		(uuid "b9187dbd-e8c9-41cd-a0b4-9c2e98df7001")
	)
	(fp_line
		(start 5 -5)
		(end 5 5)
		(stroke
			(width 0.1)
			(type solid)
		)
		(layer "F.Fab")
		(uuid "828e503b-c3de-4dba-b944-71093c819bc0")
	)
	(fp_text user "${REFERENCE}"
		(at 0 0 0)
		(layer "F.Fab")
		(uuid "57a33c86-27f0-4e69-bb5a-2ac1c164ed41")
		(effects
			(font
				(size 1 1)
				(thickness 0.15)
			)
		)
	)
	(pad "1" smd rect
		(at -4.5 0 180)
		(size 3.55 3.5)
		(layers "F.Cu" "F.Paste" "F.Mask")
		(uuid "074d84cd-fdcb-4967-a031-2bba0edb4553")
	)
	(pad "2" smd rect
		(at 4.5 0 180)
		(size 3.55 3.5)
		(layers "F.Cu" "F.Paste" "F.Mask")
		(uuid "b4cd8270-d352-4bcd-ae4a-78dd2c9d9939")
	)
	(model "${LSF_KICAD_LIB}/lsf-kicad-lib.3dshapes/L_Bourns_SRP1040.wrl"
		(offset
			(xyz 0 0 0)
		)
		(scale
			(xyz 1 1 1)
		)
		(rotate
			(xyz 0 0 0)
		)
	)
)
