(footprint "lsf-logo-full-10x10_Copper"
	(version 20240108)
	(generator "pcbnew")
	(generator_version "8.0")
	(layer "F.Cu")
	(descr "Libre Space Foundation full logo 10x10mm")
	(tags "logo lsf libre space foundation")
	(property "Reference" "REF**"
		(at 0 0 0)
		(layer "F.SilkS")
		(hide yes)
		(uuid "10bd6856-a0f5-4ce5-bca3-9a74e271941e")
		(effects
			(font
				(size 1 1)
				(thickness 0.15)
			)
		)
	)
	(property "Value" "lsf-logo-full-10x10_Copper"
		(at 0.75 0 0)
		(layer "F.Fab")
		(hide yes)
		(uuid "85f887ee-3d4d-42dd-bc13-23509d2de457")
		(effects
			(font
				(size 1 1)
				(thickness 0.15)
			)
		)
	)
	(property "Footprint" ""
		(at 0 0 0)
		(layer "F.Fab")
		(hide yes)
		(uuid "22333df5-891c-4350-b306-6cfbd40fd94d")
		(effects
			(font
				(size 1.27 1.27)
				(thickness 0.15)
			)
		)
	)
	(property "Datasheet" ""
		(at 0 0 0)
		(layer "F.Fab")
		(hide yes)
		(uuid "fa4aca53-0a37-42dd-befb-7ad447daffb5")
		(effects
			(font
				(size 1.27 1.27)
				(thickness 0.15)
			)
		)
	)
	(property "Description" ""
		(at 0 0 0)
		(layer "F.Fab")
		(hide yes)
		(uuid "5a2c6436-480f-465d-a0ed-630ab0e02303")
		(effects
			(font
				(size 1.27 1.27)
				(thickness 0.15)
			)
		)
	)
	(attr exclude_from_pos_files exclude_from_bom)
	(fp_poly
		(pts
			(xy -3.5052 2.887133) (xy -3.776134 2.887133) (xy -3.776134 1.888066) (xy -3.5052 1.888066) (xy -3.5052 2.887133)
		)
		(stroke
			(width 0.01)
			(type solid)
		)
		(fill solid)
		(layer "F.Cu")
		(uuid "baa235b9-31f1-4677-9687-9245efdece7f")
	)
	(fp_poly
		(pts
			(xy 2.548466 4.690533) (xy 2.370666 4.690533) (xy 2.370666 3.691466) (xy 2.548466 3.691466) (xy 2.548466 4.690533)
		)
		(stroke
			(width 0.01)
			(type solid)
		)
		(fill solid)
		(layer "F.Cu")
		(uuid "c63ec4f6-52f3-4414-a75e-c3fcef26c219")
	)
	(fp_poly
		(pts
			(xy 2.50189 3.366034) (xy 2.53203 3.369411) (xy 2.550705 3.378289) (xy 2.560648 3.395326) (xy 2.564594 3.42318)
			(xy 2.565277 3.464511) (xy 2.56527 3.470253) (xy 2.564414 3.506894) (xy 2.562223 3.537921) (xy 2.559082 3.558883)
			(xy 2.557117 3.564466) (xy 2.547834 3.571255) (xy 2.528434 3.575701) (xy 2.496199 3.578281) (xy 2.474697 3.579015)
			(xy 2.439618 3.579314) (xy 2.410183 3.578516) (xy 2.39113 3.576789) (xy 2.387599 3.575925) (xy 2.371855 3.566337)
			(xy 2.361648 3.550173) (xy 2.355976 3.524336) (xy 2.353836 3.485729) (xy 2.353733 3.471333) (xy 2.35447 3.427473)
			(xy 2.358484 3.39778) (xy 2.368482 3.379494) (xy 2.387168 3.369857) (xy 2.417249 3.366112) (xy 2.457552 3.365499)
			(xy 2.50189 3.366034)
		)
		(stroke
			(width 0.01)
			(type solid)
		)
		(fill solid)
		(layer "F.Cu")
		(uuid "42a2b259-b8ab-4b6a-87f5-78d077c65bf4")
	)
	(fp_poly
		(pts
			(xy -1.685342 1.880423) (xy -1.66165 1.881963) (xy -1.655546 1.882998) (xy -1.634067 1.888389) (xy -1.634067 2.140257)
			(xy -1.763184 2.143768) (xy -1.821694 2.14591) (xy -1.866608 2.149366) (xy -1.901259 2.155097) (xy -1.928979 2.164067)
			(xy -1.953103 2.177237) (xy -1.976962 2.19557) (xy -1.993389 2.210232) (xy -2.032 2.245823) (xy -2.032 2.887133)
			(xy -2.294467 2.887133) (xy -2.294467 1.888066) (xy -2.068548 1.888066) (xy -2.053076 1.940983) (xy -2.044265 1.969274)
			(xy -2.03653 1.990914) (xy -2.031914 2.000599) (xy -2.023059 1.999103) (xy -2.005505 1.988628) (xy -1.984661 1.972733)
			(xy -1.953842 1.949967) (xy -1.916694 1.926493) (xy -1.888929 1.911337) (xy -1.859001 1.897702) (xy -1.832195 1.88913)
			(xy -1.802117 1.884164) (xy -1.762372 1.881352) (xy -1.755891 1.881056) (xy -1.71848 1.880088) (xy -1.685342 1.880423)
		)
		(stroke
			(width 0.01)
			(type solid)
		)
		(fill solid)
		(layer "F.Cu")
		(uuid "2b09ed17-e516-4968-88fd-a61af5206f96")
	)
	(fp_poly
		(pts
			(xy -3.638489 1.524) (xy -3.589897 1.524355) (xy -3.555476 1.52561) (xy -3.532473 1.528052) (xy -3.518138 1.531964)
			(xy -3.510039 1.537304) (xy -3.5042 1.546479) (xy -3.50028 1.562113) (xy -3.497953 1.587084) (xy -3.496895 1.624274)
			(xy -3.496734 1.655358) (xy -3.496914 1.70283) (xy -3.499022 1.737197) (xy -3.505412 1.760573) (xy -3.518435 1.775073)
			(xy -3.540445 1.782813) (xy -3.573794 1.785909) (xy -3.620834 1.786474) (xy -3.642551 1.786466) (xy -3.687944 1.786216)
			(xy -3.719591 1.785178) (xy -3.740676 1.782921) (xy -3.754384 1.779015) (xy -3.763898 1.773028) (xy -3.767667 1.769533)
			(xy -3.77498 1.760483) (xy -3.779846 1.748497) (xy -3.782748 1.730231) (xy -3.784169 1.70234) (xy -3.784593 1.66148)
			(xy -3.784601 1.652312) (xy -3.784475 1.605884) (xy -3.782533 1.572258) (xy -3.776426 1.549373) (xy -3.763805 1.535165)
			(xy -3.742322 1.527573) (xy -3.709629 1.524533) (xy -3.663376 1.523984) (xy -3.638489 1.524)
		)
		(stroke
			(width 0.01)
			(type solid)
		)
		(fill solid)
		(layer "F.Cu")
		(uuid "91f9c5f8-40e1-4c0d-bf95-37a46aac4f8b")
	)
	(fp_poly
		(pts
			(xy -4.487334 2.044086) (xy -4.487217 2.167026) (xy -4.486862 2.273552) (xy -4.486259 2.364182) (xy -4.485401 2.439436)
			(xy -4.484277 2.499831) (xy -4.482879 2.545886) (xy -4.481199 2.578119) (xy -4.479228 2.597048) (xy -4.477934 2.602167)
			(xy -4.472294 2.612689) (xy -4.464796 2.621157) (xy -4.453681 2.627794) (xy -4.437192 2.632822) (xy -4.413572 2.636461)
			(xy -4.381064 2.638933) (xy -4.337911 2.640461) (xy -4.282354 2.641265) (xy -4.212638 2.641567) (xy -4.165202 2.641599)
			(xy -3.903134 2.641599) (xy -3.903134 2.887133) (xy -4.218517 2.886282) (xy -4.291336 2.88589) (xy -4.359941 2.885146)
			(xy -4.422216 2.884101) (xy -4.476044 2.882808) (xy -4.519311 2.881316) (xy -4.549901 2.879676) (xy -4.565696 2.877941)
			(xy -4.565782 2.877921) (xy -4.625688 2.856054) (xy -4.676124 2.821643) (xy -4.714964 2.776288) (xy -4.725601 2.757779)
			(xy -4.73197 2.743516) (xy -4.737477 2.726643) (xy -4.742175 2.705944) (xy -4.746116 2.680207) (xy -4.749354 2.648216)
			(xy -4.751941 2.608757) (xy -4.753929 2.560615) (xy -4.755372 2.502576) (xy -4.756323 2.433425) (xy -4.756833 2.351949)
			(xy -4.756956 2.256931) (xy -4.756744 2.147159) (xy -4.756373 2.048933) (xy -4.754034 1.5113) (xy -4.487334 1.506636)
			(xy -4.487334 2.044086)
		)
		(stroke
			(width 0.01)
			(type solid)
		)
		(fill solid)
		(layer "F.Cu")
		(uuid "73369759-45c2-4a31-a813-d8e877ca62e9")
	)
	(fp_poly
		(pts
			(xy 1.904999 3.691466) (xy 2.175933 3.691466) (xy 2.175933 3.843866) (xy 1.904999 3.843866) (xy 1.904999 4.114383)
			(xy 1.904972 4.205865) (xy 1.905415 4.282043) (xy 1.907118 4.344543) (xy 1.910872 4.394991) (xy 1.917465 4.435014)
			(xy 1.927688 4.466238) (xy 1.94233 4.490289) (xy 1.962181 4.508793) (xy 1.988031 4.523377) (xy 2.020669 4.535667)
			(xy 2.060885 4.547289) (xy 2.109469 4.55987) (xy 2.123016 4.563356) (xy 2.158999 4.572652) (xy 2.158999 4.690533)
			(xy 2.046816 4.689966) (xy 1.992504 4.688713) (xy 1.946362 4.685713) (xy 1.911778 4.681236) (xy 1.898411 4.678089)
			(xy 1.846026 4.653107) (xy 1.802827 4.614466) (xy 1.781687 4.584531) (xy 1.769788 4.563415) (xy 1.759993 4.543259)
			(xy 1.752074 4.522161) (xy 1.745801 4.498218) (xy 1.740946 4.46953) (xy 1.737278 4.434193) (xy 1.73457 4.390307)
			(xy 1.732591 4.335968) (xy 1.731113 4.269276) (xy 1.729907 4.188329) (xy 1.729441 4.150783) (xy 1.725749 3.843866)
			(xy 1.5494 3.843866) (xy 1.5494 3.727909) (xy 1.63767 3.708538) (xy 1.677859 3.699266) (xy 1.70431 3.691746)
			(xy 1.71996 3.68479) (xy 1.72775 3.677214) (xy 1.730018 3.671266) (xy 1.732505 3.656635) (xy 1.736528 3.62878)
			(xy 1.741594 3.591288) (xy 1.747208 3.547746) (xy 1.74909 3.532716) (xy 1.764085 3.412066) (xy 1.904999 3.412066)
			(xy 1.904999 3.691466)
		)
		(stroke
			(width 0.01)
			(type solid)
		)
		(fill solid)
		(layer "F.Cu")
		(uuid "3f185095-9a20-485d-b765-3dedc96af711")
	)
	(fp_poly
		(pts
			(xy -2.436613 4.07035) (xy -2.436002 4.160528) (xy -2.435389 4.235354) (xy -2.434697 4.296404) (xy -2.433852 4.34526)
			(xy -2.432778 4.3835) (xy -2.431399 4.412703) (xy -2.429639 4.434449) (xy -2.427422 4.450318) (xy -2.424674 4.461889)
			(xy -2.421318 4.47074) (xy -2.417279 4.478452) (xy -2.41704 4.478866) (xy -2.388719 4.511568) (xy -2.348691 4.533566)
			(xy -2.298396 4.544829) (xy -2.239271 4.545328) (xy -2.172758 4.535032) (xy -2.100293 4.51391) (xy -2.034117 4.486974)
			(xy -1.9558 4.451054) (xy -1.9558 3.691466) (xy -1.778 3.691466) (xy -1.778 4.690533) (xy -1.911198 4.690533)
			(xy -1.930304 4.637616) (xy -1.94032 4.6104) (xy -1.948041 4.590391) (xy -1.95173 4.582047) (xy -1.959554 4.58484)
			(xy -1.978833 4.594481) (xy -2.006373 4.60932) (xy -2.029008 4.622002) (xy -2.088926 4.654121) (xy -2.140652 4.676914)
			(xy -2.188986 4.691918) (xy -2.238725 4.700672) (xy -2.286 4.70436) (xy -2.330453 4.705425) (xy -2.363769 4.703562)
			(xy -2.391576 4.698224) (xy -2.41034 4.692284) (xy -2.472422 4.663641) (xy -2.522033 4.625678) (xy -2.561438 4.576176)
			(xy -2.592485 4.513959) (xy -2.596997 4.502295) (xy -2.600752 4.490733) (xy -2.603835 4.477643) (xy -2.606327 4.461397)
			(xy -2.608311 4.440365) (xy -2.609869 4.412918) (xy -2.611083 4.377427) (xy -2.612035 4.332264) (xy -2.612808 4.275798)
			(xy -2.613485 4.206402) (xy -2.614146 4.122445) (xy -2.614466 4.078816) (xy -2.617278 3.691466) (xy -2.439059 3.691466)
			(xy -2.436613 4.07035)
		)
		(stroke
			(width 0.01)
			(type solid)
		)
		(fill solid)
		(layer "F.Cu")
		(uuid "e7ff8764-ee74-4a15-9179-92d2747fc618")
	)
	(fp_poly
		(pts
			(xy 4.495126 3.67958) (xy 4.561293 3.699283) (xy 4.618929 3.732481) (xy 4.66691 3.778706) (xy 4.701883 3.832979)
			(xy 4.710957 3.851998) (xy 4.71853 3.87099) (xy 4.724738 3.891637) (xy 4.729713 3.915621) (xy 4.733591 3.944623)
			(xy 4.736505 3.980327) (xy 4.738591 4.024412) (xy 4.739982 4.078562) (xy 4.740813 4.144458) (xy 4.741219 4.223782)
			(xy 4.741332 4.318215) (xy 4.741333 4.326883) (xy 4.741333 4.690533) (xy 4.563533 4.690533) (xy 4.563347 4.320116)
			(xy 4.56326 4.230602) (xy 4.563054 4.156403) (xy 4.562667 4.095899) (xy 4.562033 4.047472) (xy 4.56109 4.009502)
			(xy 4.559773 3.980372) (xy 4.558019 3.958461) (xy 4.555765 3.942151) (xy 4.552946 3.929824) (xy 4.549499 3.91986)
			(xy 4.5474 3.914995) (xy 4.530494 3.887818) (xy 4.508411 3.864092) (xy 4.503136 3.859962) (xy 4.488746 3.850754)
			(xy 4.473968 3.844889) (xy 4.454675 3.841681) (xy 4.42674 3.840448) (xy 4.386036 3.840505) (xy 4.385733 3.840508)
			(xy 4.310256 3.845896) (xy 4.240726 3.861531) (xy 4.17149 3.888986) (xy 4.125383 3.913117) (xy 4.080933 3.938242)
			(xy 4.080933 4.690533) (xy 3.903133 4.690533) (xy 3.903133 3.691466) (xy 3.970296 3.691466) (xy 4.004051 3.691839)
			(xy 4.024664 3.693615) (xy 4.035918 3.697779) (xy 4.041599 3.705315) (xy 4.043488 3.710516) (xy 4.050542 3.730051)
			(xy 4.061045 3.756331) (xy 4.06515 3.766075) (xy 4.080781 3.802583) (xy 4.11684 3.780169) (xy 4.16487 3.752848)
			(xy 4.217606 3.72703) (xy 4.269933 3.704935) (xy 4.316738 3.688784) (xy 4.341691 3.682542) (xy 4.42155 3.673843)
			(xy 4.495126 3.67958)
		)
		(stroke
			(width 0.01)
			(type solid)
		)
		(fill solid)
		(layer "F.Cu")
		(uuid "a48aebad-d050-4039-b873-cf36bf5696e3")
	)
	(fp_poly
		(pts
			(xy -1.003301 3.679261) (xy -0.957894 3.680123) (xy -0.924815 3.682572) (xy -0.899484 3.68725) (xy -0.877323 3.694798)
			(xy -0.870207 3.6979) (xy -0.813795 3.732587) (xy -0.766682 3.780342) (xy -0.730337 3.839223) (xy -0.706228 3.907284)
			(xy -0.703715 3.918366) (xy -0.701054 3.940353) (xy -0.698812 3.978705) (xy -0.697003 4.032863) (xy -0.695641 4.102263)
			(xy -0.694737 4.186344) (xy -0.694305 4.284543) (xy -0.694267 4.326883) (xy -0.694267 4.690533) (xy -0.872067 4.690533)
			(xy -0.872067 4.319793) (xy -0.872083 4.230906) (xy -0.872183 4.157324) (xy -0.872441 4.09742) (xy -0.872934 4.049565)
			(xy -0.873739 4.012133) (xy -0.87493 3.983495) (xy -0.876585 3.962023) (xy -0.878779 3.94609) (xy -0.881587 3.934068)
			(xy -0.885087 3.924328) (xy -0.889354 3.915244) (xy -0.891117 3.911772) (xy -0.908107 3.882415) (xy -0.926198 3.862193)
			(xy -0.948883 3.849523) (xy -0.979656 3.842825) (xy -1.022011 3.840514) (xy -1.048453 3.840508) (xy -1.093917 3.841657)
			(xy -1.128596 3.844727) (xy -1.158613 3.850689) (xy -1.190089 3.860517) (xy -1.202267 3.864933) (xy -1.240304 3.880213)
			(xy -1.279054 3.897661) (xy -1.310145 3.913508) (xy -1.310217 3.913549) (xy -1.354667 3.938616) (xy -1.354667 4.690533)
			(xy -1.532467 4.690533) (xy -1.532467 3.691466) (xy -1.39791 3.691466) (xy -1.379293 3.742526) (xy -1.36894 3.769313)
			(xy -1.360283 3.788858) (xy -1.355555 3.79651) (xy -1.346505 3.793803) (xy -1.326324 3.784145) (xy -1.29843 3.769242)
			(xy -1.279237 3.758392) (xy -1.22018 3.726343) (xy -1.16908 3.703826) (xy -1.12098 3.689421) (xy -1.070923 3.681704)
			(xy -1.013952 3.679256) (xy -1.003301 3.679261)
		)
		(stroke
			(width 0.01)
			(type solid)
		)
		(fill solid)
		(layer "F.Cu")
		(uuid "fd4680f2-32b1-4dfe-9ada-0385c7e5ffac")
	)
	(fp_poly
		(pts
			(xy -4.425287 3.314633) (xy -4.365834 3.316171) (xy -4.292985 3.319041) (xy -4.21421 3.322662) (xy -4.145125 3.326045)
			(xy -4.079995 3.329399) (xy -4.021132 3.332592) (xy -3.970847 3.335493) (xy -3.931452 3.33797) (xy -3.905259 3.339891)
			(xy -3.896784 3.34073) (xy -3.860801 3.34537) (xy -3.860801 3.479799) (xy -4.163484 3.480277) (xy -4.256287 3.48066)
			(xy -4.332917 3.481506) (xy -4.394126 3.482838) (xy -4.440669 3.48468) (xy -4.473298 3.487057) (xy -4.492769 3.489992)
			(xy -4.4958 3.490861) (xy -4.510693 3.497344) (xy -4.522321 3.506757) (xy -4.531087 3.52109) (xy -4.537395 3.542331)
			(xy -4.541648 3.572471) (xy -4.54425 3.613498) (xy -4.545605 3.667403) (xy -4.546115 3.736174) (xy -4.546123 3.73896)
			(xy -4.546601 3.917687) (xy -4.362451 3.923254) (xy -4.298772 3.925268) (xy -4.231995 3.927535) (xy -4.167096 3.929875)
			(xy -4.109049 3.932108) (xy -4.062832 3.934056) (xy -4.061884 3.934098) (xy -3.945467 3.939376) (xy -3.945467 4.078681)
			(xy -4.104217 4.084102) (xy -4.168291 4.086316) (xy -4.239634 4.088824) (xy -4.311344 4.091379) (xy -4.376521 4.093738)
			(xy -4.404784 4.094777) (xy -4.5466 4.10003) (xy -4.546601 4.395281) (xy -4.546601 4.690533) (xy -4.715934 4.690533)
			(xy -4.715934 4.099212) (xy -4.715918 3.980321) (xy -4.715821 3.877129) (xy -4.715566 3.788402) (xy -4.71508 3.712904)
			(xy -4.714285 3.649402) (xy -4.713108 3.596662) (xy -4.711473 3.553448) (xy -4.709305 3.518526) (xy -4.706528 3.490663)
			(xy -4.703066 3.468622) (xy -4.698846 3.451171) (xy -4.693791 3.437075) (xy -4.687826 3.425098) (xy -4.680876 3.414007)
			(xy -4.673501 3.40346) (xy -4.65432 3.381494) (xy -4.629366 3.358886) (xy -4.621069 3.352518) (xy -4.603823 3.340948)
			(xy -4.586072 3.331655) (xy -4.565974 3.324505) (xy -4.541688 3.319363) (xy -4.511373 3.316094) (xy -4.473186 3.314562)
			(xy -4.425287 3.314633)
		)
		(stroke
			(width 0.01)
			(type solid)
		)
		(fill solid)
		(layer "F.Cu")
		(uuid "de0da89d-0999-4ce9-8bf3-5d5f1c1273f8")
	)
	(fp_poly
		(pts
			(xy 1.688515 1.891406) (xy 1.705619 1.897105) (xy 1.759438 1.926199) (xy 1.806033 1.970232) (xy 1.845012 2.028653)
			(xy 1.875985 2.100908) (xy 1.893585 2.163233) (xy 1.900967 2.207533) (xy 1.9062 2.264393) (xy 1.909286 2.329578)
			(xy 1.910227 2.398852) (xy 1.909025 2.467979) (xy 1.905683 2.532723) (xy 1.900203 2.58885) (xy 1.893351 2.628899)
			(xy 1.872449 2.702599) (xy 1.846296 2.76195) (xy 1.813438 2.809108) (xy 1.772419 2.846226) (xy 1.729156 2.871934)
			(xy 1.703809 2.883994) (xy 1.683187 2.891916) (xy 1.662593 2.896516) (xy 1.63733 2.898615) (xy 1.602703 2.899029)
			(xy 1.574941 2.898804) (xy 1.501731 2.894336) (xy 1.426136 2.883216) (xy 1.354799 2.866656) (xy 1.30175 2.848922)
			(xy 1.297688 2.848153) (xy 1.294443 2.850558) (xy 1.291923 2.857798) (xy 1.290037 2.871533) (xy 1.288695 2.893424)
			(xy 1.287805 2.925131) (xy 1.287276 2.968314) (xy 1.287016 3.024634) (xy 1.286936 3.095752) (xy 1.286933 3.11906)
			(xy 1.286933 3.395133) (xy 1.016 3.395133) (xy 1.016 2.160864) (xy 1.286933 2.160864) (xy 1.286933 2.65806)
			(xy 1.331383 2.670542) (xy 1.366047 2.679792) (xy 1.394297 2.685641) (xy 1.422622 2.68897) (xy 1.457511 2.690658)
			(xy 1.484203 2.691246) (xy 1.532124 2.689778) (xy 1.565567 2.683574) (xy 1.574078 2.680072) (xy 1.596994 2.661938)
			(xy 1.61498 2.633083) (xy 1.628336 2.5923) (xy 1.637363 2.538381) (xy 1.642362 2.470118) (xy 1.643668 2.400299)
			(xy 1.642009 2.320381) (xy 1.636709 2.255547) (xy 1.627401 2.204271) (xy 1.613719 2.165024) (xy 1.595294 2.136278)
			(xy 1.576187 2.119332) (xy 1.547511 2.108253) (xy 1.507474 2.104116) (xy 1.459983 2.106544) (xy 1.408947 2.115158)
			(xy 1.358272 2.12958) (xy 1.323191 2.143821) (xy 1.286933 2.160864) (xy 1.016 2.160864) (xy 1.016 1.888066)
			(xy 1.240366 1.88813) (xy 1.255305 1.924081) (xy 1.268429 1.954729) (xy 1.278862 1.971395) (xy 1.290746 1.97559)
			(xy 1.308219 1.968826) (xy 1.334678 1.953071) (xy 1.40408 1.917901) (xy 1.477624 1.893628) (xy 1.55185 1.880774)
			(xy 1.6233 1.879859) (xy 1.688515 1.891406)
		)
		(stroke
			(width 0.01)
			(type solid)
		)
		(fill solid)
		(layer "F.Cu")
		(uuid "8ed97510-4238-4fc2-9952-e53ba8136fc5")
	)
	(fp_poly
		(pts
			(xy 3.497381 1.883253) (xy 3.571119 1.889227) (xy 3.643861 1.898233) (xy 3.712682 1.910177) (xy 3.754966 1.91973)
			(xy 3.814233 1.934633) (xy 3.81666 2.01753) (xy 3.819088 2.100427) (xy 3.621927 2.094765) (xy 3.54806 2.092972)
			(xy 3.489112 2.092474) (xy 3.443101 2.093526) (xy 3.408043 2.096388) (xy 3.381958 2.101315) (xy 3.362861 2.108565)
			(xy 3.348771 2.118395) (xy 3.337705 2.131063) (xy 3.337253 2.131695) (xy 3.323995 2.154064) (xy 3.313913 2.18076)
			(xy 3.306482 2.214568) (xy 3.301173 2.258275) (xy 3.297459 2.314668) (xy 3.295989 2.349765) (xy 3.294723 2.433934)
			(xy 3.297825 2.50314) (xy 3.305628 2.558871) (xy 3.318467 2.602609) (xy 3.336676 2.635841) (xy 3.36059 2.660051)
			(xy 3.366816 2.664423) (xy 3.378809 2.670688) (xy 3.394459 2.675012) (xy 3.416877 2.677729) (xy 3.449174 2.679174)
			(xy 3.49446 2.67968) (xy 3.509037 2.679699) (xy 3.564742 2.679156) (xy 3.626275 2.677681) (xy 3.685815 2.675506)
			(xy 3.731683 2.673111) (xy 3.8354 2.666523) (xy 3.8354 2.746999) (xy 3.834937 2.786058) (xy 3.831803 2.813501)
			(xy 3.823381 2.832386) (xy 3.80705 2.845776) (xy 3.780193 2.856731) (xy 3.740191 2.868311) (xy 3.72902 2.87134)
			(xy 3.703535 2.877629) (xy 3.677645 2.882438) (xy 3.648342 2.886015) (xy 3.612623 2.888612) (xy 3.567483 2.890478)
			(xy 3.509916 2.891865) (xy 3.475566 2.892456) (xy 3.406563 2.893212) (xy 3.352547 2.893003) (xy 3.311594 2.891757)
			(xy 3.28178 2.889401) (xy 3.261183 2.885865) (xy 3.255433 2.884217) (xy 3.19809 2.859111) (xy 3.150512 2.824083)
			(xy 3.111398 2.777559) (xy 3.079451 2.717968) (xy 3.053373 2.643738) (xy 3.05157 2.637366) (xy 3.04566 2.6099)
			(xy 3.041011 2.573405) (xy 3.037445 2.525714) (xy 3.034783 2.464662) (xy 3.033464 2.417233) (xy 3.03226 2.355778)
			(xy 3.032002 2.307661) (xy 3.032879 2.269303) (xy 3.03508 2.237126) (xy 3.038792 2.207551) (xy 3.044204 2.177)
			(xy 3.046778 2.164234) (xy 3.068657 2.082547) (xy 3.097796 2.015575) (xy 3.134727 1.962498) (xy 3.179981 1.922491)
			(xy 3.21607 1.9022) (xy 3.250936 1.891585) (xy 3.299423 1.884478) (xy 3.358609 1.880784) (xy 3.42557 1.880407)
			(xy 3.497381 1.883253)
		)
		(stroke
			(width 0.01)
			(type solid)
		)
		(fill solid)
		(layer "F.Cu")
		(uuid "a2d57030-3472-4949-8f48-5ecc68409238")
	)
	(fp_poly
		(pts
			(xy -3.075395 1.67005) (xy -3.074754 1.7345) (xy -3.074003 1.793144) (xy -3.073183 1.843936) (xy -3.072332 1.884834)
			(xy -3.07149 1.913792) (xy -3.070696 1.928767) (xy -3.07037 1.930399) (xy -3.06152 1.927873) (xy -3.041515 1.921338)
			(xy -3.021684 1.914607) (xy -2.96097 1.897246) (xy -2.893863 1.883905) (xy -2.826659 1.875499) (xy -2.765655 1.872944)
			(xy -2.741849 1.87395) (xy -2.673862 1.884579) (xy -2.616182 1.905708) (xy -2.568138 1.938174) (xy -2.529059 1.982815)
			(xy -2.498272 2.040469) (xy -2.475107 2.111972) (xy -2.458892 2.198163) (xy -2.454726 2.232031) (xy -2.449854 2.299202)
			(xy -2.44851 2.373888) (xy -2.450501 2.45062) (xy -2.455635 2.523927) (xy -2.463721 2.588339) (xy -2.468064 2.611966)
			(xy -2.490375 2.690616) (xy -2.521977 2.75809) (xy -2.562018 2.813182) (xy -2.609649 2.854684) (xy -2.655872 2.878527)
			(xy -2.711597 2.892227) (xy -2.775694 2.896177) (xy -2.842765 2.890481) (xy -2.907412 2.875244) (xy -2.912534 2.873543)
			(xy -2.951922 2.858275) (xy -2.992977 2.839445) (xy -3.025214 2.822045) (xy -3.050173 2.807515) (xy -3.068771 2.797875)
			(xy -3.077071 2.795163) (xy -3.077112 2.795202) (xy -3.082079 2.803813) (xy -3.092156 2.82301) (xy -3.102158 2.842683)
			(xy -3.124486 2.887133) (xy -3.344427 2.887133) (xy -3.342264 2.148416) (xy -3.342176 2.118258) (xy -3.073401 2.118258)
			(xy -3.073401 2.613887) (xy -3.02458 2.635796) (xy -2.97418 2.654111) (xy -2.921538 2.665824) (xy -2.870647 2.670642)
			(xy -2.825499 2.66827) (xy -2.79009 2.658413) (xy -2.781573 2.653699) (xy -2.76709 2.638785) (xy -2.751187 2.614448)
			(xy -2.742249 2.596745) (xy -2.735019 2.579035) (xy -2.72968 2.561078) (xy -2.725864 2.53976) (xy -2.723204 2.511966)
			(xy -2.721334 2.474581) (xy -2.719885 2.42449) (xy -2.7194 2.402936) (xy -2.719009 2.319895) (xy -2.72198 2.252047)
			(xy -2.728641 2.197927) (xy -2.739319 2.156069) (xy -2.754342 2.125006) (xy -2.774037 2.103275) (xy -2.788414 2.09401)
			(xy -2.811271 2.087713) (xy -2.846223 2.084527) (xy -2.888756 2.084267) (xy -2.934355 2.086747) (xy -2.978508 2.09178)
			(xy -3.016698 2.099183) (xy -3.033184 2.104075) (xy -3.073401 2.118258) (xy -3.342176 2.118258) (xy -3.3401 1.4097)
			(xy -3.077634 1.4097) (xy -3.075395 1.67005)
		)
		(stroke
			(width 0.01)
			(type solid)
		)
		(fill solid)
		(layer "F.Cu")
		(uuid "721dc31a-e006-49b4-a5af-0b77687caa4b")
	)
	(fp_poly
		(pts
			(xy 0.353529 3.952159) (xy 0.355693 4.691219) (xy 0.28671 4.688759) (xy 0.217728 4.6863) (xy 0.200508 4.639733)
			(xy 0.190983 4.614352) (xy 0.183973 4.596373) (xy 0.181419 4.590515) (xy 0.173586 4.592873) (xy 0.154164 4.601413)
			(xy 0.126621 4.614568) (xy 0.111212 4.622223) (xy 0.022128 4.66085) (xy -0.064346 4.686213) (xy -0.1458 4.697666)
			(xy -0.172398 4.698272) (xy -0.20774 4.697142) (xy -0.238853 4.694812) (xy -0.25996 4.691743) (xy -0.262467 4.691082)
			(xy -0.322348 4.664809) (xy -0.373543 4.624979) (xy -0.416418 4.571147) (xy -0.451336 4.502864) (xy -0.476074 4.429371)
			(xy -0.48369 4.390535) (xy -0.489489 4.338738) (xy -0.493439 4.277856) (xy -0.494571 4.241756) (xy -0.319953 4.241756)
			(xy -0.314547 4.322499) (xy -0.303157 4.389096) (xy -0.285506 4.442496) (xy -0.261314 4.483646) (xy -0.230301 4.513494)
			(xy -0.207434 4.526783) (xy -0.181489 4.533207) (xy -0.143278 4.53535) (xy -0.096856 4.533446) (xy -0.046276 4.52773)
			(xy 0.004405 4.518435) (xy 0.0254 4.513349) (xy 0.063966 4.502253) (xy 0.10315 4.489453) (xy 0.13335 4.478162)
			(xy 0.1778 4.459675) (xy 0.1778 3.879557) (xy 0.12065 3.865887) (xy 0.059986 3.853339) (xy -0.002378 3.843912)
			(xy -0.063043 3.837828) (xy -0.118611 3.835308) (xy -0.16568 3.836575) (xy -0.200853 3.84185) (xy -0.208999 3.844405)
			(xy -0.240812 3.861239) (xy -0.266398 3.886227) (xy -0.286316 3.920896) (xy -0.301127 3.966772) (xy -0.311392 4.025383)
			(xy -0.31767 4.098256) (xy -0.319656 4.145919) (xy -0.319953 4.241756) (xy -0.494571 4.241756) (xy -0.495512 4.211768)
			(xy -0.495676 4.14435) (xy -0.493903 4.07948) (xy -0.490161 4.021035) (xy -0.484421 3.972892) (xy -0.479791 3.9497)
			(xy -0.45611 3.872799) (xy -0.426881 3.810714) (xy -0.391109 3.761951) (xy -0.347797 3.725015) (xy -0.319138 3.708574)
			(xy -0.265092 3.688407) (xy -0.203495 3.677841) (xy -0.133167 3.67695) (xy -0.052929 3.685811) (xy 0.038399 3.7045)
			(xy 0.141997 3.733092) (xy 0.162861 3.739555) (xy 0.166971 3.739897) (xy 0.170266 3.736928) (xy 0.172856 3.728951)
			(xy 0.174853 3.714268) (xy 0.176365 3.691183) (xy 0.177503 3.657999) (xy 0.178378 3.613018) (xy 0.179098 3.554545)
			(xy 0.179775 3.480882) (xy 0.179794 3.478638) (xy 0.182033 3.213099) (xy 0.351366 3.213099) (xy 0.353529 3.952159)
		)
		(stroke
			(width 0.01)
			(type solid)
		)
		(fill solid)
		(layer "F.Cu")
		(uuid "eea4b788-68e2-4d2e-b08a-14b2a78db790")
	)
	(fp_poly
		(pts
			(xy 2.694712 -3.441237) (xy 2.718889 -3.437564) (xy 2.755431 -3.43071) (xy 2.802297 -3.421107) (xy 2.857449 -3.409185)
			(xy 2.918847 -3.395376) (xy 2.984453 -3.380113) (xy 3.052226 -3.363827) (xy 3.060699 -3.361753) (xy 3.264906 -3.308026)
			(xy 3.457292 -3.25001) (xy 3.637026 -3.188033) (xy 3.803278 -3.122422) (xy 3.955217 -3.053504) (xy 4.09201 -2.981605)
			(xy 4.207933 -2.910336) (xy 4.296503 -2.846899) (xy 4.38201 -2.777476) (xy 4.461645 -2.704718) (xy 4.532602 -2.631273)
			(xy 4.592072 -2.559792) (xy 4.618521 -2.522793) (xy 4.687364 -2.405714) (xy 4.740012 -2.285093) (xy 4.776408 -2.161834)
			(xy 4.796494 -2.036842) (xy 4.800214 -1.911021) (xy 4.78751 -1.785276) (xy 4.758326 -1.660512) (xy 4.712603 -1.537633)
			(xy 4.684446 -1.478966) (xy 4.619101 -1.369081) (xy 4.539256 -1.264553) (xy 4.444724 -1.165272) (xy 4.335321 -1.071129)
			(xy 4.210862 -0.982014) (xy 4.07116 -0.897819) (xy 3.916032 -0.818432) (xy 3.745291 -0.743745) (xy 3.558753 -0.673648)
			(xy 3.356232 -0.608032) (xy 3.137544 -0.546787) (xy 3.086099 -0.5336) (xy 3.029051 -0.519578) (xy 2.968726 -0.505393)
			(xy 2.907333 -0.491501) (xy 2.84708 -0.478355) (xy 2.790176 -0.46641) (xy 2.738827 -0.456119) (xy 2.695243 -0.447936)
			(xy 2.661631 -0.442316) (xy 2.6402 -0.439713) (xy 2.633133 -0.440439) (xy 2.637066 -0.450453) (xy 2.647542 -0.471231)
			(xy 2.66258 -0.498907) (xy 2.66847 -0.509359) (xy 2.726489 -0.619297) (xy 2.78337 -0.742316) (xy 2.837561 -0.874567)
			(xy 2.887507 -1.012203) (xy 2.931656 -1.151375) (xy 2.941429 -1.185334) (xy 2.954551 -1.231901) (xy 3.109622 -1.275742)
			(xy 3.266595 -1.323483) (xy 3.411753 -1.374488) (xy 3.544516 -1.428414) (xy 3.664301 -1.484915) (xy 3.770528 -1.543649)
			(xy 3.862614 -1.604272) (xy 3.939979 -1.666438) (xy 4.002039 -1.729805) (xy 4.048215 -1.794027) (xy 4.073305 -1.845734)
			(xy 4.087574 -1.905476) (xy 4.088089 -1.970004) (xy 4.075191 -2.034718) (xy 4.055815 -2.0828) (xy 4.02725 -2.128006)
			(xy 3.98665 -2.177046) (xy 3.937317 -2.226577) (xy 3.882555 -2.273256) (xy 3.831166 -2.310189) (xy 3.734363 -2.367972)
			(xy 3.622775 -2.424925) (xy 3.498548 -2.480163) (xy 3.363829 -2.532801) (xy 3.220766 -2.581952) (xy 3.071507 -2.626733)
			(xy 3.047482 -2.633354) (xy 2.974998 -2.653091) (xy 2.955629 -2.729896) (xy 2.91049 -2.888325) (xy 2.85454 -3.050564)
			(xy 2.790248 -3.209916) (xy 2.733097 -3.333608) (xy 2.714668 -3.371737) (xy 2.699647 -3.404112) (xy 2.689303 -3.427894)
			(xy 2.684906 -3.440242) (xy 2.684939 -3.441296) (xy 2.694712 -3.441237)
		)
		(stroke
			(width 0.01)
			(type solid)
		)
		(fill solid)
		(layer "F.Cu")
		(uuid "282e0a9f-756c-4c35-a3cd-6a79dcd3c547")
	)
	(fp_poly
		(pts
			(xy 4.418757 1.881976) (xy 4.485962 1.885299) (xy 4.539437 1.890372) (xy 4.58235 1.897866) (xy 4.617869 1.908452)
			(xy 4.649164 1.922799) (xy 4.669712 1.935087) (xy 4.705225 1.96396) (xy 4.732766 2.000406) (xy 4.753433 2.046766)
			(xy 4.768323 2.105382) (xy 4.776947 2.163836) (xy 4.781139 2.245749) (xy 4.773541 2.315618) (xy 4.754003 2.373691)
			(xy 4.72238 2.42022) (xy 4.678522 2.455453) (xy 4.622283 2.479641) (xy 4.585261 2.488466) (xy 4.561262 2.49129)
			(xy 4.52384 2.493763) (xy 4.476502 2.495743) (xy 4.422758 2.497088) (xy 4.366116 2.497657) (xy 4.357983 2.497666)
			(xy 4.180944 2.497666) (xy 4.187024 2.542116) (xy 4.193596 2.581018) (xy 4.202712 2.612383) (xy 4.216082 2.636935)
			(xy 4.235413 2.655399) (xy 4.262414 2.668499) (xy 4.298795 2.676959) (xy 4.346265 2.681504) (xy 4.40653 2.682859)
			(xy 4.481302 2.681747) (xy 4.514202 2.680818) (xy 4.569941 2.678923) (xy 4.621823 2.676801) (xy 4.666779 2.674608)
			(xy 4.701741 2.672496) (xy 4.72364 2.670618) (xy 4.726812 2.670188) (xy 4.758859 2.665078) (xy 4.756446 2.757055)
			(xy 4.754033 2.849033) (xy 4.698641 2.862878) (xy 4.651056 2.872482) (xy 4.592905 2.8806) (xy 4.527313 2.887128)
			(xy 4.457407 2.891962) (xy 4.386313 2.894999) (xy 4.317155 2.896135) (xy 4.25306 2.895268) (xy 4.197154 2.892292)
			(xy 4.152562 2.887106) (xy 4.1286 2.881757) (xy 4.076932 2.860278) (xy 4.033383 2.829511) (xy 3.997553 2.788499)
			(xy 3.969039 2.736286) (xy 3.947443 2.671914) (xy 3.932363 2.594427) (xy 3.9234 2.502867) (xy 3.920152 2.396278)
			(xy 3.920126 2.383588) (xy 3.922234 2.302933) (xy 4.180101 2.302933) (xy 4.324109 2.302933) (xy 4.377229 2.302788)
			(xy 4.416181 2.302161) (xy 4.443728 2.300759) (xy 4.462633 2.29829) (xy 4.475661 2.294464) (xy 4.485573 2.288989)
			(xy 4.490424 2.285385) (xy 4.502303 2.27444) (xy 4.509019 2.261806) (xy 4.512014 2.242531) (xy 4.512731 2.21166)
			(xy 4.512733 2.208765) (xy 4.509967 2.161505) (xy 4.500895 2.128004) (xy 4.484359 2.105887) (xy 4.459198 2.092781)
			(xy 4.455569 2.091708) (xy 4.425097 2.086487) (xy 4.385005 2.083914) (xy 4.341334 2.083924) (xy 4.300125 2.086451)
			(xy 4.267421 2.091427) (xy 4.258733 2.093861) (xy 4.230481 2.112307) (xy 4.208423 2.145734) (xy 4.193031 2.193186)
			(xy 4.185746 2.241549) (xy 4.180101 2.302933) (xy 3.922234 2.302933) (xy 3.92293 2.276313) (xy 3.931852 2.184217)
			(xy 3.947827 2.106357) (xy 3.971793 2.041792) (xy 4.004686 1.989579) (xy 4.047444 1.948775) (xy 4.101002 1.918438)
			(xy 4.166298 1.897627) (xy 4.244269 1.885397) (xy 4.335851 1.880808) (xy 4.418757 1.881976)
		)
		(stroke
			(width 0.01)
			(type solid)
		)
		(fill solid)
		(layer "F.Cu")
		(uuid "360569a7-0240-489d-956e-b411e04a75de")
	)
	(fp_poly
		(pts
			(xy -3.234949 3.685414) (xy -3.157187 3.690267) (xy -3.093458 3.699241) (xy -3.041181 3.713169) (xy -2.997777 3.732888)
			(xy -2.960666 3.759232) (xy -2.937328 3.781765) (xy -2.909233 3.814384) (xy -2.889216 3.845013) (xy -2.873167 3.880725)
			(xy -2.863043 3.909627) (xy -2.849276 3.964263) (xy -2.838933 4.0313) (xy -2.832135 4.106532) (xy -2.829 4.185752)
			(xy -2.829647 4.264755) (xy -2.834195 4.339335) (xy -2.842763 4.405284) (xy -2.848258 4.4323) (xy -2.872505 4.507073)
			(xy -2.907338 4.568816) (xy -2.953229 4.618077) (xy -3.010649 4.655406) (xy -3.055563 4.673932) (xy -3.092702 4.682906)
			(xy -3.142264 4.68987) (xy -3.199839 4.694675) (xy -3.261018 4.697172) (xy -3.321392 4.69721) (xy -3.376553 4.69464)
			(xy -3.42209 4.689313) (xy -3.434782 4.686805) (xy -3.508402 4.664107) (xy -3.569286 4.631838) (xy -3.618401 4.588917)
			(xy -3.656715 4.534263) (xy -3.685194 4.466795) (xy -3.704806 4.385433) (xy -3.704876 4.385034) (xy -3.711588 4.330961)
			(xy -3.715289 4.266509) (xy -3.716105 4.196371) (xy -3.539067 4.196371) (xy -3.537141 4.280703) (xy -3.530972 4.350007)
			(xy -3.519974 4.405791) (xy -3.503558 4.449559) (xy -3.481139 4.482819) (xy -3.45213 4.507077) (xy -3.415944 4.523839)
			(xy -3.410855 4.525493) (xy -3.379618 4.531754) (xy -3.336707 4.535752) (xy -3.287229 4.537484) (xy -3.236292 4.536948)
			(xy -3.189004 4.53414) (xy -3.150472 4.529058) (xy -3.135979 4.525632) (xy -3.098283 4.509988) (xy -3.067913 4.48676)
			(xy -3.04429 4.454488) (xy -3.026838 4.411714) (xy -3.014982 4.356976) (xy -3.008144 4.288815) (xy -3.005748 4.205773)
			(xy -3.005731 4.195795) (xy -3.007566 4.111051) (xy -3.013287 4.041281) (xy -3.023366 3.984872) (xy -3.038274 3.940212)
			(xy -3.058484 3.90569) (xy -3.084468 3.879693) (xy -3.101633 3.868306) (xy -3.116451 3.860453) (xy -3.131129 3.854944)
			(xy -3.148971 3.851365) (xy -3.17328 3.849306) (xy -3.207362 3.848356) (xy -3.25452 3.848103) (xy -3.2639 3.8481)
			(xy -3.320447 3.848412) (xy -3.363014 3.849694) (xy -3.394549 3.852465) (xy -3.417998 3.857242) (xy -3.43631 3.864544)
			(xy -3.452432 3.874888) (xy -3.462586 3.883029) (xy -3.4869 3.90797) (xy -3.505904 3.938488) (xy -3.520095 3.976625)
			(xy -3.529973 4.024423) (xy -3.536035 4.083925) (xy -3.538781 4.157172) (xy -3.539067 4.196371) (xy -3.716105 4.196371)
			(xy -3.716108 4.196148) (xy -3.714171 4.12435) (xy -3.709604 4.055587) (xy -3.702535 3.99433) (xy -3.693091 3.945051)
			(xy -3.692291 3.941962) (xy -3.669312 3.873552) (xy -3.639112 3.816812) (xy -3.600534 3.771095) (xy -3.552426 3.735753)
			(xy -3.493633 3.710139) (xy -3.423001 3.693605) (xy -3.339375 3.685504) (xy -3.241603 3.685188) (xy -3.234949 3.685414)
		)
		(stroke
			(width 0.01)
			(type solid)
		)
		(fill solid)
		(layer "F.Cu")
		(uuid "e3be2284-3b9a-495f-a13c-557bb509e00c")
	)
	(fp_poly
		(pts
			(xy 3.291675 3.68525) (xy 3.376328 3.693479) (xy 3.447926 3.710303) (xy 3.507599 3.736413) (xy 3.556479 3.772501)
			(xy 3.595699 3.819257) (xy 3.626389 3.877372) (xy 3.649683 3.947537) (xy 3.654388 3.966633) (xy 3.661504 4.008754)
			(xy 3.666675 4.062832) (xy 3.669903 4.124963) (xy 3.671192 4.191242) (xy 3.670542 4.257764) (xy 3.667957 4.320625)
			(xy 3.663438 4.37592) (xy 3.656989 4.419745) (xy 3.654107 4.4323) (xy 3.627737 4.508492) (xy 3.592115 4.570747)
			(xy 3.546474 4.61978) (xy 3.490049 4.656309) (xy 3.422071 4.681048) (xy 3.378199 4.690095) (xy 3.335032 4.694833)
			(xy 3.282056 4.697426) (xy 3.224387 4.697939) (xy 3.16714 4.696435) (xy 3.11543 4.692976) (xy 3.074373 4.687625)
			(xy 3.067618 4.686274) (xy 3.00301 4.667977) (xy 2.949995 4.642853) (xy 2.903857 4.608613) (xy 2.899704 4.604844)
			(xy 2.866848 4.570057) (xy 2.84078 4.531416) (xy 2.820774 4.486594) (xy 2.806108 4.433263) (xy 2.796057 4.369094)
			(xy 2.789898 4.29176) (xy 2.787995 4.245636) (xy 2.787679 4.195891) (xy 2.958504 4.195891) (xy 2.961868 4.275229)
			(xy 2.963688 4.296506) (xy 2.973587 4.367601) (xy 2.98889 4.423934) (xy 3.010464 4.467057) (xy 3.039175 4.498523)
			(xy 3.075888 4.519882) (xy 3.091407 4.525452) (xy 3.123089 4.531816) (xy 3.166419 4.535843) (xy 3.216272 4.537536)
			(xy 3.267527 4.536897) (xy 3.315058 4.533928) (xy 3.353743 4.528631) (xy 3.367399 4.525341) (xy 3.411296 4.504579)
			(xy 3.445836 4.470683) (xy 3.471922 4.422701) (xy 3.476746 4.409789) (xy 3.48234 4.391353) (xy 3.486469 4.370882)
			(xy 3.48934 4.34554) (xy 3.491161 4.312489) (xy 3.492141 4.268892) (xy 3.492487 4.211913) (xy 3.492499 4.195233)
			(xy 3.491809 4.12145) (xy 3.489455 4.062179) (xy 3.485015 4.01504) (xy 3.478067 3.977657) (xy 3.468188 3.947653)
			(xy 3.454954 3.922649) (xy 3.440618 3.903392) (xy 3.42299 3.884011) (xy 3.405499 3.869743) (xy 3.385209 3.859816)
			(xy 3.359186 3.85346) (xy 3.324494 3.849904) (xy 3.2782 3.848377) (xy 3.230033 3.8481) (xy 3.172185 3.848528)
			(xy 3.128286 3.850374) (xy 3.095361 3.854479) (xy 3.070437 3.861683) (xy 3.050538 3.872828) (xy 3.032691 3.888754)
			(xy 3.015098 3.908872) (xy 2.995102 3.943272) (xy 2.979111 3.991688) (xy 2.967459 4.051606) (xy 2.960478 4.120511)
			(xy 2.958504 4.195891) (xy 2.787679 4.195891) (xy 2.787296 4.135627) (xy 2.792864 4.040439) (xy 2.805156 3.95899)
			(xy 2.824627 3.890197) (xy 2.851735 3.832976) (xy 2.886936 3.786243) (xy 2.930685 3.748916) (xy 2.983441 3.719911)
			(xy 3.014634 3.707741) (xy 3.042023 3.699479) (xy 3.071438 3.693525) (xy 3.106899 3.689362) (xy 3.152428 3.686475)
			(xy 3.192834 3.684927) (xy 3.291675 3.68525)
		)
		(stroke
			(width 0.01)
			(type solid)
		)
		(fill solid)
		(layer "F.Cu")
		(uuid "a6870f8f-e622-4fb4-9630-6852e17a5b47")
	)
	(fp_poly
		(pts
			(xy 2.567586 1.872777) (xy 2.633193 1.878188) (xy 2.687003 1.888083) (xy 2.731449 1.90318) (xy 2.768959 1.924197)
			(xy 2.801963 1.951851) (xy 2.817691 1.968568) (xy 2.831888 1.984825) (xy 2.843839 1.999676) (xy 2.853749 2.014687)
			(xy 2.861822 2.031424) (xy 2.868261 2.051451) (xy 2.873269 2.076335) (xy 2.877051 2.107639) (xy 2.879811 2.146929)
			(xy 2.881752 2.19577) (xy 2.883078 2.255728) (xy 2.883993 2.328368) (xy 2.8847 2.415255) (xy 2.885192 2.487083)
			(xy 2.887906 2.887133) (xy 2.677825 2.887133) (xy 2.650473 2.835814) (xy 2.635804 2.809026) (xy 2.625994 2.794843)
			(xy 2.61813 2.790829) (xy 2.609297 2.794545) (xy 2.604843 2.797648) (xy 2.520785 2.848381) (xy 2.457393 2.875092)
			(xy 2.398787 2.889687) (xy 2.334492 2.895563) (xy 2.271022 2.892604) (xy 2.214891 2.880689) (xy 2.211535 2.879562)
			(xy 2.153845 2.851163) (xy 2.10521 2.810079) (xy 2.06808 2.75885) (xy 2.047426 2.709333) (xy 2.041079 2.675404)
			(xy 2.037511 2.630222) (xy 2.036636 2.579054) (xy 2.03695 2.569648) (xy 2.307166 2.569648) (xy 2.307478 2.60797)
			(xy 2.308931 2.633183) (xy 2.312305 2.649107) (xy 2.318378 2.659563) (xy 2.327154 2.667748) (xy 2.354993 2.680303)
			(xy 2.394585 2.683808) (xy 2.443423 2.678343) (xy 2.498999 2.663988) (xy 2.50464 2.66213) (xy 2.539609 2.649421)
			(xy 2.571859 2.63602) (xy 2.595075 2.624576) (xy 2.597149 2.62334) (xy 2.624666 2.606352) (xy 2.624666 2.427503)
			(xy 2.546349 2.433252) (xy 2.484068 2.437927) (xy 2.43636 2.441874) (xy 2.400905 2.445472) (xy 2.375379 2.449101)
			(xy 2.35746 2.453138) (xy 2.344825 2.457962) (xy 2.335151 2.463952) (xy 2.329394 2.468614) (xy 2.319104 2.47846)
			(xy 2.312602 2.489164) (xy 2.309022 2.50466) (xy 2.307499 2.528883) (xy 2.307167 2.565765) (xy 2.307166 2.569648)
			(xy 2.03695 2.569648) (xy 2.038369 2.527169) (xy 2.042621 2.479834) (xy 2.049308 2.442318) (xy 2.05195 2.433241)
			(xy 2.07903 2.377943) (xy 2.119384 2.332391) (xy 2.171808 2.297548) (xy 2.235101 2.274377) (xy 2.256145 2.269824)
			(xy 2.280908 2.266838) (xy 2.31878 2.264256) (xy 2.365937 2.262244) (xy 2.418556 2.260973) (xy 2.465354 2.260599)
			(xy 2.624666 2.260599) (xy 2.624619 2.220383) (xy 2.620578 2.167657) (xy 2.608017 2.128681) (xy 2.586071 2.102101)
			(xy 2.553871 2.08656) (xy 2.536709 2.082943) (xy 2.51546 2.08147) (xy 2.480344 2.081027) (xy 2.434394 2.081518)
			(xy 2.38064 2.082847) (xy 2.322112 2.084918) (xy 2.261841 2.087636) (xy 2.202857 2.090904) (xy 2.148191 2.094628)
			(xy 2.1354 2.095631) (xy 2.065234 2.101306) (xy 2.067667 2.017969) (xy 2.070099 1.934633) (xy 2.128212 1.915787)
			(xy 2.203285 1.896412) (xy 2.291666 1.882274) (xy 2.390449 1.873735) (xy 2.487753 1.871133) (xy 2.567586 1.872777)
		)
		(stroke
			(width 0.01)
			(type solid)
		)
		(fill solid)
		(layer "F.Cu")
		(uuid "1257d2f5-a10e-44df-be6b-6670d9aa496d")
	)
	(fp_poly
		(pts
			(xy -1.041266 1.884681) (xy -0.979302 1.887501) (xy -0.929218 1.892703) (xy -0.888525 1.900697) (xy -0.854732 1.911895)
			(xy -0.825348 1.926707) (xy -0.814006 1.933914) (xy -0.77753 1.963721) (xy -0.749579 1.999511) (xy -0.729173 2.043656)
			(xy -0.715334 2.098524) (xy -0.707085 2.166484) (xy -0.70515 2.197483) (xy -0.704143 2.263899) (xy -0.708963 2.317098)
			(xy -0.720394 2.360031) (xy -0.739217 2.395646) (xy -0.765974 2.42666) (xy -0.786347 2.445087) (xy -0.806339 2.459711)
			(xy -0.828237 2.471014) (xy -0.854323 2.479483) (xy -0.886884 2.485601) (xy -0.928203 2.489852) (xy -0.980565 2.492722)
			(xy -1.046256 2.494694) (xy -1.09118 2.495614) (xy -1.297592 2.499433) (xy -1.29319 2.547977) (xy -1.283737 2.599242)
			(xy -1.265535 2.636946) (xy -1.237914 2.66241) (xy -1.233874 2.66474) (xy -1.222442 2.669901) (xy -1.208012 2.673744)
			(xy -1.188091 2.676454) (xy -1.160189 2.678217) (xy -1.121815 2.679219) (xy -1.070476 2.679644) (xy -1.032934 2.679699)
			(xy -0.974884 2.679367) (xy -0.917523 2.678441) (xy -0.864892 2.677032) (xy -0.821031 2.675246) (xy -0.789981 2.673195)
			(xy -0.789517 2.673151) (xy -0.719667 2.666603) (xy -0.719667 2.844326) (xy -0.765551 2.857665) (xy -0.799207 2.866832)
			(xy -0.831686 2.874059) (xy -0.865833 2.879632) (xy -0.904496 2.883836) (xy -0.950522 2.886956) (xy -1.006756 2.889279)
			(xy -1.076046 2.891088) (xy -1.104901 2.891672) (xy -1.175781 2.892764) (xy -1.23186 2.892971) (xy -1.275246 2.892226)
			(xy -1.308053 2.890463) (xy -1.33239 2.887617) (xy -1.348975 2.884023) (xy -1.406158 2.859359) (xy -1.456081 2.820763)
			(xy -1.487938 2.78231) (xy -1.510499 2.743175) (xy -1.528323 2.698855) (xy -1.541795 2.647233) (xy -1.551298 2.586193)
			(xy -1.557215 2.513617) (xy -1.55993 2.427389) (xy -1.560209 2.383366) (xy -1.55858 2.302933) (xy -1.297576 2.302933)
			(xy -1.153493 2.302933) (xy -1.100072 2.302764) (xy -1.060874 2.302078) (xy -1.03319 2.300608) (xy -1.014312 2.298086)
			(xy -1.001531 2.294243) (xy -0.992138 2.288813) (xy -0.989422 2.286709) (xy -0.979036 2.276482) (xy -0.973074 2.263789)
			(xy -0.970405 2.24402) (xy -0.969898 2.212563) (xy -0.969933 2.207258) (xy -0.972878 2.162458) (xy -0.982171 2.129171)
			(xy -0.999709 2.106023) (xy -1.02739 2.09164) (xy -1.06711 2.084647) (xy -1.120766 2.083671) (xy -1.13961 2.084334)
			(xy -1.193558 2.089399) (xy -1.233348 2.100628) (xy -1.261154 2.120183) (xy -1.279152 2.15022) (xy -1.289516 2.192899)
			(xy -1.293757 2.237316) (xy -1.297576 2.302933) (xy -1.55858 2.302933) (xy -1.558229 2.285655) (xy -1.552014 2.202794)
			(xy -1.541172 2.133142) (xy -1.525309 2.075057) (xy -1.504034 2.026898) (xy -1.476954 1.987023) (xy -1.461378 1.969941)
			(xy -1.431721 1.943601) (xy -1.399913 1.922948) (xy -1.363539 1.907378) (xy -1.320187 1.896287) (xy -1.267442 1.88907)
			(xy -1.202892 1.885122) (xy -1.124123 1.883838) (xy -1.117601 1.883833) (xy -1.041266 1.884681)
		)
		(stroke
			(width 0.01)
			(type solid)
		)
		(fill solid)
		(layer "F.Cu")
		(uuid "48e603b4-75ad-4aa4-a599-443e4146d582")
	)
	(fp_poly
		(pts
			(xy 1.122466 3.679486) (xy 1.155217 3.680559) (xy 1.179474 3.682565) (xy 1.19805 3.685766) (xy 1.21376 3.690423)
			(xy 1.229416 3.696796) (xy 1.234265 3.698966) (xy 1.27853 3.726407) (xy 1.319771 3.765298) (xy 1.352953 3.810277)
			(xy 1.368416 3.841799) (xy 1.37199 3.852413) (xy 1.374994 3.864928) (xy 1.377491 3.880892) (xy 1.379544 3.901858)
			(xy 1.381216 3.929377) (xy 1.382571 3.964999) (xy 1.383673 4.010276) (xy 1.384584 4.066759) (xy 1.385368 4.135999)
			(xy 1.386088 4.219547) (xy 1.386583 4.286599) (xy 1.389441 4.691232) (xy 1.319818 4.688766) (xy 1.250196 4.6863)
			(xy 1.233539 4.6355) (xy 1.224467 4.608618) (xy 1.217361 4.588993) (xy 1.214048 4.581413) (xy 1.20573 4.583406)
			(xy 1.185777 4.591483) (xy 1.157705 4.604165) (xy 1.141124 4.612062) (xy 1.070783 4.644247) (xy 1.009808 4.667592)
			(xy 0.953941 4.683321) (xy 0.898926 4.692655) (xy 0.846666 4.696597) (xy 0.805987 4.697893) (xy 0.777258 4.697485)
			(xy 0.755521 4.694621) (xy 0.735819 4.688544) (xy 0.713196 4.678503) (xy 0.706475 4.675271) (xy 0.652049 4.640438)
			(xy 0.610432 4.595221) (xy 0.582614 4.540734) (xy 0.58023 4.53356) (xy 0.573948 4.50956) (xy 0.570006 4.482925)
			(xy 0.568131 4.449743) (xy 0.568048 4.406099) (xy 0.568208 4.398664) (xy 0.745066 4.398664) (xy 0.745235 4.438719)
			(xy 0.746321 4.46572) (xy 0.749192 4.483548) (xy 0.754716 4.496083) (xy 0.763764 4.507205) (xy 0.771016 4.514585)
			(xy 0.796965 4.540535) (xy 0.878966 4.535597) (xy 0.924303 4.531288) (xy 0.972355 4.524198) (xy 1.014543 4.515653)
			(xy 1.024466 4.51309) (xy 1.066965 4.500598) (xy 1.11386 4.485713) (xy 1.14935 4.473634) (xy 1.210733 4.451748)
			(xy 1.210733 4.205746) (xy 1.16205 4.210855) (xy 1.13687 4.213175) (xy 1.098916 4.216266) (xy 1.052311 4.21981)
			(xy 1.001179 4.223491) (xy 0.969433 4.225675) (xy 0.902016 4.230752) (xy 0.849633 4.236763) (xy 0.810396 4.245162)
			(xy 0.782412 4.25741) (xy 0.763791 4.274962) (xy 0.752644 4.299276) (xy 0.74708 4.331811) (xy 0.745208 4.374023)
			(xy 0.745066 4.398664) (xy 0.568208 4.398664) (xy 0.568808 4.370845) (xy 0.570363 4.322987) (xy 0.572406 4.288279)
			(xy 0.575549 4.262939) (xy 0.580403 4.243185) (xy 0.587578 4.225234) (xy 0.594602 4.211152) (xy 0.627847 4.162462)
			(xy 0.672085 4.1245) (xy 0.7112 4.102877) (xy 0.723707 4.097558) (xy 0.737137 4.093373) (xy 0.753696 4.090154)
			(xy 0.77559 4.087733) (xy 0.805025 4.085942) (xy 0.844207 4.084615) (xy 0.895341 4.083582) (xy 0.960635 4.082677)
			(xy 0.980016 4.082444) (xy 1.210733 4.079721) (xy 1.210733 4.004678) (xy 1.20923 3.954895) (xy 1.20408 3.917995)
			(xy 1.194316 3.890143) (xy 1.178973 3.867502) (xy 1.175156 3.863267) (xy 1.161011 3.851223) (xy 1.14264 3.842019)
			(xy 1.118134 3.835477) (xy 1.085584 3.831414) (xy 1.04308 3.829652) (xy 0.988714 3.830011) (xy 0.920575 3.83231)
			(xy 0.871123 3.834604) (xy 0.812643 3.837642) (xy 0.75782 3.840737) (xy 0.709593 3.843703) (xy 0.670906 3.846355)
			(xy 0.6447 3.848508) (xy 0.637116 3.84935) (xy 0.601133 3.854256) (xy 0.601133 3.728429) (xy 0.662516 3.714277)
			(xy 0.720824 3.701732) (xy 0.774512 3.692438) (xy 0.827997 3.685961) (xy 0.885698 3.681866) (xy 0.952031 3.679718)
			(xy 1.020233 3.679096) (xy 1.078409 3.679086) (xy 1.122466 3.679486)
		)
		(stroke
			(width 0.01)
			(type solid)
		)
		(fill solid)
		(layer "F.Cu")
		(uuid "6191300f-e653-464a-a4be-44509ee0d3e6")
	)
	(fp_poly
		(pts
			(xy -2.701138 -3.435445) (xy -2.700867 -3.434494) (xy -2.704349 -3.42627) (xy -2.713998 -3.405341)
			(xy -2.72862 -3.374251) (xy -2.747019 -3.335544) (xy -2.763492 -3.301144) (xy -2.788963 -3.246393)
			(xy -2.815849 -3.185684) (xy -2.84143 -3.125342) (xy -2.862984 -3.071689) (xy -2.868773 -3.056467)
			(xy -2.883892 -3.014274) (xy -2.900374 -2.965449) (xy -2.917343 -2.91291) (xy -2.93392 -2.859576)
			(xy -2.949231 -2.808364) (xy -2.962397 -2.762194) (xy -2.972543 -2.723983) (xy -2.978793 -2.696649)
			(xy -2.980397 -2.684881) (xy -2.984615 -2.665909) (xy -2.987333 -2.660511) (xy -2.99725 -2.654823)
			(xy -3.0208 -2.64538) (xy -3.055344 -2.633116) (xy -3.098244 -2.618967) (xy -3.14686 -2.603867) (xy -3.149671 -2.60302)
			(xy -3.307636 -2.552145) (xy -3.454148 -2.498075) (xy -3.587909 -2.441369) (xy -3.707618 -2.382585)
			(xy -3.811978 -2.322282) (xy -3.831167 -2.309908) (xy -3.888394 -2.268222) (xy -3.943053 -2.22089)
			(xy -3.991861 -2.17122) (xy -4.031539 -2.122518) (xy -4.056446 -2.0828) (xy -4.069981 -2.05529) (xy -4.078391 -2.032761)
			(xy -4.082893 -2.009445) (xy -4.084703 -1.979572) (xy -4.08503 -1.947205) (xy -4.084595 -1.907667)
			(xy -4.082336 -1.879153) (xy -4.077067 -1.855765) (xy -4.067599 -1.831608) (xy -4.057459 -1.810311)
			(xy -4.017887 -1.747143) (xy -3.961829 -1.684595) (xy -3.889731 -1.622916) (xy -3.802035 -1.562355)
			(xy -3.699185 -1.503162) (xy -3.581627 -1.445585) (xy -3.449803 -1.389875) (xy -3.304157 -1.33628)
			(xy -3.145135 -1.28505) (xy -3.096297 -1.27059) (xy -3.047061 -1.256211) (xy -3.011777 -1.245535)
			(xy -2.988121 -1.237585) (xy -2.973772 -1.231384) (xy -2.966406 -1.225956) (xy -2.963702 -1.220324)
			(xy -2.963334 -1.214673) (xy -2.960599 -1.199175) (xy -2.953021 -1.170645) (xy -2.941543 -1.131964)
			(xy -2.927108 -1.086013) (xy -2.910658 -1.035675) (xy -2.893135 -0.983831) (xy -2.875482 -0.933363)
			(xy -2.858641 -0.887152) (xy -2.843554 -0.84808) (xy -2.842984 -0.846667) (xy -2.824298 -0.802559)
			(xy -2.800119 -0.748658) (xy -2.772851 -0.690152) (xy -2.744896 -0.632228) (xy -2.72727 -0.596901)
			(xy -2.704336 -0.551623) (xy -2.684058 -0.511515) (xy -2.667673 -0.479029) (xy -2.656419 -0.456618)
			(xy -2.651532 -0.446735) (xy -2.651478 -0.446617) (xy -2.651718 -0.442982) (xy -2.657765 -0.4415)
			(xy -2.671451 -0.442454) (xy -2.694609 -0.446126) (xy -2.729071 -0.4528) (xy -2.77667 -0.462756)
			(xy -2.827867 -0.473804) (xy -3.06493 -0.529024) (xy -3.285714 -0.588097) (xy -3.49046 -0.651152)
			(xy -3.67941 -0.718321) (xy -3.852805 -0.789733) (xy -4.010884 -0.865518) (xy -4.153889 -0.945808)
			(xy -4.282061 -1.030733) (xy -4.395641 -1.120423) (xy -4.494869 -1.215008) (xy -4.579986 -1.31462)
			(xy -4.651234 -1.419387) (xy -4.684447 -1.478966) (xy -4.738315 -1.600742) (xy -4.775567 -1.724692)
			(xy -4.796255 -1.849996) (xy -4.800431 -1.975837) (xy -4.788146 -2.101397) (xy -4.759452 -2.225857)
			(xy -4.714399 -2.348398) (xy -4.65304 -2.468202) (xy -4.618758 -2.523067) (xy -4.590459 -2.561098)
			(xy -4.551694 -2.606542) (xy -4.50541 -2.656473) (xy -4.454551 -2.707963) (xy -4.402062 -2.758086)
			(xy -4.35089 -2.803915) (xy -4.303977 -2.842524) (xy -4.277685 -2.861998) (xy -4.144644 -2.948142)
			(xy -3.999928 -3.028739) (xy -3.842826 -3.104064) (xy -3.67263 -3.174393) (xy -3.488629 -3.240001)
			(xy -3.290114 -3.301165) (xy -3.076375 -3.358159) (xy -2.883589 -3.403224) (xy -2.822102 -3.416614)
			(xy -2.775359 -3.4264) (xy -2.741626 -3.432879) (xy -2.719167 -3.436349) (xy -2.706249 -3.437105)
			(xy -2.701138 -3.435445)
		)
		(stroke
			(width 0.01)
			(type solid)
		)
		(fill solid)
		(layer "F.Cu")
		(uuid "1898aa3c-fdbe-4888-bd68-1681c4859ca5")
	)
	(fp_poly
		(pts
			(xy 0.364066 1.503056) (xy 0.461756 1.504293) (xy 0.54633 1.507961) (xy 0.621474 1.514382) (xy 0.690872 1.523878)
			(xy 0.758211 1.536772) (xy 0.764116 1.53807) (xy 0.821266 1.550757) (xy 0.821266 1.763425) (xy 0.776816 1.757965)
			(xy 0.756285 1.756276) (xy 0.721644 1.754363) (xy 0.675715 1.752342) (xy 0.621317 1.750328) (xy 0.56127 1.748436)
			(xy 0.507868 1.747008) (xy 0.431621 1.745347) (xy 0.370389 1.744674) (xy 0.32227 1.745254) (xy 0.285359 1.747351)
			(xy 0.257753 1.75123) (xy 0.237551 1.757156) (xy 0.222849 1.765393) (xy 0.211743 1.776205) (xy 0.202576 1.789456)
			(xy 0.194307 1.812662) (xy 0.188639 1.847695) (xy 0.185647 1.88964) (xy 0.185403 1.933579) (xy 0.187983 1.974597)
			(xy 0.193459 2.007777) (xy 0.199054 2.023702) (xy 0.207007 2.037434) (xy 0.216371 2.048159) (xy 0.229266 2.056318)
			(xy 0.24781 2.06235) (xy 0.274122 2.066695) (xy 0.31032 2.069792) (xy 0.358525 2.072081) (xy 0.420854 2.074001)
			(xy 0.4445 2.074619) (xy 0.518728 2.076927) (xy 0.578425 2.080043) (xy 0.625989 2.084563) (xy 0.663821 2.091085)
			(xy 0.694322 2.100205) (xy 0.71989 2.112521) (xy 0.742926 2.128629) (xy 0.76583 2.149126) (xy 0.773179 2.156365)
			(xy 0.806685 2.194547) (xy 0.83235 2.235478) (xy 0.850874 2.281707) (xy 0.862955 2.335785) (xy 0.869291 2.400264)
			(xy 0.870582 2.477694) (xy 0.869934 2.509624) (xy 0.867279 2.575635) (xy 0.862972 2.628024) (xy 0.856294 2.670079)
			(xy 0.846522 2.705087) (xy 0.832936 2.736335) (xy 0.814815 2.767109) (xy 0.812775 2.770214) (xy 0.778811 2.809359)
			(xy 0.733104 2.844759) (xy 0.680843 2.872762) (xy 0.651933 2.883457) (xy 0.62277 2.889486) (xy 0.580011 2.894362)
			(xy 0.52696 2.897994) (xy 0.466922 2.900292) (xy 0.4032 2.901164) (xy 0.339099 2.90052) (xy 0.277923 2.89827)
			(xy 0.230616 2.895019) (xy 0.193941 2.891036) (xy 0.151035 2.885176) (xy 0.105485 2.878073) (xy 0.060882 2.87036)
			(xy 0.020814 2.862671) (xy -0.011128 2.85564) (xy -0.031356 2.8499) (xy -0.03546 2.848048) (xy -0.038116 2.838413)
			(xy -0.040294 2.815289) (xy -0.041774 2.782117) (xy -0.042334 2.742338) (xy -0.042334 2.639026) (xy 0.046324 2.644451)
			(xy 0.084104 2.64651) (xy 0.13412 2.648871) (xy 0.191679 2.651331) (xy 0.252091 2.653689) (xy 0.302754 2.655481)
			(xy 0.374973 2.657352) (xy 0.432525 2.657388) (xy 0.477606 2.655273) (xy 0.512415 2.650692) (xy 0.539148 2.643329)
			(xy 0.560004 2.632869) (xy 0.577179 2.618994) (xy 0.580588 2.615551) (xy 0.59229 2.601869) (xy 0.599687 2.587562)
			(xy 0.604038 2.568039) (xy 0.606602 2.538706) (xy 0.60771 2.51667) (xy 0.607508 2.458884) (xy 0.600648 2.414752)
			(xy 0.586541 2.382117) (xy 0.564602 2.358829) (xy 0.555748 2.353066) (xy 0.545133 2.348595) (xy 0.530438 2.345174)
			(xy 0.509344 2.34256) (xy 0.479533 2.340508) (xy 0.438686 2.338776) (xy 0.384483 2.337121) (xy 0.348702 2.336169)
			(xy 0.285038 2.334375) (xy 0.235675 2.332531) (xy 0.197984 2.33038) (xy 0.169334 2.327662) (xy 0.147095 2.324118)
			(xy 0.128636 2.31949) (xy 0.111327 2.313517) (xy 0.108821 2.312549) (xy 0.049412 2.280589) (xy -0.000131 2.23544)
			(xy -0.038956 2.178247) (xy -0.066211 2.110156) (xy -0.076941 2.062868) (xy -0.081184 2.024498) (xy -0.08331 1.975773)
			(xy -0.083471 1.920925) (xy -0.08182 1.864186) (xy -0.078507 1.80979) (xy -0.073685 1.761969) (xy -0.067505 1.724955)
			(xy -0.064407 1.713221) (xy -0.035536 1.648317) (xy 0.006333 1.59393) (xy 0.060213 1.551034) (xy 0.125116 1.520599)
			(xy 0.134417 1.517576) (xy 0.153918 1.512433) (xy 0.17638 1.508605) (xy 0.204486 1.505922) (xy 0.240918 1.504215)
			(xy 0.288359 1.503313) (xy 0.349491 1.503047) (xy 0.364066 1.503056)
		)
		(stroke
			(width 0.01)
			(type solid)
		)
		(fill solid)
		(layer "F.Cu")
		(uuid "0be4a0a0-c371-4724-9aa1-f590ddf3c0d7")
	)
	(fp_poly
		(pts
			(xy 0.118528 -4.693352) (xy 0.198478 -4.690376) (xy 0.269213 -4.685877) (xy 0.327027 -4.679855) (xy 0.3302 -4.679418)
			(xy 0.547463 -4.641147) (xy 0.756186 -4.588381) (xy 0.957016 -4.520847) (xy 1.150602 -4.438275) (xy 1.337592 -4.340392)
			(xy 1.518633 -4.226926) (xy 1.667933 -4.118329) (xy 1.718004 -4.077272) (xy 1.77554 -4.02637) (xy 1.837435 -3.968686)
			(xy 1.90058 -3.907283) (xy 1.96187 -3.84522) (xy 2.018196 -3.785562) (xy 2.066453 -3.731369) (xy 2.092491 -3.699934)
			(xy 2.222726 -3.52313) (xy 2.337349 -3.339771) (xy 2.436376 -3.149824) (xy 2.519821 -2.953252) (xy 2.587699 -2.750022)
			(xy 2.640023 -2.540098) (xy 2.676808 -2.323446) (xy 2.680908 -2.291016) (xy 2.686719 -2.228892) (xy 2.690945 -2.1545)
			(xy 2.693557 -2.072329) (xy 2.694526 -1.986863) (xy 2.693822 -1.902588) (xy 2.691416 -1.823992) (xy 2.687277 -1.75556)
			(xy 2.68462 -1.7272) (xy 2.65311 -1.512813) (xy 2.606011 -1.304186) (xy 2.543809 -1.101966) (xy 2.466995 -0.906798)
			(xy 2.376058 -0.719328) (xy 2.271487 -0.540203) (xy 2.153772 -0.370068) (xy 2.023401 -0.209568) (xy 1.880864 -0.059351)
			(xy 1.72665 0.079938) (xy 1.561249 0.207654) (xy 1.385149 0.32315) (xy 1.19884 0.425781) (xy 1.002812 0.5149)
			(xy 0.978968 0.524533) (xy 0.939419 0.540073) (xy 0.905947 0.552791) (xy 0.881447 0.561621) (xy 0.868815 0.565494)
			(xy 0.867751 0.565512) (xy 0.86396 0.556862) (xy 0.854782 0.533938) (xy 0.840788 0.498242) (xy 0.82255 0.451273)
			(xy 0.800639 0.394532) (xy 0.775626 0.329519) (xy 0.748084 0.257733) (xy 0.718582 0.180676) (xy 0.687694 0.099846)
			(xy 0.65599 0.016745) (xy 0.624041 -0.067127) (xy 0.59242 -0.150271) (xy 0.561697 -0.231187) (xy 0.532444 -0.308373)
			(xy 0.505232 -0.38033) (xy 0.480633 -0.445558) (xy 0.459218 -0.502556) (xy 0.441558 -0.549825) (xy 0.428225 -0.585864)
			(xy 0.419791 -0.609173) (xy 0.416826 -0.618252) (xy 0.416833 -0.618307) (xy 0.423509 -0.621872) (xy 0.438139 -0.618067)
			(xy 0.461578 -0.606368) (xy 0.494681 -0.58625) (xy 0.538303 -0.557189) (xy 0.593298 -0.51866) (xy 0.660522 -0.470139)
			(xy 0.671554 -0.462083) (xy 0.723182 -0.42448) (xy 0.770788 -0.390084) (xy 0.812548 -0.36019) (xy 0.84664 -0.336094)
			(xy 0.87124 -0.319091) (xy 0.884526 -0.310476) (xy 0.885951 -0.309751) (xy 0.906104 -0.309963) (xy 0.924996 -0.322096)
			(xy 0.935792 -0.341028) (xy 0.936606 -0.35277) (xy 0.937291 -0.379871) (xy 0.937841 -0.42076) (xy 0.938248 -0.473864)
			(xy 0.938505 -0.537609) (xy 0.938605 -0.610424) (xy 0.938543 -0.690735) (xy 0.93831 -0.77697) (xy 0.938009 -0.846667)
			(xy 0.937479 -0.949699) (xy 0.936971 -1.037179) (xy 0.936428 -1.110487) (xy 0.935797 -1.171003) (xy 0.935022 -1.220109)
			(xy 0.934049 -1.259185) (xy 0.932823 -1.289611) (xy 0.931289 -1.312769) (xy 0.929392 -1.330038) (xy 0.927078 -1.3428)
			(xy 0.924291 -1.352435) (xy 0.920978 -1.360323) (xy 0.91734 -1.367367) (xy 0.905405 -1.387603) (xy 0.89192 -1.405023)
			(xy 0.874211 -1.421884) (xy 0.8496 -1.440444) (xy 0.815412 -1.46296) (xy 0.772547 -1.489508) (xy 0.728708 -1.517566)
			(xy 0.699647 -1.539281) (xy 0.68467 -1.555199) (xy 0.682311 -1.560769) (xy 0.680293 -1.57588) (xy 0.677238 -1.604006)
			(xy 0.673543 -1.64129) (xy 0.669604 -1.683875) (xy 0.669138 -1.6891) (xy 0.646974 -1.852215) (xy 0.610148 -2.009508)
			(xy 0.559113 -2.159837) (xy 0.494321 -2.302063) (xy 0.416225 -2.435046) (xy 0.325276 -2.557644) (xy 0.324337 -2.558772)
			(xy 0.266645 -2.622219) (xy 0.20466 -2.679976) (xy 0.141656 -2.729376) (xy 0.080905 -2.76775) (xy 0.048284 -2.783778)
			(xy 0.00477 -2.794697) (xy -0.042334 -2.791103) (xy -0.093586 -2.772743) (xy -0.149545 -2.73936)
			(xy -0.21077 -2.690699) (xy -0.262785 -2.64173) (xy -0.358981 -2.533822) (xy -0.443105 -2.414312)
			(xy -0.514961 -2.283667) (xy -0.574352 -2.142356) (xy -0.621081 -1.990846) (xy -0.654952 -1.829607)
			(xy -0.675769 -1.659106) (xy -0.675885 -1.657669) (xy -0.680052 -1.617306) (xy -0.685249 -1.583791)
			(xy -0.690802 -1.560941) (xy -0.694222 -1.553688) (xy -0.70579 -1.543882) (xy -0.72832 -1.527893)
			(xy -0.75822 -1.508192) (xy -0.782306 -1.49309) (xy -0.8299 -1.463426) (xy -0.865234 -1.440065) (xy -0.890787 -1.420973)
			(xy -0.909036 -1.404116) (xy -0.922461 -1.38746) (xy -0.933529 -1.368993) (xy -0.937575 -1.361184)
			(xy -0.941008 -1.353182) (xy -0.943887 -1.34359) (xy -0.94627 -1.331011) (xy -0.948216 -1.314047)
			(xy -0.949783 -1.291301) (xy -0.95103 -1.261375) (xy -0.952016 -1.222871) (xy -0.952798 -1.174392)
			(xy -0.953436 -1.11454) (xy -0.953989 -1.041918) (xy -0.954513 -0.955128) (xy -0.955056 -0.855134)
			(xy -0.955443 -0.765863) (xy -0.955637 -0.681046) (xy -0.955646 -0.602309) (xy -0.955478 -0.531275)
			(xy -0.95514 -0.469572) (xy -0.954642 -0.418824) (xy -0.953991 -0.380656) (xy -0.953194 -0.356693)
			(xy -0.952575 -0.349353) (xy -0.941914 -0.323249) (xy -0.923595 -0.310173) (xy -0.900461 -0.311868)
			(xy -0.895351 -0.314215) (xy -0.883716 -0.321675) (xy -0.860356 -0.33775) (xy -0.827217 -0.361063)
			(xy -0.786244 -0.390233) (xy -0.739382 -0.423884) (xy -0.688575 -0.460636) (xy -0.681567 -0.465726)
			(xy -0.612403 -0.515499) (xy -0.555703 -0.555182) (xy -0.510692 -0.585242) (xy -0.476596 -0.606147)
			(xy -0.452641 -0.618366) (xy -0.43805 -0.622365) (xy -0.432049 -0.618611) (xy -0.4318 -0.616475)
			(xy -0.434754 -0.606744) (xy -0.44323 -0.582893) (xy -0.456653 -0.546416) (xy -0.474448 -0.498806)
			(xy -0.496039 -0.441557) (xy -0.520849 -0.376162) (xy -0.548304 -0.304115) (xy -0.577827 -0.226909)
			(xy -0.608843 -0.146037) (xy -0.640777 -0.062993) (xy -0.673051 0.020731) (xy -0.705091 0.103639)
			(xy -0.736321 0.18424) (xy -0.766166 0.26104) (xy -0.794049 0.332545) (xy -0.819394 0.397262) (xy -0.841627 0.453698)
			(xy -0.860171 0.500359) (xy -0.87445 0.535751) (xy -0.883889 0.558383) (xy -0.887913 0.566759) (xy -0.887963 0.566777)
			(xy -0.89724 0.563541) (xy -0.919306 0.55495) (xy -0.951311 0.542139) (xy -0.990402 0.526244) (xy -1.011767 0.517472)
			(xy -1.164491 0.449148) (xy -1.315369 0.371165) (xy -1.460754 0.285685) (xy -1.596999 0.194871) (xy -1.720456 0.100886)
			(xy -1.735667 0.088304) (xy -1.894877 -0.055605) (xy -2.04109 -0.210175) (xy -2.173995 -0.374851)
			(xy -2.293282 -0.549075) (xy -2.398638 -0.732291) (xy -2.489753 -0.923944) (xy -2.566315 -1.123478)
			(xy -2.628014 -1.330335) (xy -2.674537 -1.543961) (xy -2.685392 -1.608667) (xy -2.691013 -1.646337)
			(xy -2.695436 -1.68112) (xy -2.6988 -1.715809) (xy -2.701244 -1.753194) (xy -2.702907 -1.796069)
			(xy -2.70393 -1.847224) (xy -2.704451 -1.909452) (xy -2.704609 -1.985546) (xy -2.70461 -1.9939) (xy -2.704218 -2.086612)
			(xy -2.702808 -2.165822) (xy -2.700043 -2.234947) (xy -2.695582 -2.297404) (xy -2.689086 -2.356612)
			(xy -2.680216 -2.415987) (xy -2.668633 -2.478948) (xy -2.653996 -2.54891) (xy -2.645823 -2.585819)
			(xy -2.590793 -2.792981) (xy -2.520205 -2.993676) (xy -2.43437 -3.187338) (xy -2.333602 -3.373398)
			(xy -2.218213 -3.551291) (xy -2.088517 -3.720449) (xy -1.944827 -3.880305) (xy -1.913836 -3.91171)
			(xy -1.757916 -4.055402) (xy -1.591897 -4.185687) (xy -1.416421 -4.302251) (xy -1.232127 -4.404782)
			(xy -1.039654 -4.492965) (xy -0.839641 -4.566487) (xy -0.632729 -4.625036) (xy -0.419557 -4.668297)
			(xy -0.347134 -4.679278) (xy -0.289726 -4.685421) (xy -0.219296 -4.690046) (xy -0.139549 -4.693153)
			(xy -0.054192 -4.69474) (xy 0.033069 -4.694807) (xy 0.118528 -4.693352)
		)
		(stroke
			(width 0.01)
			(type solid)
		)
		(fill solid)
		(layer "F.Cu")
		(uuid "0236a9c3-8467-481d-bef4-e0df20371bf1")
	)
)
