(footprint "NP-BX1"
	(version 20240108)
	(generator "pcbnew")
	(generator_version "8.0")
	(layer "F.Cu")
	(descr "NP_BX1 Battery, https://electronics.sony.com/imaging/imaging-accessories/all-accessories/p/npbx1-m8")
	(tags "Battery")
	(property "Reference" "REF**"
		(at 0 0 0)
		(layer "F.SilkS")
		(uuid "bde2c1ee-5a4f-4742-bad9-624814166297")
		(effects
			(font
				(size 1 1)
				(thickness 0.15)
			)
		)
	)
	(property "Value" "NP-BX1"
		(at 0 0 0)
		(layer "F.Fab")
		(uuid "6a07d92c-bbb5-451d-91ce-bc8dbbb5b516")
		(effects
			(font
				(size 0.8 0.8)
				(thickness 0.12)
			)
		)
	)
	(property "Footprint" ""
		(at 0 0 0)
		(layer "F.Fab")
		(hide yes)
		(uuid "de84dbaf-e1dc-4896-a338-63f6496f06c0")
		(effects
			(font
				(size 1.27 1.27)
				(thickness 0.15)
			)
		)
	)
	(property "Datasheet" ""
		(at 0 0 0)
		(layer "F.Fab")
		(hide yes)
		(uuid "2dc3c94b-7ac8-41ef-a611-d1c2eb925cca")
		(effects
			(font
				(size 1.27 1.27)
				(thickness 0.15)
			)
		)
	)
	(property "Description" ""
		(at 0 0 0)
		(layer "F.Fab")
		(hide yes)
		(uuid "fb61f5f5-7fa3-4367-bf22-bf934c3dd402")
		(effects
			(font
				(size 1.27 1.27)
				(thickness 0.15)
			)
		)
	)
	(attr board_only exclude_from_pos_files exclude_from_bom)
	(fp_line
		(start -21.46 15)
		(end -21.46 -15)
		(stroke
			(width 0.12)
			(type solid)
		)
		(layer "F.SilkS")
		(uuid "29e95b2e-f178-45e5-b508-78d095d93a9a")
	)
	(fp_line
		(start -21.4 -15.06)
		(end 21.4 -15.06)
		(stroke
			(width 0.12)
			(type solid)
		)
		(layer "F.SilkS")
		(uuid "b45a1cee-0dfc-4139-8751-0a27508145f0")
	)
	(fp_line
		(start -21.4 14.94)
		(end 21.4 14.94)
		(stroke
			(width 0.12)
			(type solid)
		)
		(layer "F.SilkS")
		(uuid "ef19538c-a6a5-4d19-9fd0-d97e108b8179")
	)
	(fp_line
		(start -21.34 -15)
		(end -21.34 15)
		(stroke
			(width 0.12)
			(type solid)
		)
		(layer "F.SilkS")
		(uuid "fd6c5745-51a1-4af9-9464-7a884de678fe")
	)
	(fp_line
		(start 21.34 15)
		(end 21.34 -15)
		(stroke
			(width 0.12)
			(type solid)
		)
		(layer "F.SilkS")
		(uuid "dcc24aad-0e88-4d01-a731-8fd4b02b578a")
	)
	(fp_line
		(start 21.4 -14.94)
		(end -21.4 -14.94)
		(stroke
			(width 0.12)
			(type solid)
		)
		(layer "F.SilkS")
		(uuid "657a8bd3-05f0-4379-9e84-eb58102e181d")
	)
	(fp_line
		(start 21.4 15.06)
		(end -21.4 15.06)
		(stroke
			(width 0.12)
			(type solid)
		)
		(layer "F.SilkS")
		(uuid "e5f05238-06d8-415f-b346-c23f49706974")
	)
	(fp_line
		(start 21.46 -15)
		(end 21.46 15)
		(stroke
			(width 0.12)
			(type solid)
		)
		(layer "F.SilkS")
		(uuid "c0066194-3a24-4096-a7bd-d0448e1c4c55")
	)
	(fp_arc
		(start -21.46 -15)
		(mid -21.4 -15.06)
		(end -21.34 -15)
		(stroke
			(width 0.12)
			(type solid)
		)
		(layer "F.SilkS")
		(uuid "a1c003a9-0518-4abc-8abf-370fbdc3cff6")
	)
	(fp_arc
		(start -21.4 -14.94)
		(mid -21.46 -15)
		(end -21.4 -15.06)
		(stroke
			(width 0.12)
			(type solid)
		)
		(layer "F.SilkS")
		(uuid "36706ff7-ebfc-4ec4-8ddf-835a6ea1a9fd")
	)
	(fp_arc
		(start -21.4 15.06)
		(mid -21.46 15)
		(end -21.4 14.94)
		(stroke
			(width 0.12)
			(type solid)
		)
		(layer "F.SilkS")
		(uuid "9043ae7e-530a-46f8-bfbf-9255ff8b3b3c")
	)
	(fp_arc
		(start -21.34 15)
		(mid -21.4 15.06)
		(end -21.46 15)
		(stroke
			(width 0.12)
			(type solid)
		)
		(layer "F.SilkS")
		(uuid "0d29c001-c584-40d7-81f5-1b55d71abcb2")
	)
	(fp_arc
		(start 21.34 -15)
		(mid 21.4 -15.06)
		(end 21.46 -15)
		(stroke
			(width 0.12)
			(type solid)
		)
		(layer "F.SilkS")
		(uuid "da0acb5c-bf02-4dd0-ab52-5111254db6f1")
	)
	(fp_arc
		(start 21.4 -15.06)
		(mid 21.46 -15)
		(end 21.4 -14.94)
		(stroke
			(width 0.12)
			(type solid)
		)
		(layer "F.SilkS")
		(uuid "178e6807-c81b-4072-b10c-e676226c21b8")
	)
	(fp_arc
		(start 21.4 14.94)
		(mid 21.46 15)
		(end 21.4 15.06)
		(stroke
			(width 0.12)
			(type solid)
		)
		(layer "F.SilkS")
		(uuid "9699995e-a626-4e71-8a15-eeac09a4fc39")
	)
	(fp_arc
		(start 21.46 15)
		(mid 21.4 15.06)
		(end 21.34 15)
		(stroke
			(width 0.12)
			(type solid)
		)
		(layer "F.SilkS")
		(uuid "d02a2d28-4c6f-431b-8851-30fea8799516")
	)
	(fp_line
		(start -21.5 -15.08)
		(end -21.5 15.08)
		(stroke
			(width 0.05)
			(type solid)
		)
		(layer "F.CrtYd")
		(uuid "f800ea67-e56e-4438-a537-f9a4ce570e8d")
	)
	(fp_line
		(start -21.5 15.08)
		(end 21.5 15.08)
		(stroke
			(width 0.05)
			(type solid)
		)
		(layer "F.CrtYd")
		(uuid "f1cb863e-5d66-4d74-b643-09db2c1675ed")
	)
	(fp_line
		(start 21.5 -15.08)
		(end -21.5 -15.08)
		(stroke
			(width 0.05)
			(type solid)
		)
		(layer "F.CrtYd")
		(uuid "149d9f48-927d-4b55-8ca2-5ec7dac3c782")
	)
	(fp_line
		(start 21.5 15.08)
		(end 21.5 -15.08)
		(stroke
			(width 0.05)
			(type solid)
		)
		(layer "F.CrtYd")
		(uuid "9b843d0c-7e08-48bf-a90e-60081c7297db")
	)
	(fp_line
		(start -21.4 14.95)
		(end -21.4 -14.95)
		(stroke
			(width 0.1)
			(type solid)
		)
		(layer "F.Fab")
		(uuid "983939f8-be35-42a3-afd8-1ba2fb240118")
	)
	(fp_line
		(start -21.358015 -14.409209)
		(end -21.358015 -11.25799)
		(stroke
			(width 0.1)
			(type solid)
		)
		(layer "F.Fab")
		(uuid "d3f1ca98-c76f-45f7-be97-5c4686a63337")
	)
	(fp_line
		(start -21.358015 -11.15799)
		(end -21.358015 -11.25799)
		(stroke
			(width 0.1)
			(type solid)
		)
		(layer "F.Fab")
		(uuid "54f42a79-0a28-45d8-8709-81bf46f89a6d")
	)
	(fp_line
		(start -21.358015 -11.15799)
		(end -19.658015 -11.15799)
		(stroke
			(width 0.1)
			(type solid)
		)
		(layer "F.Fab")
		(uuid "7ed8089e-971c-4df1-82db-76906d7e543d")
	)
	(fp_line
		(start -21.358015 11.24201)
		(end -21.358015 11.14201)
		(stroke
			(width 0.1)
			(type solid)
		)
		(layer "F.Fab")
		(uuid "44f8dfdc-938f-4daa-b35c-90c784a3f4ed")
	)
	(fp_line
		(start -21.358015 11.24201)
		(end -21.358015 14.393229)
		(stroke
			(width 0.1)
			(type solid)
		)
		(layer "F.Fab")
		(uuid "d9126d64-89a6-429b-a23b-769c1a136cbc")
	)
	(fp_line
		(start -21.358015 14.393229)
		(end -19.658015 14.393229)
		(stroke
			(width 0.1)
			(type solid)
		)
		(layer "F.Fab")
		(uuid "3865b3a1-04cd-4975-8569-5579a2a613ab")
	)
	(fp_line
		(start -21.35 -15)
		(end 21.35 -15)
		(stroke
			(width 0.1)
			(type solid)
		)
		(layer "F.Fab")
		(uuid "36bc8f72-ac96-46f2-ac98-e5303ad058d9")
	)
	(fp_line
		(start -21.35 14.9)
		(end 21.35 14.9)
		(stroke
			(width 0.1)
			(type solid)
		)
		(layer "F.Fab")
		(uuid "1a8042fc-353a-41c0-962b-e32ab052ff7d")
	)
	(fp_line
		(start -21.3 -14.95)
		(end -21.3 14.95)
		(stroke
			(width 0.1)
			(type solid)
		)
		(layer "F.Fab")
		(uuid "a6b2882d-a1bb-46ba-87d4-80555ac57d5f")
	)
	(fp_line
		(start -20.158 -11.15799)
		(end -20.158 -6.85799)
		(stroke
			(width 0.1)
			(type solid)
		)
		(layer "F.Fab")
		(uuid "455469cc-92db-4d47-8167-287b6948907b")
	)
	(fp_line
		(start -20.158 -6.85799)
		(end -17.108 -6.85799)
		(stroke
			(width 0.1)
			(type solid)
		)
		(layer "F.Fab")
		(uuid "79d637e7-8721-4b50-8569-3fc8426f1d6f")
	)
	(fp_line
		(start -20.158 -5.20799)
		(end -20.158 -2.55799)
		(stroke
			(width 0.1)
			(type solid)
		)
		(layer "F.Fab")
		(uuid "523cd90c-368c-4da1-b4c9-b422297ee452")
	)
	(fp_line
		(start -20.158 -2.55799)
		(end -17.108 -2.55799)
		(stroke
			(width 0.1)
			(type solid)
		)
		(layer "F.Fab")
		(uuid "eb4a68de-33b8-492a-b004-208f4ff112c2")
	)
	(fp_line
		(start -20.158 -1.05799)
		(end -20.158 2.84201)
		(stroke
			(width 0.1)
			(type solid)
		)
		(layer "F.Fab")
		(uuid "9d6b004e-ccf6-48ab-838e-5b9e850b0f7d")
	)
	(fp_line
		(start -20.158 2.84201)
		(end -17.108 2.84201)
		(stroke
			(width 0.1)
			(type solid)
		)
		(layer "F.Fab")
		(uuid "0b3ea490-3345-417f-bc76-139d798c7aaa")
	)
	(fp_line
		(start -20.158 4.19201)
		(end -20.158 6.84201)
		(stroke
			(width 0.1)
			(type solid)
		)
		(layer "F.Fab")
		(uuid "5ac83672-0a9f-4020-8ee0-b2e55d5680e4")
	)
	(fp_line
		(start -20.158 6.84201)
		(end -17.108 6.84201)
		(stroke
			(width 0.1)
			(type solid)
		)
		(layer "F.Fab")
		(uuid "edc13996-d886-452f-9ca0-d890feaaa10d")
	)
	(fp_line
		(start -19.658015 -14.409209)
		(end -21.358015 -14.409209)
		(stroke
			(width 0.1)
			(type solid)
		)
		(layer "F.Fab")
		(uuid "21870057-fbba-4ba8-adb8-647b087d8c43")
	)
	(fp_line
		(start -19.658015 -11.075231)
		(end -19.658015 -14.50349)
		(stroke
			(width 0.1)
			(type solid)
		)
		(layer "F.Fab")
		(uuid "16a81b62-b309-4037-adec-b6438dba99b7")
	)
	(fp_line
		(start -19.658015 11.14201)
		(end -21.358015 11.14201)
		(stroke
			(width 0.1)
			(type solid)
		)
		(layer "F.Fab")
		(uuid "21bfecf1-b801-4ff7-bf34-99a8eb93c5bb")
	)
	(fp_line
		(start -19.658015 14.48751)
		(end -19.658015 11.059251)
		(stroke
			(width 0.1)
			(type solid)
		)
		(layer "F.Fab")
		(uuid "3193f709-b66c-407a-aca1-e78bf7c60302")
	)
	(fp_line
		(start -17.108 -11.15799)
		(end -20.158 -11.15799)
		(stroke
			(width 0.1)
			(type solid)
		)
		(layer "F.Fab")
		(uuid "c03ef822-b0ac-4bcc-8027-628bb1d2fd05")
	)
	(fp_line
		(start -17.108 -6.85799)
		(end -17.108 -11.15799)
		(stroke
			(width 0.1)
			(type solid)
		)
		(layer "F.Fab")
		(uuid "f4161ed6-e138-407b-b171-8515def49639")
	)
	(fp_line
		(start -17.108 -5.20799)
		(end -20.158 -5.20799)
		(stroke
			(width 0.1)
			(type solid)
		)
		(layer "F.Fab")
		(uuid "a6470a91-03c0-4a77-9c1f-f78f8fdb97ed")
	)
	(fp_line
		(start -17.108 -2.55799)
		(end -17.108 -5.20799)
		(stroke
			(width 0.1)
			(type solid)
		)
		(layer "F.Fab")
		(uuid "7b48fb96-95de-496e-9f1b-13114eb0aff1")
	)
	(fp_line
		(start -17.108 -1.05799)
		(end -20.158 -1.05799)
		(stroke
			(width 0.1)
			(type solid)
		)
		(layer "F.Fab")
		(uuid "39a80d9f-077a-40e0-a40f-b25b82c97f58")
	)
	(fp_line
		(start -17.108 2.84201)
		(end -17.108 -1.05799)
		(stroke
			(width 0.1)
			(type solid)
		)
		(layer "F.Fab")
		(uuid "b7c6de23-d4a7-43c9-b777-6a2c0e6e62c7")
	)
	(fp_line
		(start -17.108 4.19201)
		(end -20.158 4.19201)
		(stroke
			(width 0.1)
			(type solid)
		)
		(layer "F.Fab")
		(uuid "7cd76400-9256-4051-8a42-b4ca573de776")
	)
	(fp_line
		(start -17.108 6.84201)
		(end -17.108 4.19201)
		(stroke
			(width 0.1)
			(type solid)
		)
		(layer "F.Fab")
		(uuid "59799ad4-cf80-4ffd-bd52-0526ae370a1b")
	)
	(fp_line
		(start 21.3 14.95)
		(end 21.3 -14.95)
		(stroke
			(width 0.1)
			(type solid)
		)
		(layer "F.Fab")
		(uuid "5972359d-6ccb-4858-af04-974bd627bbd4")
	)
	(fp_line
		(start 21.35 -14.9)
		(end -21.35 -14.9)
		(stroke
			(width 0.1)
			(type solid)
		)
		(layer "F.Fab")
		(uuid "0cb52fad-a213-483b-aa84-b5ca364b0cdc")
	)
	(fp_line
		(start 21.35 15)
		(end -21.35 15)
		(stroke
			(width 0.1)
			(type solid)
		)
		(layer "F.Fab")
		(uuid "71ae7537-6629-44ec-837c-0de2fd3ec579")
	)
	(fp_line
		(start 21.4 -14.95)
		(end 21.4 14.95)
		(stroke
			(width 0.1)
			(type solid)
		)
		(layer "F.Fab")
		(uuid "dad8db22-7351-4aa2-9638-24c3c4aac58b")
	)
	(fp_arc
		(start -21.4 -14.95)
		(mid -21.35 -15)
		(end -21.3 -14.95)
		(stroke
			(width 0.1)
			(type solid)
		)
		(layer "F.Fab")
		(uuid "24922f9d-eeea-497e-90fb-8b5c22bc65c1")
	)
	(fp_arc
		(start -21.35 -14.9)
		(mid -21.4 -14.95)
		(end -21.35 -15)
		(stroke
			(width 0.1)
			(type solid)
		)
		(layer "F.Fab")
		(uuid "0188571a-a85f-47c3-8ed6-1bcaae7a94d4")
	)
	(fp_arc
		(start -21.35 15)
		(mid -21.4 14.95)
		(end -21.35 14.9)
		(stroke
			(width 0.1)
			(type solid)
		)
		(layer "F.Fab")
		(uuid "f5e217ef-d88a-43e6-8f46-e0df4bc10287")
	)
	(fp_arc
		(start -21.3 14.95)
		(mid -21.35 15)
		(end -21.4 14.95)
		(stroke
			(width 0.1)
			(type solid)
		)
		(layer "F.Fab")
		(uuid "636465d1-4cb1-40ad-9d85-ab67c8a4d533")
	)
	(fp_arc
		(start 21.3 -14.95)
		(mid 21.35 -15)
		(end 21.4 -14.95)
		(stroke
			(width 0.1)
			(type solid)
		)
		(layer "F.Fab")
		(uuid "0ae4f644-d807-4822-8166-5bfe606f5cc9")
	)
	(fp_arc
		(start 21.35 -15)
		(mid 21.4 -14.95)
		(end 21.35 -14.9)
		(stroke
			(width 0.1)
			(type solid)
		)
		(layer "F.Fab")
		(uuid "35903e78-0b1e-4ca5-b27c-82252059eaa2")
	)
	(fp_arc
		(start 21.35 14.9)
		(mid 21.4 14.95)
		(end 21.35 15)
		(stroke
			(width 0.1)
			(type solid)
		)
		(layer "F.Fab")
		(uuid "dd9abcbd-4329-4bbd-8e8c-2f272f76a124")
	)
	(fp_arc
		(start 21.4 14.95)
		(mid 21.35 15)
		(end 21.3 14.95)
		(stroke
			(width 0.1)
			(type solid)
		)
		(layer "F.Fab")
		(uuid "db375949-85a3-4549-8728-2ba8841f619d")
	)
	(fp_text user "${REFERENCE}"
		(at 0 0 0)
		(layer "F.Fab")
		(uuid "0e18207d-a697-4b3a-bf8d-5128da29df10")
		(effects
			(font
				(size 1 1)
				(thickness 0.15)
			)
		)
	)
	(fp_text user "C"
		(at -15 5.5 0)
		(unlocked yes)
		(layer "F.Fab")
		(uuid "722731f9-f4f9-41cc-b158-a432251599ec")
		(effects
			(font
				(size 3 3)
				(thickness 0.15)
			)
		)
	)
	(fp_text user "T"
		(at -15 -3.5 0)
		(unlocked yes)
		(layer "F.Fab")
		(uuid "8dcdba3b-e445-4842-a1d4-0c6530a1bcda")
		(effects
			(font
				(size 3 3)
				(thickness 0.15)
			)
		)
	)
	(fp_text user "+"
		(at -15 -9.25 0)
		(unlocked yes)
		(layer "F.Fab")
		(uuid "c1c1b824-1687-4f62-a8f8-1509a6ad2a0b")
		(effects
			(font
				(size 3 3)
				(thickness 0.15)
			)
		)
	)
	(fp_text user "-"
		(at -15 0.75 0)
		(unlocked yes)
		(layer "F.Fab")
		(uuid "d5387cad-95a1-4d69-835d-04953092b663")
		(effects
			(font
				(size 3 3)
				(thickness 0.15)
			)
		)
	)
	(model "${LSF_KICAD_LIB}/lsf-kicad-lib.3dshapes/NP-BX1.wrl"
		(offset
			(xyz 0 0 0)
		)
		(scale
			(xyz 1 1 1)
		)
		(rotate
			(xyz 0 0 0)
		)
	)
)
