(footprint "RF-SolderJumper-3_0402_Open_NumberLabels"
	(version 20240108)
	(generator "pcbnew")
	(generator_version "8.0")
	(layer "F.Cu")
	(descr "RF-SolderJumper SMD 0402 (1005 Metric), square (rectangular) end terminal, https://")
	(tags "RF-SolderJumper")
	(property "Reference" "REF**"
		(at 0 0 0)
		(layer "F.SilkS")
		(uuid "3f001d39-98c9-450a-a6f0-b7475527fbd7")
		(effects
			(font
				(size 1 1)
				(thickness 0.15)
			)
		)
	)
	(property "Value" "RF-SolderJumper-3_0402_Open_NumberLabels"
		(at 0 0 0)
		(layer "F.Fab")
		(uuid "7ef18d46-39df-486f-9543-b00228cf866a")
		(effects
			(font
				(size 1 1)
				(thickness 0.15)
			)
		)
	)
	(property "Footprint" ""
		(at 0 0 0)
		(layer "F.Fab")
		(hide yes)
		(uuid "e0e0d032-4cdb-4778-8958-00ca533b5c45")
		(effects
			(font
				(size 1.27 1.27)
				(thickness 0.15)
			)
		)
	)
	(property "Datasheet" ""
		(at 0 0 0)
		(layer "F.Fab")
		(hide yes)
		(uuid "0d502ec4-d36c-4453-92d9-3858f8020acc")
		(effects
			(font
				(size 1.27 1.27)
				(thickness 0.15)
			)
		)
	)
	(property "Description" ""
		(at 0 0 0)
		(layer "F.Fab")
		(hide yes)
		(uuid "e0bda186-4f5b-4024-b0d5-7afc260915bb")
		(effects
			(font
				(size 1.27 1.27)
				(thickness 0.15)
			)
		)
	)
	(attr smd)
	(fp_line
		(start -0.84 0.117836)
		(end -0.84 -0.097836)
		(stroke
			(width 0.12)
			(type solid)
		)
		(layer "F.SilkS")
		(uuid "911daf5e-c9d9-4ed3-8e0c-4b5a4c3f4f0b")
	)
	(fp_line
		(start -0.12 0.117836)
		(end -0.12 -0.097836)
		(stroke
			(width 0.12)
			(type solid)
		)
		(layer "F.SilkS")
		(uuid "0219b056-b3d4-4943-a90c-7790fbcca36f")
	)
	(fp_line
		(start -0.107836 0.12)
		(end 0.107836 0.12)
		(stroke
			(width 0.12)
			(type solid)
		)
		(layer "F.SilkS")
		(uuid "5cd5b77f-bdc3-47d5-b253-f5c1244d375e")
	)
	(fp_line
		(start -0.107836 0.84)
		(end 0.107836 0.84)
		(stroke
			(width 0.12)
			(type solid)
		)
		(layer "F.SilkS")
		(uuid "45c77330-acfb-4107-a599-c9df3e175000")
	)
	(fp_line
		(start -0.91 -0.91)
		(end -0.05 -0.91)
		(stroke
			(width 0.05)
			(type solid)
		)
		(layer "F.CrtYd")
		(uuid "675a549b-0353-4053-91ac-a0dafc3734e0")
	)
	(fp_line
		(start -0.91 0.91)
		(end -0.91 -0.91)
		(stroke
			(width 0.05)
			(type solid)
		)
		(layer "F.CrtYd")
		(uuid "0f646a94-faea-4a50-8b80-909d26d6d7a0")
	)
	(fp_line
		(start -0.05 0.05)
		(end -0.05 -0.91)
		(stroke
			(width 0.05)
			(type solid)
		)
		(layer "F.CrtYd")
		(uuid "537d475f-63c6-4e6b-b9f7-340532899271")
	)
	(fp_line
		(start -0.05 0.05)
		(end 0.91 0.05)
		(stroke
			(width 0.05)
			(type solid)
		)
		(layer "F.CrtYd")
		(uuid "6aa26098-9339-4279-9a36-893fdd4c6950")
	)
	(fp_line
		(start 0.91 0.05)
		(end 0.91 0.91)
		(stroke
			(width 0.05)
			(type solid)
		)
		(layer "F.CrtYd")
		(uuid "40007d5f-c471-4d2b-87f0-dfa1629069fb")
	)
	(fp_line
		(start 0.91 0.91)
		(end -0.91 0.91)
		(stroke
			(width 0.05)
			(type solid)
		)
		(layer "F.CrtYd")
		(uuid "6897dba4-f95f-426a-ae14-d4aed1cd887f")
	)
	(fp_line
		(start -0.75 -0.5)
		(end -0.25 -0.5)
		(stroke
			(width 0.1)
			(type solid)
		)
		(layer "F.Fab")
		(uuid "dee885aa-11dc-46eb-b895-ce85b74c985a")
	)
	(fp_line
		(start -0.75 0.5)
		(end -0.75 -0.5)
		(stroke
			(width 0.1)
			(type solid)
		)
		(layer "F.Fab")
		(uuid "f7779afc-dac8-4a11-a055-da319d7e80bf")
	)
	(fp_line
		(start -0.5 0.23)
		(end 0.5 0.23)
		(stroke
			(width 0.1)
			(type solid)
		)
		(layer "F.Fab")
		(uuid "3b194c04-55c2-4668-b84d-8f5aacd704a2")
	)
	(fp_line
		(start -0.5 0.73)
		(end -0.5 0.23)
		(stroke
			(width 0.1)
			(type solid)
		)
		(layer "F.Fab")
		(uuid "fe53c845-ac3c-48e4-9f37-36da777bc994")
	)
	(fp_line
		(start -0.25 -0.5)
		(end -0.25 0.5)
		(stroke
			(width 0.1)
			(type solid)
		)
		(layer "F.Fab")
		(uuid "20b87fe3-26b6-434b-80b5-00ba43c67cb9")
	)
	(fp_line
		(start -0.25 0.5)
		(end -0.75 0.5)
		(stroke
			(width 0.1)
			(type solid)
		)
		(layer "F.Fab")
		(uuid "03633b65-295e-4680-9132-e36044ec5e91")
	)
	(fp_line
		(start 0.5 0.23)
		(end 0.5 0.73)
		(stroke
			(width 0.1)
			(type solid)
		)
		(layer "F.Fab")
		(uuid "3c7e7f28-d67d-4e18-8c13-2a82b2c60f01")
	)
	(fp_line
		(start 0.5 0.73)
		(end -0.5 0.73)
		(stroke
			(width 0.1)
			(type solid)
		)
		(layer "F.Fab")
		(uuid "8a7cad66-4840-4328-b7bf-cbbc635c7362")
	)
	(fp_text user "${REFERENCE}"
		(at 0 0 0)
		(layer "F.Fab")
		(uuid "5d9a85df-c718-4dd6-9c1c-7cf078103b70")
		(effects
			(font
				(size 0.5 0.5)
				(thickness 0.04)
			)
		)
	)
	(pad "1" smd roundrect
		(at -0.48 -0.48)
		(size 0.6 0.6)
		(layers "F.Cu" "F.Paste" "F.Mask")
		(roundrect_rratio 0.25)
		(uuid "82a06919-4cab-4759-a20a-2a9f47fe91be")
	)
	(pad "2" smd roundrect
		(at -0.48 0.48)
		(size 0.6 0.6)
		(layers "F.Cu" "F.Paste" "F.Mask")
		(roundrect_rratio 0.25)
		(uuid "f0d6bdbe-8dea-4984-9c52-f76168ceed26")
	)
	(pad "3" smd roundrect
		(at 0.48 0.48)
		(size 0.6 0.6)
		(layers "F.Cu" "F.Paste" "F.Mask")
		(roundrect_rratio 0.25)
		(uuid "07bccb1b-781c-4561-a379-63c349828818")
	)
	(model "${LSF_KICAD_LIB}/lsf-kicad-lib.3dshapes/RF-SolderJumper-3_0402_Open_NumberLabels.wrl"
		(offset
			(xyz 0 0 0)
		)
		(scale
			(xyz 1 1 1)
		)
		(rotate
			(xyz 0 0 0)
		)
	)
)
