(footprint "SAMTEC_LTMM-107-02-G-D-RA"
	(version 20240108)
	(generator "pcbnew")
	(generator_version "8.0")
	(layer "F.Cu")
	(descr " 2.00 mm Shrouded Terminal Strip, https://suddendocs.samtec.com/catalog_english/ltmm.pdf")
	(tags "Samtec Strip Connector Angled")
	(property "Reference" "REF**"
		(at 0 -9.28 0)
		(layer "F.SilkS")
		(uuid "82b71c97-6a7c-4827-b0f0-d5bcac1db80a")
		(effects
			(font
				(size 1 1)
				(thickness 0.15)
			)
		)
	)
	(property "Value" "SAMTEC_LTMM-107-02-G-D-RA"
		(at 0 0 0)
		(layer "F.Fab")
		(uuid "9b613805-0927-4776-ba5d-755981e40b54")
		(effects
			(font
				(size 1 1)
				(thickness 0.15)
			)
		)
	)
	(property "Footprint" ""
		(at 0 0 0)
		(unlocked yes)
		(layer "F.Fab")
		(hide yes)
		(uuid "a9d03c8b-63f8-47f3-9e32-c282be38a3ed")
		(effects
			(font
				(size 1.27 1.27)
			)
		)
	)
	(property "Datasheet" ""
		(at 0 0 0)
		(unlocked yes)
		(layer "F.Fab")
		(hide yes)
		(uuid "3b38a9aa-e983-40de-a567-0829bcd89829")
		(effects
			(font
				(size 1.27 1.27)
			)
		)
	)
	(property "Description" ""
		(at 0 0 0)
		(unlocked yes)
		(layer "F.Fab")
		(hide yes)
		(uuid "3d663f71-626c-4a19-897e-b397e62eddfb")
		(effects
			(font
				(size 1.27 1.27)
			)
		)
	)
	(attr through_hole)
	(fp_line
		(start -2.192 -3.53)
		(end -2.192 -8.36)
		(stroke
			(width 0.12)
			(type solid)
		)
		(layer "F.SilkS")
		(uuid "8b764ffd-68b4-4794-b9dc-8e291f7963c9")
	)
	(fp_line
		(start 14.191 -8.36)
		(end -2.192 -8.36)
		(stroke
			(width 0.12)
			(type solid)
		)
		(layer "F.SilkS")
		(uuid "ab3aa38b-ea60-42d8-9dfa-6330c80e91b0")
	)
	(fp_line
		(start 14.191 -8.36)
		(end 14.191 -3.53)
		(stroke
			(width 0.12)
			(type solid)
		)
		(layer "F.SilkS")
		(uuid "5c3bec6a-ce40-4a9d-b929-54ad0e104958")
	)
	(fp_line
		(start 14.191 -3.53)
		(end -2.192 -3.53)
		(stroke
			(width 0.12)
			(type solid)
		)
		(layer "F.SilkS")
		(uuid "d538b815-af80-4fb3-b7f9-3cef054e36cf")
	)
	(fp_poly
		(pts
			(xy -1.235 0.005) (xy -1.84 -0.38) (xy -1.84 0.39)
		)
		(stroke
			(width 0.12)
			(type solid)
		)
		(fill solid)
		(layer "F.SilkS")
		(uuid "39d54b6a-d0f6-454e-98f0-844a868e07ef")
	)
	(fp_line
		(start -2.44 -8.61)
		(end 14.44 -8.61)
		(stroke
			(width 0.05)
			(type solid)
		)
		(layer "F.CrtYd")
		(uuid "2d35f2ff-5fdb-42c1-94d9-371a3bbd8a67")
	)
	(fp_line
		(start -2.44 0.87)
		(end -2.44 -8.61)
		(stroke
			(width 0.05)
			(type solid)
		)
		(layer "F.CrtYd")
		(uuid "e545d2c2-c56f-4821-9246-ec1b9a9dbbad")
	)
	(fp_line
		(start 14.44 -8.61)
		(end 14.44 0.87)
		(stroke
			(width 0.05)
			(type solid)
		)
		(layer "F.CrtYd")
		(uuid "832b94e1-a2cc-45b1-a90d-164b96ff1d07")
	)
	(fp_line
		(start 14.44 0.87)
		(end -2.44 0.87)
		(stroke
			(width 0.05)
			(type solid)
		)
		(layer "F.CrtYd")
		(uuid "5764fe6d-702e-418d-b9f5-9a05d1b1ded8")
	)
	(fp_line
		(start -2.192 -8.36)
		(end 14.191 -8.36)
		(stroke
			(width 0.1)
			(type solid)
		)
		(layer "F.Fab")
		(uuid "d958be60-0927-43cb-965a-686b5b232f30")
	)
	(fp_line
		(start -2.192 -3.53)
		(end -2.192 -8.36)
		(stroke
			(width 0.1)
			(type solid)
		)
		(layer "F.Fab")
		(uuid "1d41c8d2-3fa6-4208-83cd-eccc7f46da05")
	)
	(fp_line
		(start 14.191 -8.36)
		(end 14.191 -3.53)
		(stroke
			(width 0.1)
			(type solid)
		)
		(layer "F.Fab")
		(uuid "af0525c9-f33f-48aa-a67c-0731b6f3d27a")
	)
	(fp_line
		(start 14.191 -3.53)
		(end -2.192 -3.53)
		(stroke
			(width 0.1)
			(type solid)
		)
		(layer "F.Fab")
		(uuid "39a2c167-539d-4732-b7de-015cf2487785")
	)
	(fp_text user "${REFERENCE}"
		(at 0.01 -4.88 0)
		(unlocked yes)
		(layer "F.Fab")
		(uuid "de9c1a20-2768-4262-b312-c267e4efe952")
		(effects
			(font
				(size 1 1)
				(thickness 0.15)
			)
			(justify left bottom)
		)
	)
	(pad "1" thru_hole rect
		(at 0 0)
		(size 1.24 1.24)
		(drill 0.89)
		(layers "*.Cu" "*.Mask")
		(remove_unused_layers no)
		(solder_mask_margin 0.102)
		(uuid "1ad719c6-d8d6-4ade-8f44-ef83c59da672")
	)
	(pad "2" thru_hole circle
		(at 0 -2)
		(size 1.24 1.24)
		(drill 0.89)
		(layers "*.Cu" "*.Mask")
		(remove_unused_layers no)
		(solder_mask_margin 0.102)
		(uuid "df523679-b5bb-4e4b-b075-5c46625fb4cb")
	)
	(pad "3" thru_hole circle
		(at 2 0)
		(size 1.24 1.24)
		(drill 0.89)
		(layers "*.Cu" "*.Mask")
		(remove_unused_layers no)
		(solder_mask_margin 0.102)
		(uuid "3cf16016-ee4a-4545-8967-a4f70e3ecf2b")
	)
	(pad "4" thru_hole circle
		(at 2 -2)
		(size 1.24 1.24)
		(drill 0.89)
		(layers "*.Cu" "*.Mask")
		(remove_unused_layers no)
		(solder_mask_margin 0.102)
		(uuid "5754e112-0ed7-4e33-8feb-866097df6a01")
	)
	(pad "5" thru_hole circle
		(at 4 0)
		(size 1.24 1.24)
		(drill 0.89)
		(layers "*.Cu" "*.Mask")
		(remove_unused_layers no)
		(solder_mask_margin 0.102)
		(uuid "109f312c-acd6-4c38-9e84-d7110a72148a")
	)
	(pad "6" thru_hole circle
		(at 4 -2)
		(size 1.24 1.24)
		(drill 0.89)
		(layers "*.Cu" "*.Mask")
		(remove_unused_layers no)
		(solder_mask_margin 0.102)
		(uuid "929061ae-4900-4838-b542-913643137458")
	)
	(pad "7" thru_hole circle
		(at 6 0)
		(size 1.24 1.24)
		(drill 0.89)
		(layers "*.Cu" "*.Mask")
		(remove_unused_layers no)
		(solder_mask_margin 0.102)
		(uuid "d57b2486-f02a-4faf-9abe-ae4985f3d87b")
	)
	(pad "8" thru_hole circle
		(at 6 -2)
		(size 1.24 1.24)
		(drill 0.89)
		(layers "*.Cu" "*.Mask")
		(remove_unused_layers no)
		(solder_mask_margin 0.102)
		(uuid "17b171ba-bd16-4e92-8f0d-92317a20d971")
	)
	(pad "9" thru_hole circle
		(at 8 0)
		(size 1.24 1.24)
		(drill 0.89)
		(layers "*.Cu" "*.Mask")
		(remove_unused_layers no)
		(solder_mask_margin 0.102)
		(uuid "1fe02ad0-f471-4b1e-96cb-28c6534a7c25")
	)
	(pad "10" thru_hole circle
		(at 8 -2)
		(size 1.24 1.24)
		(drill 0.89)
		(layers "*.Cu" "*.Mask")
		(remove_unused_layers no)
		(solder_mask_margin 0.102)
		(uuid "5a1aca8e-7e35-4b96-bc9b-524d0c1aba95")
	)
	(pad "11" thru_hole circle
		(at 10 0)
		(size 1.24 1.24)
		(drill 0.89)
		(layers "*.Cu" "*.Mask")
		(remove_unused_layers no)
		(solder_mask_margin 0.102)
		(uuid "f22ee960-37d7-481f-b3d2-5e6c7d3ca266")
	)
	(pad "12" thru_hole circle
		(at 10 -2)
		(size 1.24 1.24)
		(drill 0.89)
		(layers "*.Cu" "*.Mask")
		(remove_unused_layers no)
		(solder_mask_margin 0.102)
		(uuid "d04ea000-eec8-4431-b497-fcd340250f58")
	)
	(pad "13" thru_hole circle
		(at 12 0)
		(size 1.24 1.24)
		(drill 0.89)
		(layers "*.Cu" "*.Mask")
		(remove_unused_layers no)
		(solder_mask_margin 0.102)
		(uuid "8c573de4-3652-4b17-8975-da4bc19b3be4")
	)
	(pad "14" thru_hole circle
		(at 12 -2)
		(size 1.24 1.24)
		(drill 0.89)
		(layers "*.Cu" "*.Mask")
		(remove_unused_layers no)
		(solder_mask_margin 0.102)
		(uuid "56b824f7-e0ae-4a16-89c6-117fb5a81b91")
	)
	(model "${LSF_KICAD_LIB}/lsf-kicad-lib.3dshapes/SAMTEC_LTMM-107-02-G-D-RA.wrl"
		(offset
			(xyz 0 0 0)
		)
		(scale
			(xyz 1 1 1)
		)
		(rotate
			(xyz 0 0 0)
		)
	)
)