(footprint "Si5384"
	(version 20240108)
	(generator "pcbnew")
	(generator_version "8.0")
	(layer "F.Cu")
	(descr "Si5383 network sychronizer clocks, https://www.skyworksinc.com/-/media/Skyworks/SL/documents/public/data-sheets/si5383-84-datasheet.pdf")
	(tags "QFN")
	(property "Reference" "REF**"
		(at 0.14 -5.07 0)
		(unlocked yes)
		(layer "F.SilkS")
		(uuid "fd9b3adb-635d-408c-b5ad-70a214f9c285")
		(effects
			(font
				(size 1 1)
				(thickness 0.15)
			)
		)
	)
	(property "Value" "Si5384"
		(at 5.9 -5.23 0)
		(unlocked yes)
		(layer "F.Fab")
		(uuid "2cccdc5f-428b-4de9-99d8-716fa9513f61")
		(effects
			(font
				(size 1 1)
				(thickness 0.15)
			)
		)
	)
	(property "Footprint" ""
		(at 0 0 0)
		(unlocked yes)
		(layer "F.Fab")
		(hide yes)
		(uuid "9683bb79-4036-45b1-8c5d-26b5aafaa987")
		(effects
			(font
				(size 1.27 1.27)
				(thickness 0.15)
			)
		)
	)
	(property "Datasheet" ""
		(at 0 0 0)
		(unlocked yes)
		(layer "F.Fab")
		(hide yes)
		(uuid "cab765bf-f8f0-49c1-8575-41016e990184")
		(effects
			(font
				(size 1.27 1.27)
				(thickness 0.15)
			)
		)
	)
	(property "Description" ""
		(at 0 0 0)
		(unlocked yes)
		(layer "F.Fab")
		(hide yes)
		(uuid "3e471399-eb1f-4671-a7f4-c67469cd8330")
		(effects
			(font
				(size 1.27 1.27)
				(thickness 0.15)
			)
		)
	)
	(attr smd)
	(fp_line
		(start -4.2 -4.2)
		(end -3.92 -4.2)
		(stroke
			(width 0.12)
			(type default)
		)
		(layer "F.SilkS")
		(uuid "fc523fde-8c90-46b9-a366-388a0683623e")
	)
	(fp_line
		(start -4.2 -3.9)
		(end -4.2 -4.2)
		(stroke
			(width 0.12)
			(type default)
		)
		(layer "F.SilkS")
		(uuid "ec8b948b-88f5-4a42-a7fb-039c4dc61dcf")
	)
	(fp_rect
		(start -4.05 -4.05)
		(end 4.05 4.05)
		(stroke
			(width 0.12)
			(type default)
		)
		(fill none)
		(layer "F.SilkS")
		(uuid "b8b80e6f-9dca-4e86-8a91-b6f4b013f705")
	)
	(fp_rect
		(start -4.01 -4.01)
		(end 4.01 4.01)
		(stroke
			(width 0.05)
			(type default)
		)
		(fill none)
		(layer "F.CrtYd")
		(uuid "19147911-8d76-41c6-87ae-a574cc991058")
	)
	(fp_rect
		(start -4.05 -4.05)
		(end 4.05 4.05)
		(stroke
			(width 0.1)
			(type default)
		)
		(fill none)
		(layer "F.Fab")
		(uuid "90cbd7bd-f574-4290-a9a3-dafbdc4bfeff")
	)
	(fp_text user "${REFERENCE}"
		(at 0.71 5.28 0)
		(unlocked yes)
		(layer "F.Fab")
		(uuid "c699dfe2-0944-4ac4-ab2e-0179f44f7ba5")
		(effects
			(font
				(size 1 1)
				(thickness 0.15)
			)
		)
	)
	(pad "1" smd rect
		(at -3.75 -3.25 90)
		(size 0.3 0.45)
		(layers "F.Cu" "F.Paste" "F.Mask")
		(thermal_bridge_angle 45)
		(uuid "9fd186ba-6b7d-4908-a5aa-93705bf507c4")
	)
	(pad "2" smd rect
		(at -3.75 -2.75 90)
		(size 0.3 0.45)
		(layers "F.Cu" "F.Paste" "F.Mask")
		(thermal_bridge_angle 45)
		(uuid "1ea631c8-0929-45f4-aa37-ff0a97af70f1")
	)
	(pad "3" smd rect
		(at -3.75 -2.25 270)
		(size 0.3 0.45)
		(layers "F.Cu" "F.Paste" "F.Mask")
		(thermal_bridge_angle 45)
		(uuid "efc98d0f-b239-4815-a825-90b3c24aa00b")
	)
	(pad "4" smd rect
		(at -3.75 -1.75 90)
		(size 0.3 0.45)
		(layers "F.Cu" "F.Paste" "F.Mask")
		(thermal_bridge_angle 45)
		(uuid "cdc9c0b0-df06-4a5e-8390-13435d3781db")
	)
	(pad "5" smd rect
		(at -3.75 -1.25 90)
		(size 0.3 0.45)
		(layers "F.Cu" "F.Paste" "F.Mask")
		(thermal_bridge_angle 45)
		(uuid "68a8d3f8-001b-4bd7-8e0c-d6e16941dbe2")
	)
	(pad "6" smd rect
		(at -3.75 -0.75 90)
		(size 0.3 0.45)
		(layers "F.Cu" "F.Paste" "F.Mask")
		(thermal_bridge_angle 45)
		(uuid "ccf3233d-d2f2-461f-a2b8-3158d82728c0")
	)
	(pad "7" smd rect
		(at -3.75 -0.25 90)
		(size 0.3 0.45)
		(layers "F.Cu" "F.Paste" "F.Mask")
		(thermal_bridge_angle 45)
		(uuid "323403a0-27c7-49d3-97e4-9f5cb169ba18")
	)
	(pad "8" smd rect
		(at -3.75 0.25 90)
		(size 0.3 0.45)
		(layers "F.Cu" "F.Paste" "F.Mask")
		(thermal_bridge_angle 45)
		(uuid "5a92bc53-b650-45a8-86bf-6a31cf002a3e")
	)
	(pad "9" smd rect
		(at -3.75 0.75 90)
		(size 0.3 0.45)
		(layers "F.Cu" "F.Paste" "F.Mask")
		(thermal_bridge_angle 45)
		(uuid "cb182163-262a-4af9-9bf7-bcec8514426f")
	)
	(pad "10" smd rect
		(at -3.75 1.25 90)
		(size 0.3 0.45)
		(layers "F.Cu" "F.Paste" "F.Mask")
		(thermal_bridge_angle 45)
		(uuid "87195e8d-f38b-483c-bb02-eae00057524f")
	)
	(pad "11" smd rect
		(at -3.75 1.75 90)
		(size 0.3 0.45)
		(layers "F.Cu" "F.Paste" "F.Mask")
		(thermal_bridge_angle 45)
		(uuid "3bb12ba9-d58f-473f-b907-b97a511d05a2")
	)
	(pad "12" smd rect
		(at -3.75 2.25 90)
		(size 0.3 0.45)
		(layers "F.Cu" "F.Paste" "F.Mask")
		(thermal_bridge_angle 45)
		(uuid "dae32f4c-4dfe-4b1c-90e4-4288706a6a7b")
	)
	(pad "13" smd rect
		(at -3.75 2.75 90)
		(size 0.3 0.45)
		(layers "F.Cu" "F.Paste" "F.Mask")
		(thermal_bridge_angle 45)
		(uuid "763fada2-de96-4a9f-a51e-7091055d4a4a")
	)
	(pad "14" smd rect
		(at -3.75 3.25 270)
		(size 0.3 0.45)
		(layers "F.Cu" "F.Paste" "F.Mask")
		(thermal_bridge_angle 45)
		(uuid "1b8616e9-5f51-442d-93a3-9fc372cc3051")
	)
	(pad "15" smd rect
		(at -3.25 3.75 180)
		(size 0.3 0.45)
		(layers "F.Cu" "F.Paste" "F.Mask")
		(thermal_bridge_angle 45)
		(uuid "a9c49401-6532-4894-b68a-67c42a2d885d")
	)
	(pad "16" smd rect
		(at -2.75 3.75 180)
		(size 0.3 0.45)
		(layers "F.Cu" "F.Paste" "F.Mask")
		(thermal_bridge_angle 45)
		(uuid "2aa9d9c1-750e-455f-9ddf-12e1a35e5dec")
	)
	(pad "17" smd rect
		(at -2.25 3.75 180)
		(size 0.3 0.45)
		(layers "F.Cu" "F.Paste" "F.Mask")
		(thermal_bridge_angle 45)
		(uuid "7a091d1f-d943-49a7-be34-35c8a13b2fdb")
	)
	(pad "18" smd rect
		(at -1.75 3.75 180)
		(size 0.3 0.45)
		(layers "F.Cu" "F.Paste" "F.Mask")
		(thermal_bridge_angle 45)
		(uuid "49732987-fa63-4782-8a39-ce3249557c1c")
	)
	(pad "19" smd rect
		(at -1.25 3.75 180)
		(size 0.3 0.45)
		(layers "F.Cu" "F.Paste" "F.Mask")
		(thermal_bridge_angle 45)
		(uuid "f1b332aa-9c6f-4736-872e-efcce486005e")
	)
	(pad "20" smd rect
		(at -0.75 3.75 180)
		(size 0.3 0.45)
		(layers "F.Cu" "F.Paste" "F.Mask")
		(thermal_bridge_angle 45)
		(uuid "980d51c7-58eb-495a-b15b-5fb992cb32ae")
	)
	(pad "21" smd rect
		(at -0.25 3.75 180)
		(size 0.3 0.45)
		(layers "F.Cu" "F.Paste" "F.Mask")
		(thermal_bridge_angle 45)
		(uuid "587b8857-8c2a-4431-84f4-2940edab9ba6")
	)
	(pad "22" smd rect
		(at 0.25 3.75 180)
		(size 0.3 0.45)
		(layers "F.Cu" "F.Paste" "F.Mask")
		(thermal_bridge_angle 45)
		(uuid "76c9d789-1636-4a85-bd35-66f58ae2285b")
	)
	(pad "23" smd rect
		(at 0.75 3.75 180)
		(size 0.3 0.45)
		(layers "F.Cu" "F.Paste" "F.Mask")
		(thermal_bridge_angle 45)
		(uuid "7d2546d0-aa63-4c0b-bf4a-8acb58d79792")
	)
	(pad "24" smd rect
		(at 1.25 3.75 180)
		(size 0.3 0.45)
		(layers "F.Cu" "F.Paste" "F.Mask")
		(thermal_bridge_angle 45)
		(uuid "3b415b0d-30f8-488b-b8e8-6195ae0dbc32")
	)
	(pad "25" smd rect
		(at 1.75 3.75 180)
		(size 0.3 0.45)
		(layers "F.Cu" "F.Paste" "F.Mask")
		(thermal_bridge_angle 45)
		(uuid "05003614-46b6-4075-9d4b-1bd18a9a5394")
	)
	(pad "26" smd rect
		(at 2.25 3.75 180)
		(size 0.3 0.45)
		(layers "F.Cu" "F.Paste" "F.Mask")
		(thermal_bridge_angle 45)
		(uuid "0eb73d6c-5909-4bd9-a5e7-6699d954ce1a")
	)
	(pad "27" smd rect
		(at 2.75 3.75 180)
		(size 0.3 0.45)
		(layers "F.Cu" "F.Paste" "F.Mask")
		(thermal_bridge_angle 45)
		(uuid "5249cd8a-69dd-465a-a13e-d6fecab8ff23")
	)
	(pad "28" smd rect
		(at 3.25 3.75)
		(size 0.3 0.45)
		(layers "F.Cu" "F.Paste" "F.Mask")
		(thermal_bridge_angle 45)
		(uuid "5cfb3687-2ad6-4fa1-8222-2cd4c3fa135a")
	)
	(pad "29" smd rect
		(at 3.75 3.25 270)
		(size 0.3 0.45)
		(layers "F.Cu" "F.Paste" "F.Mask")
		(thermal_bridge_angle 45)
		(uuid "f10f3b6d-827c-465f-8ef0-67a4c64ccc56")
	)
	(pad "30" smd rect
		(at 3.75 2.75 270)
		(size 0.3 0.45)
		(layers "F.Cu" "F.Paste" "F.Mask")
		(thermal_bridge_angle 45)
		(uuid "20b137f3-9f3c-4cd9-91ac-f8fdafe5b268")
	)
	(pad "31" smd rect
		(at 3.75 2.25 270)
		(size 0.3 0.45)
		(layers "F.Cu" "F.Paste" "F.Mask")
		(thermal_bridge_angle 45)
		(uuid "5e7167f6-4c38-41d4-b4bb-2f636ba512be")
	)
	(pad "32" smd rect
		(at 3.75 1.75 270)
		(size 0.3 0.45)
		(layers "F.Cu" "F.Paste" "F.Mask")
		(thermal_bridge_angle 45)
		(uuid "cf0a07a5-fff4-43da-b24d-122c8aeded3a")
	)
	(pad "33" smd rect
		(at 3.75 1.25 270)
		(size 0.3 0.45)
		(layers "F.Cu" "F.Paste" "F.Mask")
		(thermal_bridge_angle 45)
		(uuid "2cb48328-eaf4-4260-a3f8-b14863f2b167")
	)
	(pad "34" smd rect
		(at 3.75 0.75 270)
		(size 0.3 0.45)
		(layers "F.Cu" "F.Paste" "F.Mask")
		(thermal_bridge_angle 45)
		(uuid "44395ae7-b81d-4db8-bc16-7bb303684787")
	)
	(pad "35" smd rect
		(at 3.75 0.25 270)
		(size 0.3 0.45)
		(layers "F.Cu" "F.Paste" "F.Mask")
		(thermal_bridge_angle 45)
		(uuid "fcf13af0-bddc-42c1-9a81-3ea0c9be7ffc")
	)
	(pad "36" smd rect
		(at 3.75 -0.25 270)
		(size 0.3 0.45)
		(layers "F.Cu" "F.Paste" "F.Mask")
		(thermal_bridge_angle 45)
		(uuid "b706f252-3120-4abe-843a-97ffa4adb8b9")
	)
	(pad "37" smd rect
		(at 3.75 -0.75 270)
		(size 0.3 0.45)
		(layers "F.Cu" "F.Paste" "F.Mask")
		(thermal_bridge_angle 45)
		(uuid "82a34dea-85c3-4417-8e76-d2b1dad6c342")
	)
	(pad "38" smd rect
		(at 3.75 -1.25 270)
		(size 0.3 0.45)
		(layers "F.Cu" "F.Paste" "F.Mask")
		(thermal_bridge_angle 45)
		(uuid "06e2c7da-d6fb-4ad6-ae4b-976513416daf")
	)
	(pad "39" smd rect
		(at 3.75 -1.75 270)
		(size 0.3 0.45)
		(layers "F.Cu" "F.Paste" "F.Mask")
		(thermal_bridge_angle 45)
		(uuid "1bb4d8ff-9a72-4bb4-80f6-64820f381f88")
	)
	(pad "40" smd rect
		(at 3.75 -2.25 270)
		(size 0.3 0.45)
		(layers "F.Cu" "F.Paste" "F.Mask")
		(thermal_bridge_angle 45)
		(uuid "da37cfcb-04bc-47e1-bc59-6f7b42819f06")
	)
	(pad "41" smd rect
		(at 3.75 -2.75 270)
		(size 0.3 0.45)
		(layers "F.Cu" "F.Paste" "F.Mask")
		(thermal_bridge_angle 45)
		(uuid "5f9c693b-edff-4376-a0cc-ab94317ea1b7")
	)
	(pad "42" smd rect
		(at 3.75 -3.25 90)
		(size 0.3 0.45)
		(layers "F.Cu" "F.Paste" "F.Mask")
		(thermal_bridge_angle 45)
		(uuid "df1e30a2-6fe9-464b-813e-4bdfbc7bedf8")
	)
	(pad "43" smd rect
		(at 3.25 -3.75)
		(size 0.3 0.45)
		(layers "F.Cu" "F.Paste" "F.Mask")
		(thermal_bridge_angle 45)
		(uuid "270ecbf6-a4cd-4a16-834e-6a657f8f4fa9")
	)
	(pad "44" smd rect
		(at 2.75 -3.75)
		(size 0.3 0.45)
		(layers "F.Cu" "F.Paste" "F.Mask")
		(thermal_bridge_angle 45)
		(uuid "857ec6ce-a84d-4d9f-9088-b33c59a156c9")
	)
	(pad "45" smd rect
		(at 2.25 -3.75)
		(size 0.3 0.45)
		(layers "F.Cu" "F.Paste" "F.Mask")
		(thermal_bridge_angle 45)
		(uuid "4c4a5866-288a-4a40-8dc7-80640ac67baf")
	)
	(pad "46" smd rect
		(at 1.75 -3.75)
		(size 0.3 0.45)
		(layers "F.Cu" "F.Paste" "F.Mask")
		(thermal_bridge_angle 45)
		(uuid "b6313bc3-de18-47b4-bb19-91dde62655f7")
	)
	(pad "47" smd rect
		(at 1.25 -3.75)
		(size 0.3 0.45)
		(layers "F.Cu" "F.Paste" "F.Mask")
		(thermal_bridge_angle 45)
		(uuid "da2ea195-764c-4565-8b90-095684e587b9")
	)
	(pad "48" smd rect
		(at 0.75 -3.75)
		(size 0.3 0.45)
		(layers "F.Cu" "F.Paste" "F.Mask")
		(thermal_bridge_angle 45)
		(uuid "e1c57d9e-f793-4f08-b22a-59e89029b11c")
	)
	(pad "49" smd rect
		(at 0.25 -3.75)
		(size 0.3 0.45)
		(layers "F.Cu" "F.Paste" "F.Mask")
		(thermal_bridge_angle 45)
		(uuid "1a88e4c9-43af-475c-a5a2-6a160d9f2edd")
	)
	(pad "50" smd rect
		(at -0.25 -3.75)
		(size 0.3 0.45)
		(layers "F.Cu" "F.Paste" "F.Mask")
		(thermal_bridge_angle 45)
		(uuid "b2d72d04-3edd-445a-8245-2e6e783426c1")
	)
	(pad "51" smd rect
		(at -0.75 -3.75)
		(size 0.3 0.45)
		(layers "F.Cu" "F.Paste" "F.Mask")
		(thermal_bridge_angle 45)
		(uuid "b5e08109-8697-4014-9acc-11fa15e41358")
	)
	(pad "52" smd rect
		(at -1.25 -3.75)
		(size 0.3 0.45)
		(layers "F.Cu" "F.Paste" "F.Mask")
		(thermal_bridge_angle 45)
		(uuid "f46136af-db24-4992-96cb-a993a9818ad1")
	)
	(pad "53" smd rect
		(at -1.75 -3.75)
		(size 0.3 0.45)
		(layers "F.Cu" "F.Paste" "F.Mask")
		(thermal_bridge_angle 45)
		(uuid "21c6fb7c-e0d8-4342-979e-56f4af683aa3")
	)
	(pad "54" smd rect
		(at -2.25 -3.75)
		(size 0.3 0.45)
		(layers "F.Cu" "F.Paste" "F.Mask")
		(thermal_bridge_angle 45)
		(uuid "b90a36c0-7956-41ac-9270-7ecf6c8ba770")
	)
	(pad "55" smd rect
		(at -2.75 -3.75)
		(size 0.3 0.45)
		(layers "F.Cu" "F.Paste" "F.Mask")
		(thermal_bridge_angle 45)
		(uuid "117838fa-98ba-45f9-a9c2-b3385943a7d8")
	)
	(pad "56" smd rect
		(at -3.25 -3.75)
		(size 0.3 0.45)
		(layers "F.Cu" "F.Paste" "F.Mask")
		(thermal_bridge_angle 45)
		(uuid "a2228e8d-f64c-4d4a-9aba-3837773fdb34")
	)
	(pad "57" smd rect
		(at 0 0 90)
		(size 4.95 4.95)
		(layers "F.Cu" "F.Paste" "F.Mask")
		(thermal_bridge_angle 45)
		(uuid "f9b60f88-048d-4f4c-b0ab-3dd6a1688c81")
	)
	(model "lsf-kicad-lib.3dshapes/Si5384.wrl"
		(offset
			(xyz 0 0 0)
		)
		(scale
			(xyz 1 1 1)
		)
		(rotate
			(xyz 0 0 0)
		)
	)
)
