(footprint "taoglas-gp.1575.35.3.a.02"
	(version 20240108)
	(generator "pcbnew")
	(generator_version "8.0")
	(layer "F.Cu")
	(descr "GPS Patch Antenna, https://cdn.taoglas.com/datasheets/GP.1575.35.3.A.02.pdf")
	(tags "GPS Patch Antenna")
	(property "Reference" "REF**"
		(at 0 -3.6 0)
		(layer "F.SilkS")
		(uuid "2540001b-591e-41d9-aac1-18ca3818c44b")
		(effects
			(font
				(size 1 1)
				(thickness 0.15)
			)
		)
	)
	(property "Value" "taoglas-gp.1575.35.3.a.02"
		(at 0 -6.4 0)
		(layer "F.Fab")
		(uuid "1317e4ba-d504-4129-9e73-0b64583d3658")
		(effects
			(font
				(size 1 1)
				(thickness 0.15)
			)
		)
	)
	(property "Footprint" ""
		(at 0 0 0)
		(layer "F.Fab")
		(hide yes)
		(uuid "4e9921b1-058e-40f7-a60b-dc13af0668db")
		(effects
			(font
				(size 1.27 1.27)
				(thickness 0.15)
			)
		)
	)
	(property "Datasheet" ""
		(at 0 0 0)
		(layer "F.Fab")
		(hide yes)
		(uuid "68bb1317-7e69-41f9-ae8d-b53867d7bcf6")
		(effects
			(font
				(size 1.27 1.27)
				(thickness 0.15)
			)
		)
	)
	(property "Description" ""
		(at 0 0 0)
		(layer "F.Fab")
		(hide yes)
		(uuid "c861052c-96ed-4cb4-8f1a-eb751013387a")
		(effects
			(font
				(size 1.27 1.27)
				(thickness 0.15)
			)
		)
	)
	(attr through_hole)
	(fp_line
		(start -17.5 -21.7)
		(end -17.5 13.3)
		(stroke
			(width 0.12)
			(type solid)
		)
		(layer "F.SilkS")
		(uuid "d004321c-f1de-4b34-9e91-0b3b31dde237")
	)
	(fp_line
		(start -17.5 10.3)
		(end -14.5 13.3)
		(stroke
			(width 0.12)
			(type solid)
		)
		(layer "F.SilkS")
		(uuid "e1ce5bd9-23b2-471a-9019-1a18e454660d")
	)
	(fp_line
		(start -17.5 13.3)
		(end 17.5 13.3)
		(stroke
			(width 0.12)
			(type solid)
		)
		(layer "F.SilkS")
		(uuid "c2399ac7-0f9c-4f97-a5b7-a74a45e0ad1b")
	)
	(fp_line
		(start 14.5 -21.7)
		(end 17.5 -18.7)
		(stroke
			(width 0.12)
			(type solid)
		)
		(layer "F.SilkS")
		(uuid "420e6464-5526-4011-929e-a82647f9b05d")
	)
	(fp_line
		(start 17.5 -21.7)
		(end -17.5 -21.7)
		(stroke
			(width 0.12)
			(type solid)
		)
		(layer "F.SilkS")
		(uuid "2369d040-69c1-4923-aca4-4dca3b81f3da")
	)
	(fp_line
		(start 17.5 13.3)
		(end 17.5 -21.7)
		(stroke
			(width 0.12)
			(type solid)
		)
		(layer "F.SilkS")
		(uuid "73a1f0e2-a1e4-48a6-8aa2-1cb669ddbb59")
	)
	(fp_line
		(start -17.6 -21.8)
		(end -17.6 13.4)
		(stroke
			(width 0.05)
			(type solid)
		)
		(layer "F.CrtYd")
		(uuid "f08bee8a-fadf-469b-9fb5-8abebd025bb6")
	)
	(fp_line
		(start -17.6 13.4)
		(end 17.6 13.4)
		(stroke
			(width 0.05)
			(type solid)
		)
		(layer "F.CrtYd")
		(uuid "50fe20f2-2d46-4063-8058-2be945baf164")
	)
	(fp_line
		(start 17.6 -21.8)
		(end -17.6 -21.8)
		(stroke
			(width 0.05)
			(type solid)
		)
		(layer "F.CrtYd")
		(uuid "8ae5280c-3769-4e31-8031-75f285af7305")
	)
	(fp_line
		(start 17.6 13.4)
		(end 17.6 -21.8)
		(stroke
			(width 0.05)
			(type solid)
		)
		(layer "F.CrtYd")
		(uuid "c90ae628-5bca-46be-b24a-b713366a9ecb")
	)
	(fp_line
		(start -17.6 -21.8)
		(end -17.6 13.4)
		(stroke
			(width 0.1)
			(type solid)
		)
		(layer "F.Fab")
		(uuid "1566e4cd-81ef-4f29-b4e3-baa09c3873fe")
	)
	(fp_line
		(start -17.6 13.4)
		(end 17.6 13.4)
		(stroke
			(width 0.1)
			(type solid)
		)
		(layer "F.Fab")
		(uuid "6bab757b-7420-4af5-b732-60c1f25cf979")
	)
	(fp_line
		(start 17.6 -21.8)
		(end -17.6 -21.8)
		(stroke
			(width 0.1)
			(type solid)
		)
		(layer "F.Fab")
		(uuid "75d657b2-8df7-4d17-abb6-6952f9d3dffa")
	)
	(fp_line
		(start 17.6 13.4)
		(end 17.6 -21.8)
		(stroke
			(width 0.1)
			(type solid)
		)
		(layer "F.Fab")
		(uuid "f953ce42-1082-42cc-9cba-2c1772ee1d03")
	)
	(fp_text user "${REFERENCE}"
		(at 0 -3.6 0)
		(layer "F.Fab")
		(uuid "b5b86b3e-42c0-4ebd-a6f2-417929b87eb4")
		(effects
			(font
				(size 1 1)
				(thickness 0.15)
			)
		)
	)
	(pad "1" thru_hole circle
		(at 0 0)
		(size 2.5 2.5)
		(drill 0.95)
		(layers "*.Cu" "*.Mask")
		(remove_unused_layers no)
		(clearance 3.5)
		(uuid "768fd385-9ce7-466b-8315-5d88424e377f")
	)
	(model "${LSF_KICAD_LIB}/lsf-kicad-lib.3dshapes/taoglas-gp.1575.35.3.a.02.wrl"
		(offset
			(xyz 0 0 0)
		)
		(scale
			(xyz 1 1 1)
		)
		(rotate
			(xyz 0 0 0)
		)
	)
)
