(footprint "TDK-DEA142450BT-3028A1" (version 20211014) (generator pcbnew)
  (layer "F.Cu")
  (tedit 61E6EC23)
  (descr "TDK;https://product.tdk.com/info/en/documents/data_sheet/rf_bpf_dea142450bt-3028a1_en.pdf")
  (tags "TDK")
  (attr smd)
  (fp_text reference "REF**" (at 0 2) (layer "F.SilkS")
    (effects (font (size 1 1) (thickness 0.15)))
    (tstamp 29a28998-673c-4adc-9a1b-b586b9445e5e)
  )
  (fp_text value "TDK-DEA142450BT-3028A1" (at 0 -2) (layer "F.Fab")
    (effects (font (size 1 1) (thickness 0.15)))
    (tstamp 7de5d544-0c67-4263-82fd-25dc8f73e59a)
  )
  (fp_text user "${REFERENCE}" (at 0 0) (layer "F.Fab")
    (effects (font (size 0.5 0.5) (thickness 0.075)))
    (tstamp eb76eff0-5d2b-47b0-b7fe-e590e7b95a50)
  )
  (fp_line (start -0.8 -0.3) (end -0.8 0.25) (layer "F.SilkS") (width 0.12) (tstamp 70e02219-0b8c-47f4-9c9d-a0f06863951a))
  (fp_line (start 0.8 -0.65) (end 0.8 0.65) (layer "F.SilkS") (width 0.12) (tstamp 7f5d4eac-f50f-4c4e-b1d2-3773f081b640))
  (fp_line (start 0.8 0.65) (end -0.35 0.65) (layer "F.SilkS") (width 0.12) (tstamp 8e282a33-3a70-482b-a8d6-e49828014ab5))
  (fp_line (start -0.35 -0.65) (end 0.8 -0.65) (layer "F.SilkS") (width 0.12) (tstamp a8176d21-2cef-4394-8700-cc418102f59b))
  (fp_line (start -0.88 0.73) (end -0.88 -0.73) (layer "F.CrtYd") (width 0.05) (tstamp 4413516a-5161-4070-9e46-9d1727331b90))
  (fp_line (start 0.88 0.73) (end -0.88 0.73) (layer "F.CrtYd") (width 0.05) (tstamp 77c6415f-569b-4012-8a61-5ab83dcaac27))
  (fp_line (start -0.88 -0.73) (end 0.88 -0.73) (layer "F.CrtYd") (width 0.05) (tstamp c10072a1-3d7b-44d3-906f-f2a7700e9717))
  (fp_line (start 0.88 -0.73) (end 0.88 0.73) (layer "F.CrtYd") (width 0.05) (tstamp c3ef6b51-9d56-442f-a1f7-29c4ab356292))
  (fp_line (start -0.7 -0.55) (end 0.7 -0.55) (layer "F.Fab") (width 0.1) (tstamp 2340baaa-08e1-4f92-a35b-02297dc1c7b3))
  (fp_line (start -0.7 0.55) (end -0.7 -0.55) (layer "F.Fab") (width 0.1) (tstamp 64bb6179-60f5-43e5-8a62-4507233e201f))
  (fp_line (start 0.7 -0.55) (end 0.7 0.55) (layer "F.Fab") (width 0.1) (tstamp c55ccb0e-f58f-4aed-b5e1-ec9749113aae))
  (fp_line (start 0.7 0.55) (end -0.7 0.55) (layer "F.Fab") (width 0.1) (tstamp f6c75040-28b7-4dc6-b6db-a4beb1529e32))
  (pad "1" smd rect (at -0.5 0) (size 0.25 0.325) (layers "F.Cu" "F.Paste" "F.Mask") (tstamp 10c697e2-9a8a-4a7e-88da-484384257b03))
  (pad "2" smd rect (at 0 0.2875) (size 0.25 0.325) (layers "F.Cu" "F.Paste" "F.Mask") (tstamp 7a76ba60-16de-4fa6-bf9a-4146c2e90105))
  (pad "3" smd rect (at 0.5 0.2875) (size 0.25 0.325) (layers "F.Cu" "F.Paste" "F.Mask") (tstamp 9124207b-3b0f-4c89-bcb2-ccb89a831da8))
  (pad "4" smd rect (at 0.5 -0.2875) (size 0.25 0.325) (layers "F.Cu" "F.Paste" "F.Mask") (tstamp 94b37377-3142-4863-a0f2-5377b5a279db))
  (pad "5" smd rect (at 0 -0.2875) (size 0.25 0.325) (layers "F.Cu" "F.Paste" "F.Mask") (tstamp 29171fc4-45f0-47d2-b830-5e1c750985bc))
  (model "${LSF_KICAD_LIB}/lsf-kicad-lib.3dshapes/TDK-DEA142450BT-3028A1.wrl"
    (offset (xyz 0 0 0))
    (scale (xyz 1 1 1))
    (rotate (xyz 0 0 0))
  )
)
