#VRML V2.0 utf8
#modeled using blender3d http://blender.org

# 'Shape_IndexedFaceSet'
Shape {
	appearance Appearance {
		material Material {
		}
	}
	geometry IndexedFaceSet {
		coord Coordinate {
			point [ -3.168500 1.389346 2.608846 -3.168500 1.389346 0.010426 -3.168500 0.759426 2.608846 -3.168500 0.759426 1.388377 -3.168500 0.758671 1.372980 -3.168500 0.756401 1.357660 -3.168500 0.755073 1.351609 -3.168500 0.752638 1.342641 -3.168500 0.747448 1.328135 -3.168500 0.742265 1.316889 -3.168500 0.740856 1.314188 -3.168500 0.732892 1.300894 -3.168500 0.723662 1.288452 -3.168500 0.721689 1.286095 -3.168500 0.713313 1.277033 -3.168500 0.701888 1.266674 -3.168500 0.694513 1.260975 -3.168500 0.689442 1.257440 -3.168500 0.676153 1.249476 -3.168500 0.662219 1.242887 -3.168500 0.662210 1.242884 -3.168500 0.647701 1.237690 -3.168500 0.632670 1.233923 -3.168500 0.617344 1.231651 -3.168500 0.601946 1.230896 -3.168500 0.586550 1.231651 -3.168500 0.571229 1.233921 -3.168500 0.571223 1.233922 -3.168500 0.556210 1.237684 -3.168500 0.541704 1.242874 -3.168500 0.541681 1.242884 -3.168500 0.527757 1.249466 -3.168500 0.514463 1.257431 -3.168500 0.509377 1.260975 -3.168500 0.502021 1.266660 -3.168500 0.490603 1.277009 -3.168500 0.482202 1.286095 -3.168500 0.480243 1.288435 -3.168500 0.471009 1.300880 -3.168500 0.463045 1.314169 -3.168500 0.461626 1.316890 -3.168500 0.456457 1.328103 -3.168500 0.451259 1.342621 -3.168500 0.448818 1.351609 -3.168500 0.447492 1.357651 -3.168500 0.445221 1.372978 -3.168500 0.444466 2.608846 -3.168500 0.444466 1.388376 -3.168500 -0.342934 0.404126 -3.168500 -0.342934 0.010426 -3.168500 -0.579154 2.608846 -3.168500 -0.579154 0.404126 -2.892910 1.231866 2.608846 -2.892910 1.231866 0.640346 -2.892910 0.759426 2.608846 -2.892910 0.759426 1.388376 -2.892910 0.758671 1.372978 -2.892910 0.756399 1.357651 -2.892910 0.752632 1.342621 -2.892910 0.747438 1.328111 -2.892910 0.747435 1.328103 -2.892910 0.740845 1.314169 -2.892910 0.732882 1.300880 -2.892910 0.729347 1.295809 -2.892910 0.723649 1.288435 -2.892910 0.713289 1.277009 -2.892910 0.704227 1.268633 -2.892910 0.701870 1.266660 -2.892910 0.689428 1.257431 -2.892910 0.676134 1.249466 -2.892910 0.673433 1.248057 -2.892910 0.662187 1.242874 -2.892910 0.647681 1.237684 -2.892910 0.638713 1.235249 -2.892910 0.632662 1.233921 -2.892910 0.617342 1.231651 -2.892910 0.601946 1.230896 -2.892910 0.586547 1.231651 -2.892910 0.571221 1.233923 -2.892910 0.556190 1.237690 -2.892910 0.541680 1.242884 -2.892910 0.541673 1.242887 -2.892910 0.527739 1.249476 -2.892910 0.514449 1.257440 -2.892910 0.509378 1.260975 -2.892910 0.502004 1.266673 -2.892910 0.490579 1.277033 -2.892910 0.482203 1.286095 -2.892910 0.480229 1.288451 -2.892910 0.471000 1.300894 -2.892910 0.463035 1.314188 -2.892910 0.461627 1.316889 -2.892910 0.456443 1.328135 -2.892910 0.451253 1.342640 -2.892910 0.448818 1.351609 -2.892910 0.447491 1.357660 -2.892910 0.445220 1.372980 -2.892910 0.444466 2.608846 -2.892910 0.444466 1.388376 -2.892910 -0.421674 1.841131 -2.892910 -0.421674 0.640346 -2.892910 -0.579154 2.608846 -2.892910 -0.579154 1.841131 -2.774800 1.389346 0.069481 -2.774800 1.389346 0.010426 -2.774800 -0.342934 0.069481 -2.774800 -0.342934 0.010426 -2.735430 1.389346 2.608846 -2.735430 1.389346 1.841131 -2.735430 1.231866 2.608846 -2.735430 1.231866 1.841131 -2.479525 0.897221 1.663966 -2.479525 0.897221 0.640346 -2.479525 0.897221 0.069481 -2.479525 0.897221 -1.013194 -2.479525 0.700371 1.663966 -2.479525 0.700371 0.640346 -2.479525 0.700371 0.069481 -2.479525 0.700371 -1.013194 -2.479525 0.109821 1.663966 -2.479525 0.109821 0.640346 -2.479525 0.109821 0.069481 -2.479525 0.109821 -1.013194 -2.479525 -0.087029 1.663966 -2.479525 -0.087029 0.640346 -2.479525 -0.087029 0.069481 -2.479525 -0.087029 -1.013194 -2.440155 0.857850 1.821446 -2.440156 0.857851 -1.170674 -2.440155 0.739741 1.821446 -2.440156 0.739741 -1.170674 -2.440155 0.070451 1.821446 -2.440156 0.070451 -1.170674 -2.440155 -0.047659 1.821446 -2.440156 -0.047659 -1.170674 -2.322045 0.857850 1.821446 -2.322045 0.857851 -1.170674 -2.322045 0.739741 1.821446 -2.322045 0.739741 -1.170674 -2.322045 0.070451 1.821446 -2.322045 0.070451 -1.170674 -2.322045 -0.047659 1.821446 -2.322045 -0.047659 -1.170674 -2.282675 0.897221 1.663966 -2.282675 0.897221 0.640346 -2.282675 0.897221 0.069481 -2.282675 0.897221 -1.013194 -2.282675 0.700371 1.663966 -2.282675 0.700371 0.640346 -2.282675 0.700371 0.069481 -2.282675 0.700371 -1.013194 -2.282675 0.109821 1.663966 -2.282675 0.109821 0.640346 -2.282675 0.109821 0.069481 -2.282675 0.109821 -1.013194 -2.282675 -0.087029 1.663966 -2.282675 -0.087029 0.640346 -2.282675 -0.087029 0.069481 -2.282675 -0.087029 -1.013194 -2.184250 1.389346 0.069481 -2.184250 1.389346 0.010426 -2.184250 0.601946 0.069481 -2.184250 0.601946 0.010426 -2.184250 0.208246 0.069481 -2.184250 0.208246 0.010426 -2.184250 -0.342934 0.069481 -2.184250 -0.342934 0.010426 -1.790550 1.389346 0.069481 -1.790550 1.389346 0.010426 -1.790550 0.601946 0.069481 -1.790550 0.601946 0.010426 -1.790550 0.208246 0.069481 -1.790550 0.208246 0.010426 -1.790550 -0.342934 0.069481 -1.790550 -0.342934 0.010426 -1.692125 0.897221 1.663966 -1.692125 0.897221 0.640346 -1.692125 0.897221 0.069481 -1.692125 0.897221 -1.013194 -1.692125 0.700371 1.663966 -1.692125 0.700371 0.640346 -1.692125 0.700371 0.069481 -1.692125 0.700371 -1.013194 -1.692125 0.109821 1.663966 -1.692125 0.109821 0.640346 -1.692125 0.109821 0.069481 -1.692125 0.109821 -1.013194 -1.692125 -0.087029 1.663966 -1.692125 -0.087029 0.640346 -1.692125 -0.087029 0.069481 -1.692125 -0.087029 -1.013194 -1.652755 0.857850 1.821446 -1.652755 0.857851 -1.170674 -1.652755 0.739741 1.821446 -1.652755 0.739741 -1.170674 -1.652755 0.070451 1.821446 -1.652755 0.070451 -1.170674 -1.652755 -0.047659 1.821446 -1.652755 -0.047659 -1.170674 -1.534645 0.857850 1.821446 -1.534645 0.857851 -1.170674 -1.534645 0.739741 1.821446 -1.534645 0.739741 -1.170674 -1.534645 0.070451 1.821446 -1.534645 0.070451 -1.170674 -1.534645 -0.047659 1.821446 -1.534645 -0.047659 -1.170674 -1.495275 0.897221 1.663966 -1.495275 0.897221 0.640346 -1.495275 0.897221 0.069481 -1.495275 0.897221 -1.013194 -1.495275 0.700371 1.663966 -1.495275 0.700371 0.640346 -1.495275 0.700371 0.069481 -1.495275 0.700371 -1.013194 -1.495275 0.109821 1.663966 -1.495275 0.109821 0.640346 -1.495275 0.109821 0.069481 -1.495275 0.109821 -1.013194 -1.495275 -0.087029 1.663966 -1.495275 -0.087029 0.640346 -1.495275 -0.087029 0.069481 -1.495275 -0.087029 -1.013194 -1.396850 1.389346 0.069481 -1.396850 1.389346 0.010426 -1.396850 0.601946 0.069481 -1.396850 0.601946 0.010426 -1.396850 0.208246 0.069481 -1.396850 0.208246 0.010426 -1.396850 -0.342934 0.069481 -1.396850 -0.342934 0.010426 -1.003150 1.389346 0.069481 -1.003150 1.389346 0.010426 -1.003150 0.601946 0.069481 -1.003150 0.601946 0.010426 -1.003150 0.208246 0.069481 -1.003150 0.208246 0.010426 -1.003150 -0.342934 0.069481 -1.003150 -0.342934 0.010426 -0.904725 0.897221 1.663966 -0.904725 0.897221 0.640346 -0.904725 0.897221 0.069481 -0.904725 0.897221 -1.013194 -0.904725 0.700371 1.663966 -0.904725 0.700371 0.640346 -0.904725 0.700371 0.069481 -0.904725 0.700371 -1.013194 -0.904725 0.109821 1.663966 -0.904725 0.109821 0.640346 -0.904725 0.109821 0.069481 -0.904725 0.109821 -1.013194 -0.904725 -0.087029 1.663966 -0.904725 -0.087029 0.640346 -0.904725 -0.087029 0.069481 -0.904725 -0.087029 -1.013194 -0.865355 0.857850 1.821446 -0.865355 0.857851 -1.170674 -0.865355 0.739741 1.821446 -0.865355 0.739741 -1.170674 -0.865355 0.070451 1.821446 -0.865355 0.070451 -1.170674 -0.865355 -0.047659 1.821446 -0.865355 -0.047659 -1.170674 -0.747245 0.857850 1.821446 -0.747245 0.857851 -1.170674 -0.747245 0.739741 1.821446 -0.747245 0.739741 -1.170674 -0.747245 0.070451 1.821446 -0.747245 0.070451 -1.170674 -0.747245 -0.047659 1.821446 -0.747245 -0.047659 -1.170674 -0.707875 0.897221 1.663966 -0.707875 0.897221 0.640346 -0.707875 0.897221 0.069481 -0.707875 0.897221 -1.013194 -0.707875 0.700371 1.663966 -0.707875 0.700371 0.640346 -0.707875 0.700371 0.069481 -0.707875 0.700371 -1.013194 -0.707875 0.109821 1.663966 -0.707875 0.109821 0.640346 -0.707875 0.109821 0.069481 -0.707875 0.109821 -1.013194 -0.707875 -0.087029 1.663966 -0.707875 -0.087029 0.640346 -0.707875 -0.087029 0.069481 -0.707875 -0.087029 -1.013194 -0.609450 1.389346 0.069481 -0.609450 1.389346 0.010426 -0.609450 0.601946 0.069481 -0.609450 0.601946 0.010426 -0.609450 0.208246 0.069481 -0.609450 0.208246 0.010426 -0.609450 -0.342934 0.069481 -0.609450 -0.342934 0.010426 -0.215750 1.389346 0.069481 -0.215750 1.389346 0.010426 -0.215750 0.601946 0.069481 -0.215750 0.601946 0.010426 -0.215750 0.208246 0.069481 -0.215750 0.208246 0.010426 -0.215750 -0.342934 0.069481 -0.215750 -0.342934 0.010426 -0.117325 0.897221 1.663966 -0.117325 0.897221 0.640346 -0.117325 0.897221 0.069481 -0.117325 0.897221 -1.013194 -0.117325 0.700371 1.663966 -0.117325 0.700371 0.640346 -0.117325 0.700371 0.069481 -0.117325 0.700371 -1.013194 -0.117325 0.109821 1.663966 -0.117325 0.109821 0.640346 -0.117325 0.109821 0.069481 -0.117325 0.109821 -1.013194 -0.117325 -0.087029 1.663966 -0.117325 -0.087029 0.640346 -0.117325 -0.087029 0.069481 -0.117325 -0.087029 -1.013194 -0.077955 0.857850 1.821446 -0.077955 0.857851 -1.170674 -0.077955 0.739741 1.821446 -0.077955 0.739741 -1.170674 -0.077955 0.070451 1.821446 -0.077955 0.070451 -1.170674 -0.077955 -0.047659 1.821446 -0.077955 -0.047659 -1.170674 0.040155 0.857850 1.821446 0.040155 0.857851 -1.170674 0.040155 0.739741 1.821446 0.040155 0.739741 -1.170674 0.040155 0.070451 1.821446 0.040155 0.070451 -1.170674 0.040155 -0.047659 1.821446 0.040155 -0.047659 -1.170674 0.079525 0.897221 1.663966 0.079525 0.897221 0.640346 0.079525 0.897221 0.069481 0.079525 0.897221 -1.013194 0.079525 0.700371 1.663966 0.079525 0.700371 0.640346 0.079525 0.700371 0.069481 0.079525 0.700371 -1.013194 0.079525 0.109821 1.663966 0.079525 0.109821 0.640346 0.079525 0.109821 0.069481 0.079525 0.109821 -1.013194 0.079525 -0.087029 1.663966 0.079525 -0.087029 0.640346 0.079525 -0.087029 0.069481 0.079525 -0.087029 -1.013194 0.335430 1.389346 2.608846 0.335430 1.389346 1.841131 0.335430 1.231866 2.608846 0.335430 1.231866 1.841131 0.374800 1.389346 0.069481 0.374800 1.389346 0.010426 0.374800 -0.342934 0.069481 0.374800 -0.342934 0.010426 0.492910 1.231866 2.608846 0.492910 1.231866 0.640346 0.492910 0.759426 2.608846 0.492910 0.759426 1.388376 0.492910 0.758671 1.372978 0.492910 0.756399 1.357651 0.492910 0.752632 1.342621 0.492910 0.747438 1.328111 0.492910 0.747435 1.328103 0.492910 0.740845 1.314169 0.492910 0.732882 1.300880 0.492910 0.729347 1.295809 0.492910 0.723649 1.288435 0.492910 0.713289 1.277009 0.492910 0.704227 1.268633 0.492910 0.701870 1.266659 0.492910 0.689428 1.257431 0.492910 0.676134 1.249466 0.492910 0.673433 1.248057 0.492910 0.662187 1.242874 0.492910 0.647681 1.237684 0.492910 0.638713 1.235249 0.492910 0.632662 1.233921 0.492910 0.617342 1.231651 0.492910 0.601946 1.230896 0.492910 0.586547 1.231651 0.492910 0.571221 1.233922 0.492910 0.556190 1.237690 0.492910 0.541680 1.242884 0.492910 0.541673 1.242887 0.492910 0.527739 1.249476 0.492910 0.514449 1.257440 0.492910 0.509378 1.260975 0.492910 0.502004 1.266673 0.492910 0.490579 1.277033 0.492910 0.482203 1.286094 0.492910 0.480229 1.288451 0.492910 0.471000 1.300894 0.492910 0.463035 1.314188 0.492910 0.461627 1.316889 0.492910 0.456443 1.328135 0.492910 0.451253 1.342640 0.492910 0.448818 1.351609 0.492910 0.447491 1.357660 0.492910 0.445220 1.372980 0.492910 0.444466 2.608846 0.492910 0.444466 1.388376 0.492910 -0.421674 1.841131 0.492910 -0.421674 0.640346 0.492910 -0.579154 2.608846 0.492910 -0.579154 1.841131 0.768500 1.389346 2.608846 0.768500 1.389346 0.010426 0.768500 0.759426 2.608846 0.768500 0.759426 1.388376 0.768500 0.758671 1.372980 0.768500 0.756401 1.357660 0.768500 0.755073 1.351609 0.768500 0.752638 1.342640 0.768500 0.747448 1.328135 0.768500 0.742265 1.316889 0.768500 0.740856 1.314188 0.768500 0.732892 1.300894 0.768500 0.723662 1.288451 0.768500 0.721689 1.286094 0.768500 0.713313 1.277033 0.768500 0.701888 1.266673 0.768500 0.694513 1.260975 0.768500 0.689442 1.257440 0.768500 0.676153 1.249476 0.768500 0.662219 1.242887 0.768500 0.662210 1.242884 0.768500 0.647701 1.237690 0.768500 0.632670 1.233922 0.768500 0.617344 1.231651 0.768500 0.601946 1.230896 0.768500 0.586550 1.231651 0.768500 0.571229 1.233921 0.768500 0.571223 1.233922 0.768500 0.556210 1.237684 0.768500 0.541704 1.242874 0.768500 0.541681 1.242884 0.768500 0.527757 1.249466 0.768500 0.514463 1.257431 0.768500 0.509377 1.260975 0.768500 0.502021 1.266659 0.768500 0.490603 1.277009 0.768500 0.482202 1.286095 0.768500 0.480243 1.288435 0.768500 0.471009 1.300880 0.768500 0.463045 1.314169 0.768500 0.461626 1.316889 0.768500 0.456457 1.328103 0.768500 0.451259 1.342621 0.768500 0.448818 1.351609 0.768500 0.447492 1.357651 0.768500 0.445221 1.372978 0.768500 0.444466 2.608846 0.768500 0.444466 1.388376 0.768500 -0.342934 0.404126 0.768500 -0.342934 0.010426 0.768500 -0.579154 2.608846 0.768500 -0.579154 0.404126 ]
		}
		colorPerVertex TRUE
		color Color {
			color [ 0.31 0.31 0.31 0.31 0.31 0.31 0.31 0.31 0.31 0.31 0.31 0.31 0.31 0.31 0.31 0.31 0.31 0.31 0.31 0.31 0.31 0.31 0.31 0.31 0.31 0.31 0.31 0.31 0.31 0.31 0.31 0.31 0.31 0.31 0.31 0.31 0.31 0.31 0.31 0.31 0.31 0.31 0.31 0.31 0.31 0.31 0.31 0.31 0.31 0.31 0.31 0.31 0.31 0.31 0.31 0.31 0.31 0.31 0.31 0.31 0.31 0.31 0.31 0.31 0.31 0.31 0.31 0.31 0.31 0.31 0.31 0.31 0.31 0.31 0.31 0.31 0.31 0.31 0.31 0.31 0.31 0.31 0.31 0.31 0.31 0.31 0.31 0.31 0.31 0.31 0.31 0.31 0.31 0.31 0.31 0.31 0.31 0.31 0.31 0.31 0.31 0.31 0.31 0.31 0.31 0.31 0.31 0.31 0.31 0.31 0.31 0.31 0.31 0.31 0.31 0.31 0.31 0.31 0.31 0.31 0.31 0.31 0.31 0.31 0.31 0.31 0.31 0.31 0.31 0.31 0.31 0.31 0.31 0.31 0.31 0.31 0.31 0.31 0.31 0.31 0.31 0.31 0.31 0.31 0.31 0.31 0.31 0.31 0.31 0.31 0.31 0.31 0.31 0.31 0.31 0.31 0.31 0.31 0.31 0.31 0.31 0.31 0.31 0.31 0.31 0.31 0.31 0.31 0.31 0.31 0.31 0.31 0.31 0.31 0.31 0.31 0.31 0.31 0.31 0.31 0.31 0.31 0.31 0.31 0.31 0.31 0.31 0.31 0.31 0.31 0.31 0.31 0.31 0.31 0.31 0.31 0.31 0.31 0.31 0.31 0.31 0.31 0.31 0.31 0.31 0.31 0.31 0.31 0.31 0.31 0.31 0.31 0.31 0.31 0.31 0.31 0.31 0.31 0.31 0.31 0.31 0.31 0.31 0.31 0.31 0.31 0.31 0.31 0.31 0.31 0.31 0.31 0.31 0.31 0.31 0.31 0.31 0.31 0.31 0.31 0.31 0.31 0.31 0.31 0.31 0.31 0.31 0.31 0.31 0.31 0.31 0.31 0.31 0.31 0.31 0.31 0.31 0.31 0.31 0.31 0.31 0.31 0.31 0.31 0.31 0.31 0.31 0.31 0.31 0.31 0.31 0.31 0.31 0.31 0.31 0.31 0.31 0.31 0.31 0.31 0.31 0.31 0.31 0.31 0.31 0.31 0.31 0.31 0.31 0.31 0.31 0.31 0.31 0.31 0.31 0.31 0.31 0.31 0.31 0.31 0.31 0.31 0.31 0.31 0.31 0.31 0.31 0.31 0.31 0.31 0.31 0.31 0.31 0.31 0.31 0.31 0.31 0.31 0.31 0.31 0.31 0.31 0.31 0.31 0.31 0.31 0.31 0.31 0.31 0.31 0.31 0.31 0.31 1.00 1.00 0.00 0.31 0.31 0.31 0.31 0.31 0.31 1.00 1.00 0.00 1.00 1.00 0.00 0.31 0.31 0.31 0.31 0.31 0.31 1.00 1.00 0.00 1.00 1.00 0.00 1.00 1.00 0.00 0.31 0.31 0.31 1.00 1.00 0.00 1.00 1.00 0.00 1.00 1.00 0.00 0.31 0.31 0.31 1.00 1.00 0.00 1.00 1.00 0.00 1.00 1.00 0.00 1.00 1.00 0.00 1.00 1.00 0.00 1.00 1.00 0.00 1.00 1.00 0.00 1.00 1.00 0.00 1.00 1.00 0.00 1.00 1.00 0.00 1.00 1.00 0.00 1.00 1.00 0.00 1.00 1.00 0.00 1.00 1.00 0.00 1.00 1.00 0.00 1.00 1.00 0.00 1.00 1.00 0.00 1.00 1.00 0.00 1.00 1.00 0.00 1.00 1.00 0.00 1.00 1.00 0.00 1.00 1.00 0.00 0.31 0.31 0.31 0.31 0.31 0.31 1.00 1.00 0.00 1.00 1.00 0.00 1.00 1.00 0.00 1.00 1.00 0.00 1.00 1.00 0.00 1.00 1.00 0.00 0.31 0.31 0.31 0.31 0.31 0.31 1.00 1.00 0.00 0.31 0.31 0.31 0.31 0.31 0.31 0.31 0.31 0.31 0.31 0.31 0.31 0.31 0.31 0.31 0.31 0.31 0.31 0.31 0.31 0.31 0.31 0.31 0.31 0.31 0.31 0.31 0.31 0.31 0.31 0.31 0.31 0.31 0.31 0.31 0.31 0.31 0.31 0.31 0.31 0.31 0.31 0.31 0.31 0.31 0.31 0.31 0.31 1.00 1.00 0.00 0.31 0.31 0.31 1.00 1.00 0.00 1.00 1.00 0.00 1.00 1.00 0.00 0.31 0.31 0.31 1.00 1.00 0.00 1.00 1.00 0.00 1.00 1.00 0.00 1.00 1.00 0.00 1.00 1.00 0.00 1.00 1.00 0.00 1.00 1.00 0.00 1.00 1.00 0.00 1.00 1.00 0.00 1.00 1.00 0.00 1.00 1.00 0.00 1.00 1.00 0.00 1.00 1.00 0.00 1.00 1.00 0.00 1.00 1.00 0.00 1.00 1.00 0.00 1.00 1.00 0.00 1.00 1.00 0.00 1.00 1.00 0.00 1.00 1.00 0.00 1.00 1.00 0.00 1.00 1.00 0.00 1.00 1.00 0.00 1.00 1.00 0.00 1.00 1.00 0.00 1.00 1.00 0.00 1.00 1.00 0.00 0.31 0.31 0.31 1.00 1.00 0.00 1.00 1.00 0.00 1.00 1.00 0.00 0.31 0.31 0.31 0.31 0.31 0.31 1.00 1.00 0.00 1.00 1.00 0.00 1.00 1.00 0.00 0.31 0.31 0.31 1.00 1.00 0.00 1.00 1.00 0.00 0.31 0.31 0.31 0.31 0.31 0.31 1.00 1.00 0.00 0.31 0.31 0.31 0.31 0.31 0.31 0.31 0.31 0.31 0.31 0.31 0.31 0.31 0.31 0.31 0.31 0.31 0.31 0.31 0.31 0.31 0.31 0.31 0.31 0.31 0.31 0.31 0.31 0.31 0.31 0.31 0.31 0.31 0.31 0.31 0.31 0.31 0.31 0.31 0.31 0.31 0.31 0.31 0.31 0.31 0.31 0.31 0.31 1.00 1.00 0.00 0.31 0.31 0.31 0.31 0.31 0.31 1.00 1.00 0.00 1.00 1.00 0.00 1.00 1.00 0.00 1.00 1.00 0.00 1.00 1.00 0.00 1.00 1.00 0.00 1.00 1.00 0.00 1.00 1.00 0.00 1.00 1.00 0.00 1.00 1.00 0.00 1.00 1.00 0.00 0.31 0.31 0.31 1.00 1.00 0.00 1.00 1.00 0.00 1.00 1.00 0.00 1.00 1.00 0.00 1.00 1.00 0.00 1.00 1.00 0.00 1.00 1.00 0.00 1.00 1.00 0.00 1.00 1.00 0.00 1.00 1.00 0.00 1.00 1.00 0.00 1.00 1.00 0.00 1.00 1.00 0.00 1.00 1.00 0.00 1.00 1.00 0.00 1.00 1.00 0.00 1.00 1.00 0.00 1.00 1.00 0.00 0.31 0.31 0.31 0.31 0.31 0.31 1.00 1.00 0.00 1.00 1.00 0.00 1.00 1.00 0.00 0.31 0.31 0.31 1.00 1.00 0.00 1.00 1.00 0.00 1.00 1.00 0.00 1.00 1.00 0.00 1.00 1.00 0.00 1.00 1.00 0.00 0.31 0.31 0.31 0.31 0.31 0.31 1.00 1.00 0.00 0.31 0.31 0.31 0.31 0.31 0.31 0.31 0.31 0.31 0.31 0.31 0.31 0.31 0.31 0.31 0.31 0.31 0.31 0.31 0.31 0.31 0.31 0.31 0.31 0.31 0.31 0.31 0.31 0.31 0.31 0.31 0.31 0.31 0.31 0.31 0.31 0.31 0.31 0.31 0.31 0.31 0.31 0.31 0.31 0.31 0.31 0.31 0.31 1.00 1.00 0.00 0.31 0.31 0.31 1.00 1.00 0.00 1.00 1.00 0.00 1.00 1.00 0.00 1.00 1.00 0.00 1.00 1.00 0.00 1.00 1.00 0.00 1.00 1.00 0.00 1.00 1.00 0.00 1.00 1.00 0.00 1.00 1.00 0.00 1.00 1.00 0.00 1.00 1.00 0.00 1.00 1.00 0.00 1.00 1.00 0.00 1.00 1.00 0.00 1.00 1.00 0.00 1.00 1.00 0.00 1.00 1.00 0.00 1.00 1.00 0.00 1.00 1.00 0.00 1.00 1.00 0.00 1.00 1.00 0.00 1.00 1.00 0.00 1.00 1.00 0.00 1.00 1.00 0.00 1.00 1.00 0.00 1.00 1.00 0.00 1.00 1.00 0.00 1.00 1.00 0.00 1.00 1.00 0.00 1.00 1.00 0.00 0.31 0.31 0.31 0.31 0.31 0.31 1.00 1.00 0.00 1.00 1.00 0.00 1.00 1.00 0.00 0.31 0.31 0.31 1.00 1.00 0.00 1.00 1.00 0.00 1.00 1.00 0.00 0.31 0.31 0.31 1.00 1.00 0.00 1.00 1.00 0.00 0.31 0.31 0.31 0.31 0.31 0.31 1.00 1.00 0.00 0.31 0.31 0.31 0.31 0.31 0.31 0.31 0.31 0.31 0.31 0.31 0.31 0.31 0.31 0.31 0.31 0.31 0.31 0.31 0.31 0.31 0.31 0.31 0.31 0.31 0.31 0.31 0.31 0.31 0.31 0.31 0.31 0.31 0.31 0.31 0.31 0.31 0.31 0.31 0.31 0.31 0.31 0.31 0.31 0.31 0.31 0.31 0.31 0.31 0.31 0.31 0.31 0.31 0.31 0.31 0.31 0.31 0.31 0.31 0.31 0.31 0.31 0.31 0.31 0.31 0.31 0.31 0.31 0.31 0.31 0.31 0.31 0.31 0.31 0.31 0.31 0.31 0.31 0.31 0.31 0.31 0.31 0.31 0.31 0.31 0.31 0.31 0.31 0.31 0.31 0.31 0.31 0.31 0.31 0.31 0.31 0.31 0.31 0.31 0.31 0.31 0.31 0.31 0.31 0.31 0.31 0.31 0.31 0.31 0.31 0.31 0.31 0.31 0.31 0.31 0.31 0.31 0.31 0.31 0.31 0.31 0.31 0.31 0.31 0.31 0.31 0.31 0.31 0.31 0.31 0.31 0.31 0.31 0.31 0.31 0.31 0.31 0.31 0.31 0.31 0.31 0.31 0.31 0.31 0.31 0.31 0.31 0.31 0.31 0.31 0.31 0.31 0.31 0.31 0.31 0.31 0.31 0.31 0.31 0.31 0.31 0.31 0.31 0.31 0.31 0.31 0.31 0.31 0.31 0.31 0.31 0.31 0.31 0.31 0.31 0.31 0.31 0.31 0.31 0.31 0.31 0.31 0.31 0.31 0.31 0.31 0.31 0.31 0.31 0.31 0.31 0.31 0.31 0.31 0.31 0.31 0.31 0.31 0.31 0.31 0.31 0.31 0.31 0.31 0.31 0.31 0.31 0.31 0.31 0.31 0.31 0.31 0.31 0.31 0.31 0.31 0.31 0.31 0.31 0.31 0.31 0.31 0.31 0.31 0.31 0.31 0.31 0.31 0.31 0.31 0.31 0.31 0.31 0.31 0.31 0.31 0.31 0.31 0.31 0.31 0.31 0.31 0.31 0.31 0.31 0.31 0.31 0.31 0.31 0.31 0.31 0.31 0.31 0.31 0.31 0.31 0.31 0.31 0.31 0.31 0.31 0.31 0.31 0.31 0.31 0.31 0.31 0.31 0.31 0.31 0.31 0.31 0.31 0.31 0.31 0.31 0.31 0.31 0.31 0.31 0.31 0.31 0.31 0.31 0.31 0.31 0.31 0.31 0.31 0.31 0.31 0.31 0.31 0.31 0.31 0.31 0.31 0.31 0.31 0.31 0.31 0.31 0.31 0.31 0.31 0.31 0.31 0.31 0.31 0.31 0.31 0.31 0.31 0.31 0.31 0.31 0.31 0.31 0.31 0.31 0.31 0.31 0.31 0.31 0.31 0.31 0.31 0.31 0.31 0.31 0.31 0.31 0.31 ]
		}
		coordIndex [ 0 1 3 -1 0 2 52 -1 0 3 2 -1 0 52 107 -1 0 107 108 -1 0 108 1 -1 1 4 3 -1 1 5 4 -1 1 6 5 -1 1 7 6 -1 1 8 7 -1 1 9 8 -1 1 10 9 -1 1 11 10 -1 1 12 11 -1 1 13 12 -1 1 14 13 -1 1 15 14 -1 1 16 15 -1 1 17 16 -1 1 18 17 -1 1 19 18 -1 1 21 19 -1 1 22 21 -1 1 23 22 -1 1 24 23 -1 1 48 24 -1 1 49 48 -1 1 103 104 -1 1 104 49 -1 1 108 103 -1 2 3 54 -1 2 54 52 -1 3 4 55 -1 3 55 54 -1 4 5 56 -1 4 56 55 -1 5 6 57 -1 5 57 56 -1 6 7 58 -1 6 58 57 -1 7 8 58 -1 8 9 60 -1 8 59 58 -1 8 60 59 -1 9 10 61 -1 9 61 60 -1 10 11 61 -1 11 12 63 -1 11 62 61 -1 11 63 62 -1 12 13 64 -1 12 64 63 -1 13 14 65 -1 13 65 64 -1 14 15 66 -1 14 66 65 -1 15 16 67 -1 15 67 66 -1 16 17 68 -1 16 68 67 -1 17 18 68 -1 18 19 70 -1 18 69 68 -1 18 70 69 -1 19 20 71 -1 19 71 70 -1 20 21 71 -1 21 22 73 -1 21 72 71 -1 21 73 72 -1 22 23 74 -1 22 74 73 -1 23 24 75 -1 23 75 74 -1 24 25 76 -1 24 48 25 -1 24 76 75 -1 25 26 77 -1 25 48 27 -1 25 77 76 -1 26 27 78 -1 26 78 77 -1 27 28 78 -1 27 48 28 -1 28 29 79 -1 28 48 29 -1 28 79 78 -1 29 30 80 -1 29 48 30 -1 29 80 79 -1 30 31 81 -1 30 48 31 -1 30 81 80 -1 31 32 82 -1 31 48 32 -1 31 82 81 -1 32 33 83 -1 32 48 33 -1 32 83 82 -1 33 34 84 -1 33 48 34 -1 33 84 83 -1 34 35 85 -1 34 48 35 -1 34 85 84 -1 35 36 86 -1 35 48 36 -1 35 86 85 -1 36 37 87 -1 36 48 37 -1 36 87 86 -1 37 38 88 -1 37 48 38 -1 37 88 87 -1 38 39 89 -1 38 48 39 -1 38 89 88 -1 39 40 90 -1 39 48 40 -1 39 90 89 -1 40 41 91 -1 40 48 41 -1 40 91 90 -1 41 42 92 -1 41 48 42 -1 41 92 91 -1 42 43 93 -1 42 48 43 -1 42 93 92 -1 43 44 94 -1 43 48 44 -1 43 94 93 -1 44 45 95 -1 44 48 45 -1 44 95 94 -1 45 47 96 -1 45 48 51 -1 45 51 47 -1 45 96 95 -1 46 47 50 -1 46 50 97 -1 46 97 98 -1 46 98 47 -1 47 51 50 -1 47 98 96 -1 48 49 105 -1 48 105 165 -1 48 165 173 -1 48 173 229 -1 48 229 237 -1 48 237 293 -1 48 293 458 -1 48 458 51 -1 49 104 106 -1 49 106 105 -1 50 51 102 -1 50 101 97 -1 50 102 101 -1 51 409 102 -1 51 458 461 -1 51 461 409 -1 52 53 110 -1 52 54 55 -1 52 55 53 -1 52 109 107 -1 52 110 109 -1 53 55 56 -1 53 56 57 -1 53 57 58 -1 53 58 60 -1 53 60 61 -1 53 61 62 -1 53 62 63 -1 53 63 64 -1 53 64 65 -1 53 65 66 -1 53 66 67 -1 53 67 68 -1 53 68 69 -1 53 69 70 -1 53 70 71 -1 53 71 72 -1 53 72 73 -1 53 73 74 -1 53 74 75 -1 53 75 76 -1 53 76 77 -1 53 77 78 -1 53 78 100 -1 53 100 120 -1 53 112 144 -1 53 116 112 -1 53 120 116 -1 53 144 176 -1 53 176 208 -1 53 208 240 -1 53 240 360 -1 53 360 110 -1 78 79 100 -1 79 81 100 -1 81 82 100 -1 82 83 100 -1 83 84 100 -1 84 85 100 -1 85 86 100 -1 86 87 100 -1 87 88 100 -1 88 89 100 -1 89 90 100 -1 90 91 100 -1 91 92 100 -1 92 93 100 -1 93 94 100 -1 94 95 100 -1 95 96 99 -1 95 99 100 -1 96 98 99 -1 97 99 98 -1 97 101 99 -1 99 101 102 -1 99 102 409 -1 99 406 100 -1 99 409 406 -1 100 124 120 -1 100 156 124 -1 100 188 156 -1 100 220 188 -1 100 252 220 -1 100 284 252 -1 100 406 407 -1 100 407 284 -1 103 105 104 -1 103 108 159 -1 103 113 117 -1 103 117 105 -1 103 159 113 -1 104 105 106 -1 105 117 121 -1 105 121 125 -1 105 125 165 -1 107 109 110 -1 107 110 108 -1 108 110 354 -1 108 167 159 -1 108 223 167 -1 108 231 223 -1 108 352 231 -1 108 354 352 -1 110 360 354 -1 111 112 116 -1 111 115 129 -1 111 116 115 -1 111 127 135 -1 111 129 127 -1 111 135 143 -1 111 143 144 -1 111 144 112 -1 113 114 117 -1 113 145 114 -1 113 159 145 -1 114 118 117 -1 114 128 130 -1 114 130 118 -1 114 136 128 -1 114 145 146 -1 114 146 136 -1 115 116 147 -1 115 137 129 -1 115 147 137 -1 116 120 152 -1 116 148 147 -1 116 152 148 -1 117 118 150 -1 117 149 161 -1 117 150 149 -1 117 161 121 -1 118 130 138 -1 118 138 150 -1 119 120 123 -1 119 123 131 -1 119 131 139 -1 119 139 151 -1 119 151 152 -1 119 152 120 -1 120 124 123 -1 121 122 125 -1 121 153 122 -1 121 161 163 -1 121 163 153 -1 122 126 125 -1 122 132 126 -1 122 140 132 -1 122 153 154 -1 122 154 140 -1 123 124 155 -1 123 133 131 -1 123 141 133 -1 123 155 141 -1 124 156 155 -1 125 126 158 -1 125 157 165 -1 125 158 157 -1 126 132 134 -1 126 134 142 -1 126 142 158 -1 127 129 137 -1 127 137 135 -1 128 136 130 -1 130 136 138 -1 131 133 139 -1 132 140 134 -1 133 141 139 -1 134 140 142 -1 135 137 143 -1 136 146 138 -1 137 147 143 -1 138 146 150 -1 139 141 155 -1 139 155 151 -1 140 154 158 -1 140 158 142 -1 143 147 144 -1 144 147 148 -1 144 148 176 -1 145 149 150 -1 145 150 146 -1 145 159 161 -1 145 161 149 -1 148 152 184 -1 148 180 176 -1 148 184 180 -1 151 155 152 -1 152 155 156 -1 152 156 184 -1 153 157 158 -1 153 158 154 -1 153 163 157 -1 156 188 184 -1 157 163 165 -1 159 160 162 -1 159 162 161 -1 159 167 168 -1 159 168 160 -1 160 168 170 -1 160 170 162 -1 161 162 170 -1 161 169 163 -1 161 170 169 -1 163 164 165 -1 163 169 171 -1 163 171 164 -1 164 166 165 -1 164 171 172 -1 164 172 174 -1 164 174 166 -1 165 166 174 -1 165 174 173 -1 167 169 170 -1 167 170 168 -1 167 177 169 -1 167 209 177 -1 167 223 209 -1 169 177 181 -1 169 181 225 -1 169 225 227 -1 169 227 171 -1 171 173 172 -1 171 185 189 -1 171 189 173 -1 171 227 185 -1 172 173 174 -1 173 189 229 -1 175 176 180 -1 175 179 193 -1 175 180 179 -1 175 191 199 -1 175 193 191 -1 175 199 207 -1 175 207 176 -1 176 207 208 -1 177 178 181 -1 177 209 210 -1 177 210 178 -1 178 182 181 -1 178 192 194 -1 178 194 182 -1 178 200 192 -1 178 210 200 -1 179 180 212 -1 179 201 193 -1 179 211 201 -1 179 212 211 -1 180 184 216 -1 180 216 212 -1 181 182 213 -1 181 213 225 -1 182 194 202 -1 182 202 214 -1 182 214 213 -1 183 184 187 -1 183 187 195 -1 183 195 203 -1 183 203 215 -1 183 215 184 -1 184 188 187 -1 184 215 216 -1 185 186 189 -1 185 217 218 -1 185 218 186 -1 185 227 217 -1 186 190 189 -1 186 196 190 -1 186 204 196 -1 186 218 204 -1 187 188 220 -1 187 197 195 -1 187 205 197 -1 187 219 205 -1 187 220 219 -1 189 190 221 -1 189 221 229 -1 190 196 198 -1 190 198 206 -1 190 206 222 -1 190 222 221 -1 191 193 201 -1 191 201 199 -1 192 200 194 -1 194 200 202 -1 195 197 203 -1 196 204 198 -1 197 205 203 -1 198 204 206 -1 199 201 207 -1 200 210 202 -1 201 211 207 -1 202 210 214 -1 203 205 219 -1 203 219 215 -1 204 218 222 -1 204 222 206 -1 207 211 208 -1 208 211 212 -1 208 212 240 -1 209 213 214 -1 209 214 210 -1 209 223 225 -1 209 225 213 -1 212 216 244 -1 212 244 240 -1 215 219 216 -1 216 219 220 -1 216 220 248 -1 216 248 244 -1 217 221 222 -1 217 222 218 -1 217 227 221 -1 220 252 248 -1 221 227 229 -1 223 224 226 -1 223 226 225 -1 223 231 232 -1 223 232 224 -1 224 232 226 -1 225 226 233 -1 225 233 235 -1 225 235 227 -1 226 232 234 -1 226 234 233 -1 227 228 230 -1 227 230 229 -1 227 235 228 -1 228 235 236 -1 228 236 230 -1 229 230 237 -1 230 236 238 -1 230 238 237 -1 231 233 234 -1 231 234 232 -1 231 241 233 -1 231 287 241 -1 231 352 287 -1 233 241 245 -1 233 245 277 -1 233 277 289 -1 233 289 235 -1 235 237 236 -1 235 249 253 -1 235 253 237 -1 235 289 291 -1 235 291 249 -1 236 237 238 -1 237 253 285 -1 237 285 293 -1 239 240 244 -1 239 243 257 -1 239 244 243 -1 239 255 263 -1 239 257 255 -1 239 263 271 -1 239 271 240 -1 240 271 272 -1 240 272 360 -1 241 242 245 -1 241 273 274 -1 241 274 242 -1 241 287 273 -1 242 246 245 -1 242 256 258 -1 242 258 246 -1 242 264 256 -1 242 274 264 -1 243 244 276 -1 243 265 257 -1 243 275 265 -1 243 276 275 -1 244 248 280 -1 244 280 276 -1 245 246 277 -1 246 258 266 -1 246 266 278 -1 246 278 277 -1 247 248 251 -1 247 251 259 -1 247 259 267 -1 247 267 279 -1 247 279 248 -1 248 252 251 -1 248 279 280 -1 249 250 253 -1 249 281 282 -1 249 282 250 -1 249 291 281 -1 250 254 253 -1 250 260 254 -1 250 268 260 -1 250 282 268 -1 251 252 284 -1 251 261 259 -1 251 269 261 -1 251 283 269 -1 251 284 283 -1 253 254 285 -1 254 260 262 -1 254 262 270 -1 254 270 286 -1 254 286 285 -1 255 257 265 -1 255 265 263 -1 256 264 258 -1 258 264 266 -1 259 261 267 -1 260 268 262 -1 261 269 267 -1 262 268 270 -1 263 265 271 -1 264 274 266 -1 265 275 271 -1 266 274 278 -1 267 269 283 -1 267 283 279 -1 268 282 286 -1 268 286 270 -1 271 275 272 -1 272 275 276 -1 272 276 304 -1 272 304 360 -1 273 277 278 -1 273 278 274 -1 273 287 289 -1 273 289 277 -1 276 280 312 -1 276 308 304 -1 276 312 308 -1 279 283 280 -1 280 283 284 -1 280 284 312 -1 281 285 286 -1 281 286 282 -1 281 291 285 -1 284 316 312 -1 284 407 316 -1 285 291 293 -1 287 288 289 -1 287 295 296 -1 287 296 288 -1 287 352 295 -1 288 290 289 -1 288 296 290 -1 289 290 297 -1 289 297 291 -1 290 296 298 -1 290 298 297 -1 291 292 293 -1 291 297 299 -1 291 299 300 -1 291 300 292 -1 292 294 293 -1 292 300 294 -1 293 294 302 -1 293 301 458 -1 293 302 301 -1 294 300 302 -1 295 297 298 -1 295 298 296 -1 295 305 297 -1 295 337 305 -1 295 352 355 -1 295 355 337 -1 297 305 309 -1 297 309 341 -1 297 341 345 -1 297 345 299 -1 299 301 300 -1 299 313 317 -1 299 317 301 -1 299 345 313 -1 300 301 302 -1 301 317 349 -1 301 349 357 -1 301 357 458 -1 303 304 308 -1 303 307 321 -1 303 308 307 -1 303 319 327 -1 303 321 319 -1 303 327 335 -1 303 335 304 -1 304 335 336 -1 304 336 360 -1 305 306 309 -1 305 337 338 -1 305 338 306 -1 306 310 309 -1 306 320 322 -1 306 322 310 -1 306 328 320 -1 306 338 328 -1 307 308 340 -1 307 339 321 -1 307 340 339 -1 308 312 344 -1 308 344 340 -1 309 310 341 -1 310 322 330 -1 310 330 342 -1 310 342 341 -1 311 312 315 -1 311 315 323 -1 311 323 331 -1 311 331 343 -1 311 343 312 -1 312 316 315 -1 312 343 344 -1 313 314 317 -1 313 345 346 -1 313 346 314 -1 314 318 317 -1 314 324 318 -1 314 332 324 -1 314 346 332 -1 315 316 348 -1 315 325 323 -1 315 347 325 -1 315 348 347 -1 316 407 348 -1 317 318 349 -1 318 324 326 -1 318 326 350 -1 318 350 349 -1 319 321 329 -1 319 329 327 -1 320 328 322 -1 321 339 329 -1 322 328 330 -1 323 325 331 -1 324 332 326 -1 325 333 331 -1 325 347 333 -1 326 332 334 -1 326 334 350 -1 327 329 335 -1 328 338 330 -1 329 339 335 -1 330 338 342 -1 331 333 347 -1 331 347 343 -1 332 346 350 -1 332 350 334 -1 335 339 336 -1 336 339 340 -1 336 340 360 -1 337 341 342 -1 337 342 338 -1 337 355 341 -1 340 344 360 -1 341 355 357 -1 341 357 345 -1 343 347 344 -1 344 347 348 -1 344 348 407 -1 344 407 360 -1 345 349 350 -1 345 350 346 -1 345 357 349 -1 351 352 354 -1 351 353 359 -1 351 354 353 -1 351 359 410 -1 351 410 352 -1 352 410 411 -1 352 411 355 -1 353 354 359 -1 354 360 359 -1 355 356 357 -1 355 411 356 -1 356 358 357 -1 356 411 459 -1 356 459 358 -1 357 358 459 -1 357 459 458 -1 359 360 362 -1 359 361 412 -1 359 362 361 -1 359 412 410 -1 360 363 362 -1 360 364 363 -1 360 365 364 -1 360 367 365 -1 360 368 367 -1 360 369 368 -1 360 370 369 -1 360 371 370 -1 360 372 371 -1 360 373 372 -1 360 374 373 -1 360 375 374 -1 360 376 375 -1 360 377 376 -1 360 378 377 -1 360 379 378 -1 360 380 379 -1 360 381 380 -1 360 382 381 -1 360 383 382 -1 360 384 383 -1 360 385 384 -1 360 407 385 -1 361 362 413 -1 361 413 412 -1 362 363 414 -1 362 414 413 -1 363 364 415 -1 363 415 414 -1 364 365 416 -1 364 416 415 -1 365 366 418 -1 365 417 416 -1 365 418 417 -1 366 367 418 -1 367 368 419 -1 367 419 418 -1 368 369 421 -1 368 420 419 -1 368 421 420 -1 369 370 421 -1 370 371 422 -1 370 422 421 -1 371 372 423 -1 371 423 422 -1 372 373 424 -1 372 424 423 -1 373 374 425 -1 373 425 424 -1 374 375 426 -1 374 426 425 -1 375 376 428 -1 375 427 426 -1 375 428 427 -1 376 377 428 -1 377 378 429 -1 377 429 428 -1 378 379 431 -1 378 430 429 -1 378 431 430 -1 379 380 431 -1 380 381 432 -1 380 432 431 -1 381 382 433 -1 381 433 432 -1 382 383 434 -1 382 434 433 -1 383 384 435 -1 383 435 434 -1 384 385 436 -1 384 436 435 -1 385 386 438 -1 385 407 386 -1 385 437 436 -1 385 438 437 -1 386 387 439 -1 386 407 388 -1 386 439 438 -1 387 388 440 -1 387 440 439 -1 388 389 441 -1 388 407 389 -1 388 441 440 -1 389 390 442 -1 389 407 390 -1 389 442 441 -1 390 391 443 -1 390 407 391 -1 390 443 442 -1 391 392 444 -1 391 407 392 -1 391 444 443 -1 392 393 445 -1 392 407 393 -1 392 445 444 -1 393 394 446 -1 393 407 394 -1 393 446 445 -1 394 395 447 -1 394 407 395 -1 394 447 446 -1 395 396 448 -1 395 407 396 -1 395 448 447 -1 396 397 449 -1 396 407 397 -1 396 449 448 -1 397 398 450 -1 397 407 398 -1 397 450 449 -1 398 399 451 -1 398 407 399 -1 398 451 450 -1 399 400 452 -1 399 407 400 -1 399 452 451 -1 400 401 453 -1 400 407 401 -1 400 453 452 -1 401 402 454 -1 401 407 402 -1 401 454 453 -1 402 403 455 -1 402 406 403 -1 402 407 406 -1 402 455 454 -1 403 405 457 -1 403 406 405 -1 403 457 455 -1 404 405 406 -1 404 406 408 -1 404 408 456 -1 404 456 457 -1 404 457 405 -1 406 409 408 -1 408 409 460 -1 408 460 456 -1 409 461 460 -1 410 412 413 -1 410 413 411 -1 411 413 414 -1 411 414 415 -1 411 415 416 -1 411 416 417 -1 411 417 418 -1 411 418 419 -1 411 419 420 -1 411 420 421 -1 411 421 422 -1 411 422 423 -1 411 423 424 -1 411 424 425 -1 411 425 426 -1 411 426 427 -1 411 427 428 -1 411 428 429 -1 411 429 431 -1 411 431 432 -1 411 432 433 -1 411 433 434 -1 411 434 458 -1 411 458 459 -1 434 435 458 -1 435 437 458 -1 437 438 458 -1 438 439 458 -1 439 440 458 -1 440 441 458 -1 441 442 458 -1 442 443 458 -1 443 444 458 -1 444 445 458 -1 445 446 458 -1 446 447 458 -1 447 448 458 -1 448 449 458 -1 449 450 458 -1 450 451 458 -1 451 452 458 -1 452 453 458 -1 453 454 458 -1 454 455 458 -1 455 457 461 -1 455 461 458 -1 456 460 457 -1 457 460 461 -1 ]
	}
}
