ISO-10303-21;
HEADER;
FILE_DESCRIPTION(('FreeCAD Model'),'2;1');
FILE_NAME(
'/home/liknus/git/lsf-kicad-lib/lsf-kicad-lib.3dshapes/KEYSTONE-1502-2.s
tep','2019-11-16T11:41:55',('kicad StepUp'),('ksu MCAD'),
  'Open CASCADE STEP processor 7.4','FreeCAD','Unknown');
FILE_SCHEMA(('AUTOMOTIVE_DESIGN { 1 0 10303 214 1 1 1 1 }'));
ENDSEC;
DATA;
#1 = APPLICATION_PROTOCOL_DEFINITION('international standard',
  'automotive_design',2000,#2);
#2 = APPLICATION_CONTEXT(
  'core data for automotive mechanical design processes');
#3 = SHAPE_DEFINITION_REPRESENTATION(#4,#10);
#4 = PRODUCT_DEFINITION_SHAPE('','',#5);
#5 = PRODUCT_DEFINITION('design','',#6,#9);
#6 = PRODUCT_DEFINITION_FORMATION('','',#7);
#7 = PRODUCT('KEYSTONE-1502-2','KEYSTONE-1502-2','',(#8));
#8 = PRODUCT_CONTEXT('',#2,'mechanical');
#9 = PRODUCT_DEFINITION_CONTEXT('part definition',#2,'design');
#10 = ADVANCED_BREP_SHAPE_REPRESENTATION('',(#11,#15),#347);
#11 = AXIS2_PLACEMENT_3D('',#12,#13,#14);
#12 = CARTESIAN_POINT('',(0.,0.,0.));
#13 = DIRECTION('',(0.,0.,1.));
#14 = DIRECTION('',(1.,0.,-0.));
#15 = MANIFOLD_SOLID_BREP('',#16);
#16 = CLOSED_SHELL('',(#17,#34,#59,#79,#104,#124,#149,#169,#194,#214,
    #239,#259,#284,#304,#329));
#17 = ADVANCED_FACE('',(#18),#29,.T.);
#18 = FACE_BOUND('',#19,.F.);
#19 = EDGE_LOOP('',(#20));
#20 = ORIENTED_EDGE('',*,*,#21,.F.);
#21 = EDGE_CURVE('',#22,#22,#24,.T.);
#22 = VERTEX_POINT('',#23);
#23 = CARTESIAN_POINT('',(-1.18,3.70370401015E-15,5.56));
#24 = CIRCLE('',#25,1.18);
#25 = AXIS2_PLACEMENT_3D('',#26,#27,#28);
#26 = CARTESIAN_POINT('',(0.,3.70370401015E-15,5.56));
#27 = DIRECTION('',(0.,6.661338147751E-16,1.));
#28 = DIRECTION('',(-1.,0.,0.));
#29 = PLANE('',#30);
#30 = AXIS2_PLACEMENT_3D('',#31,#32,#33);
#31 = CARTESIAN_POINT('',(0.,3.70370401015E-15,5.56));
#32 = DIRECTION('',(0.,6.661338147751E-16,1.));
#33 = DIRECTION('',(-1.,0.,0.));
#34 = ADVANCED_FACE('',(#35),#54,.T.);
#35 = FACE_BOUND('',#36,.T.);
#36 = EDGE_LOOP('',(#37,#45,#52,#53));
#37 = ORIENTED_EDGE('',*,*,#38,.T.);
#38 = EDGE_CURVE('',#22,#39,#41,.T.);
#39 = VERTEX_POINT('',#40);
#40 = CARTESIAN_POINT('',(-1.18,3.31734639758E-15,4.98));
#41 = LINE('',#42,#43);
#42 = CARTESIAN_POINT('',(-1.18,3.70370401015E-15,5.56));
#43 = VECTOR('',#44,1.);
#44 = DIRECTION('',(0.,-6.661338147751E-16,-1.));
#45 = ORIENTED_EDGE('',*,*,#46,.T.);
#46 = EDGE_CURVE('',#39,#39,#47,.T.);
#47 = CIRCLE('',#48,1.18);
#48 = AXIS2_PLACEMENT_3D('',#49,#50,#51);
#49 = CARTESIAN_POINT('',(0.,3.31734639758E-15,4.98));
#50 = DIRECTION('',(0.,6.661338147751E-16,1.));
#51 = DIRECTION('',(-1.,0.,0.));
#52 = ORIENTED_EDGE('',*,*,#38,.F.);
#53 = ORIENTED_EDGE('',*,*,#21,.F.);
#54 = CYLINDRICAL_SURFACE('',#55,1.18);
#55 = AXIS2_PLACEMENT_3D('',#56,#57,#58);
#56 = CARTESIAN_POINT('',(0.,3.70370401015E-15,5.56));
#57 = DIRECTION('',(0.,-6.661338147751E-16,-1.));
#58 = DIRECTION('',(-1.,0.,0.));
#59 = ADVANCED_FACE('',(#60,#63),#74,.F.);
#60 = FACE_BOUND('',#61,.F.);
#61 = EDGE_LOOP('',(#62));
#62 = ORIENTED_EDGE('',*,*,#46,.T.);
#63 = FACE_BOUND('',#64,.F.);
#64 = EDGE_LOOP('',(#65));
#65 = ORIENTED_EDGE('',*,*,#66,.F.);
#66 = EDGE_CURVE('',#67,#67,#69,.T.);
#67 = VERTEX_POINT('',#68);
#68 = CARTESIAN_POINT('',(-0.7,3.31734639758E-15,4.98));
#69 = CIRCLE('',#70,0.7);
#70 = AXIS2_PLACEMENT_3D('',#71,#72,#73);
#71 = CARTESIAN_POINT('',(0.,3.31734639758E-15,4.98));
#72 = DIRECTION('',(0.,6.661338147751E-16,1.));
#73 = DIRECTION('',(-1.,0.,0.));
#74 = PLANE('',#75);
#75 = AXIS2_PLACEMENT_3D('',#76,#77,#78);
#76 = CARTESIAN_POINT('',(0.,3.31734639758E-15,4.98));
#77 = DIRECTION('',(0.,6.661338147751E-16,1.));
#78 = DIRECTION('',(-1.,0.,0.));
#79 = ADVANCED_FACE('',(#80),#99,.T.);
#80 = FACE_BOUND('',#81,.T.);
#81 = EDGE_LOOP('',(#82,#90,#97,#98));
#82 = ORIENTED_EDGE('',*,*,#83,.T.);
#83 = EDGE_CURVE('',#67,#84,#86,.T.);
#84 = VERTEX_POINT('',#85);
#85 = CARTESIAN_POINT('',(-0.7,2.318145675417E-15,3.48));
#86 = LINE('',#87,#88);
#87 = CARTESIAN_POINT('',(-0.7,3.31734639758E-15,4.98));
#88 = VECTOR('',#89,1.);
#89 = DIRECTION('',(0.,-6.661338147751E-16,-1.));
#90 = ORIENTED_EDGE('',*,*,#91,.T.);
#91 = EDGE_CURVE('',#84,#84,#92,.T.);
#92 = CIRCLE('',#93,0.7);
#93 = AXIS2_PLACEMENT_3D('',#94,#95,#96);
#94 = CARTESIAN_POINT('',(0.,2.318145675417E-15,3.48));
#95 = DIRECTION('',(0.,6.661338147751E-16,1.));
#96 = DIRECTION('',(-1.,0.,0.));
#97 = ORIENTED_EDGE('',*,*,#83,.F.);
#98 = ORIENTED_EDGE('',*,*,#66,.F.);
#99 = CYLINDRICAL_SURFACE('',#100,0.7);
#100 = AXIS2_PLACEMENT_3D('',#101,#102,#103);
#101 = CARTESIAN_POINT('',(0.,3.31734639758E-15,4.98));
#102 = DIRECTION('',(0.,-6.661338147751E-16,-1.));
#103 = DIRECTION('',(-1.,0.,0.));
#104 = ADVANCED_FACE('',(#105,#108),#119,.T.);
#105 = FACE_BOUND('',#106,.F.);
#106 = EDGE_LOOP('',(#107));
#107 = ORIENTED_EDGE('',*,*,#91,.T.);
#108 = FACE_BOUND('',#109,.F.);
#109 = EDGE_LOOP('',(#110));
#110 = ORIENTED_EDGE('',*,*,#111,.F.);
#111 = EDGE_CURVE('',#112,#112,#114,.T.);
#112 = VERTEX_POINT('',#113);
#113 = CARTESIAN_POINT('',(-1.18,2.318145675417E-15,3.48));
#114 = CIRCLE('',#115,1.18);
#115 = AXIS2_PLACEMENT_3D('',#116,#117,#118);
#116 = CARTESIAN_POINT('',(0.,2.318145675417E-15,3.48));
#117 = DIRECTION('',(0.,6.661338147751E-16,1.));
#118 = DIRECTION('',(-1.,0.,0.));
#119 = PLANE('',#120);
#120 = AXIS2_PLACEMENT_3D('',#121,#122,#123);
#121 = CARTESIAN_POINT('',(0.,2.318145675417E-15,3.48));
#122 = DIRECTION('',(0.,6.661338147751E-16,1.));
#123 = DIRECTION('',(-1.,0.,0.));
#124 = ADVANCED_FACE('',(#125),#144,.T.);
#125 = FACE_BOUND('',#126,.T.);
#126 = EDGE_LOOP('',(#127,#135,#142,#143));
#127 = ORIENTED_EDGE('',*,*,#128,.T.);
#128 = EDGE_CURVE('',#112,#129,#131,.T.);
#129 = VERTEX_POINT('',#130);
#130 = CARTESIAN_POINT('',(-1.18,1.931788062848E-15,2.9));
#131 = LINE('',#132,#133);
#132 = CARTESIAN_POINT('',(-1.18,2.318145675417E-15,3.48));
#133 = VECTOR('',#134,1.);
#134 = DIRECTION('',(0.,-6.661338147751E-16,-1.));
#135 = ORIENTED_EDGE('',*,*,#136,.T.);
#136 = EDGE_CURVE('',#129,#129,#137,.T.);
#137 = CIRCLE('',#138,1.18);
#138 = AXIS2_PLACEMENT_3D('',#139,#140,#141);
#139 = CARTESIAN_POINT('',(0.,1.931788062848E-15,2.9));
#140 = DIRECTION('',(0.,6.661338147751E-16,1.));
#141 = DIRECTION('',(-1.,0.,0.));
#142 = ORIENTED_EDGE('',*,*,#128,.F.);
#143 = ORIENTED_EDGE('',*,*,#111,.F.);
#144 = CYLINDRICAL_SURFACE('',#145,1.18);
#145 = AXIS2_PLACEMENT_3D('',#146,#147,#148);
#146 = CARTESIAN_POINT('',(0.,2.318145675417E-15,3.48));
#147 = DIRECTION('',(0.,-6.661338147751E-16,-1.));
#148 = DIRECTION('',(-1.,0.,0.));
#149 = ADVANCED_FACE('',(#150,#153),#164,.F.);
#150 = FACE_BOUND('',#151,.F.);
#151 = EDGE_LOOP('',(#152));
#152 = ORIENTED_EDGE('',*,*,#136,.T.);
#153 = FACE_BOUND('',#154,.F.);
#154 = EDGE_LOOP('',(#155));
#155 = ORIENTED_EDGE('',*,*,#156,.F.);
#156 = EDGE_CURVE('',#157,#157,#159,.T.);
#157 = VERTEX_POINT('',#158);
#158 = CARTESIAN_POINT('',(-0.7,1.931788062848E-15,2.9));
#159 = CIRCLE('',#160,0.7);
#160 = AXIS2_PLACEMENT_3D('',#161,#162,#163);
#161 = CARTESIAN_POINT('',(0.,1.931788062848E-15,2.9));
#162 = DIRECTION('',(0.,6.661338147751E-16,1.));
#163 = DIRECTION('',(-1.,0.,0.));
#164 = PLANE('',#165);
#165 = AXIS2_PLACEMENT_3D('',#166,#167,#168);
#166 = CARTESIAN_POINT('',(0.,1.931788062848E-15,2.9));
#167 = DIRECTION('',(0.,6.661338147751E-16,1.));
#168 = DIRECTION('',(-1.,0.,0.));
#169 = ADVANCED_FACE('',(#170),#189,.T.);
#170 = FACE_BOUND('',#171,.T.);
#171 = EDGE_LOOP('',(#172,#180,#187,#188));
#172 = ORIENTED_EDGE('',*,*,#173,.T.);
#173 = EDGE_CURVE('',#157,#174,#176,.T.);
#174 = VERTEX_POINT('',#175);
#175 = CARTESIAN_POINT('',(-0.7,3.863576125696E-16,0.58));
#176 = LINE('',#177,#178);
#177 = CARTESIAN_POINT('',(-0.7,1.931788062848E-15,2.9));
#178 = VECTOR('',#179,1.);
#179 = DIRECTION('',(0.,-6.661338147751E-16,-1.));
#180 = ORIENTED_EDGE('',*,*,#181,.T.);
#181 = EDGE_CURVE('',#174,#174,#182,.T.);
#182 = CIRCLE('',#183,0.7);
#183 = AXIS2_PLACEMENT_3D('',#184,#185,#186);
#184 = CARTESIAN_POINT('',(0.,3.863576125696E-16,0.58));
#185 = DIRECTION('',(0.,6.661338147751E-16,1.));
#186 = DIRECTION('',(-1.,0.,0.));
#187 = ORIENTED_EDGE('',*,*,#173,.F.);
#188 = ORIENTED_EDGE('',*,*,#156,.F.);
#189 = CYLINDRICAL_SURFACE('',#190,0.7);
#190 = AXIS2_PLACEMENT_3D('',#191,#192,#193);
#191 = CARTESIAN_POINT('',(0.,1.931788062848E-15,2.9));
#192 = DIRECTION('',(0.,-6.661338147751E-16,-1.));
#193 = DIRECTION('',(-1.,0.,0.));
#194 = ADVANCED_FACE('',(#195,#198),#209,.T.);
#195 = FACE_BOUND('',#196,.F.);
#196 = EDGE_LOOP('',(#197));
#197 = ORIENTED_EDGE('',*,*,#181,.T.);
#198 = FACE_BOUND('',#199,.F.);
#199 = EDGE_LOOP('',(#200));
#200 = ORIENTED_EDGE('',*,*,#201,.F.);
#201 = EDGE_CURVE('',#202,#202,#204,.T.);
#202 = VERTEX_POINT('',#203);
#203 = CARTESIAN_POINT('',(-1.59,3.863576125696E-16,0.58));
#204 = CIRCLE('',#205,1.59);
#205 = AXIS2_PLACEMENT_3D('',#206,#207,#208);
#206 = CARTESIAN_POINT('',(0.,3.863576125696E-16,0.58));
#207 = DIRECTION('',(0.,6.661338147751E-16,1.));
#208 = DIRECTION('',(-1.,0.,0.));
#209 = PLANE('',#210);
#210 = AXIS2_PLACEMENT_3D('',#211,#212,#213);
#211 = CARTESIAN_POINT('',(0.,3.863576125696E-16,0.58));
#212 = DIRECTION('',(0.,6.661338147751E-16,1.));
#213 = DIRECTION('',(-1.,0.,0.));
#214 = ADVANCED_FACE('',(#215),#234,.T.);
#215 = FACE_BOUND('',#216,.T.);
#216 = EDGE_LOOP('',(#217,#225,#232,#233));
#217 = ORIENTED_EDGE('',*,*,#218,.T.);
#218 = EDGE_CURVE('',#202,#219,#221,.T.);
#219 = VERTEX_POINT('',#220);
#220 = CARTESIAN_POINT('',(-1.59,0.,0.));
#221 = LINE('',#222,#223);
#222 = CARTESIAN_POINT('',(-1.59,3.863576125696E-16,0.58));
#223 = VECTOR('',#224,1.);
#224 = DIRECTION('',(0.,-6.661338147751E-16,-1.));
#225 = ORIENTED_EDGE('',*,*,#226,.T.);
#226 = EDGE_CURVE('',#219,#219,#227,.T.);
#227 = CIRCLE('',#228,1.59);
#228 = AXIS2_PLACEMENT_3D('',#229,#230,#231);
#229 = CARTESIAN_POINT('',(0.,0.,0.));
#230 = DIRECTION('',(0.,6.661338147751E-16,1.));
#231 = DIRECTION('',(-1.,0.,0.));
#232 = ORIENTED_EDGE('',*,*,#218,.F.);
#233 = ORIENTED_EDGE('',*,*,#201,.F.);
#234 = CYLINDRICAL_SURFACE('',#235,1.59);
#235 = AXIS2_PLACEMENT_3D('',#236,#237,#238);
#236 = CARTESIAN_POINT('',(0.,3.863576125696E-16,0.58));
#237 = DIRECTION('',(0.,-6.661338147751E-16,-1.));
#238 = DIRECTION('',(-1.,0.,0.));
#239 = ADVANCED_FACE('',(#240,#243),#254,.F.);
#240 = FACE_BOUND('',#241,.F.);
#241 = EDGE_LOOP('',(#242));
#242 = ORIENTED_EDGE('',*,*,#226,.T.);
#243 = FACE_BOUND('',#244,.F.);
#244 = EDGE_LOOP('',(#245));
#245 = ORIENTED_EDGE('',*,*,#246,.F.);
#246 = EDGE_CURVE('',#247,#247,#249,.T.);
#247 = VERTEX_POINT('',#248);
#248 = CARTESIAN_POINT('',(-1.145,0.,0.));
#249 = CIRCLE('',#250,1.145);
#250 = AXIS2_PLACEMENT_3D('',#251,#252,#253);
#251 = CARTESIAN_POINT('',(0.,0.,0.));
#252 = DIRECTION('',(0.,6.661338147751E-16,1.));
#253 = DIRECTION('',(-1.,0.,0.));
#254 = PLANE('',#255);
#255 = AXIS2_PLACEMENT_3D('',#256,#257,#258);
#256 = CARTESIAN_POINT('',(0.,0.,0.));
#257 = DIRECTION('',(0.,6.661338147751E-16,1.));
#258 = DIRECTION('',(-1.,0.,0.));
#259 = ADVANCED_FACE('',(#260),#279,.T.);
#260 = FACE_BOUND('',#261,.T.);
#261 = EDGE_LOOP('',(#262,#270,#277,#278));
#262 = ORIENTED_EDGE('',*,*,#263,.T.);
#263 = EDGE_CURVE('',#247,#264,#266,.T.);
#264 = VERTEX_POINT('',#265);
#265 = CARTESIAN_POINT('',(-1.145,-1.845190666927E-15,-2.77));
#266 = LINE('',#267,#268);
#267 = CARTESIAN_POINT('',(-1.145,0.,0.));
#268 = VECTOR('',#269,1.);
#269 = DIRECTION('',(0.,-6.661338147751E-16,-1.));
#270 = ORIENTED_EDGE('',*,*,#271,.T.);
#271 = EDGE_CURVE('',#264,#264,#272,.T.);
#272 = CIRCLE('',#273,1.145);
#273 = AXIS2_PLACEMENT_3D('',#274,#275,#276);
#274 = CARTESIAN_POINT('',(0.,-1.845190666927E-15,-2.77));
#275 = DIRECTION('',(0.,6.661338147751E-16,1.));
#276 = DIRECTION('',(-1.,0.,0.));
#277 = ORIENTED_EDGE('',*,*,#263,.F.);
#278 = ORIENTED_EDGE('',*,*,#246,.F.);
#279 = CYLINDRICAL_SURFACE('',#280,1.145);
#280 = AXIS2_PLACEMENT_3D('',#281,#282,#283);
#281 = CARTESIAN_POINT('',(0.,0.,0.));
#282 = DIRECTION('',(0.,-6.661338147751E-16,-1.));
#283 = DIRECTION('',(-1.,0.,0.));
#284 = ADVANCED_FACE('',(#285,#288),#299,.F.);
#285 = FACE_BOUND('',#286,.F.);
#286 = EDGE_LOOP('',(#287));
#287 = ORIENTED_EDGE('',*,*,#271,.T.);
#288 = FACE_BOUND('',#289,.F.);
#289 = EDGE_LOOP('',(#290));
#290 = ORIENTED_EDGE('',*,*,#291,.F.);
#291 = EDGE_CURVE('',#292,#292,#294,.T.);
#292 = VERTEX_POINT('',#293);
#293 = CARTESIAN_POINT('',(-0.815,-1.845190666927E-15,-2.77));
#294 = CIRCLE('',#295,0.815);
#295 = AXIS2_PLACEMENT_3D('',#296,#297,#298);
#296 = CARTESIAN_POINT('',(0.,-1.845190666927E-15,-2.77));
#297 = DIRECTION('',(0.,6.661338147751E-16,1.));
#298 = DIRECTION('',(-1.,0.,0.));
#299 = PLANE('',#300);
#300 = AXIS2_PLACEMENT_3D('',#301,#302,#303);
#301 = CARTESIAN_POINT('',(0.,-1.845190666927E-15,-2.77));
#302 = DIRECTION('',(0.,6.661338147751E-16,1.));
#303 = DIRECTION('',(-1.,0.,0.));
#304 = ADVANCED_FACE('',(#305),#324,.F.);
#305 = FACE_BOUND('',#306,.F.);
#306 = EDGE_LOOP('',(#307,#308,#316,#323));
#307 = ORIENTED_EDGE('',*,*,#291,.T.);
#308 = ORIENTED_EDGE('',*,*,#309,.T.);
#309 = EDGE_CURVE('',#292,#310,#312,.T.);
#310 = VERTEX_POINT('',#311);
#311 = CARTESIAN_POINT('',(-0.815,-7.127631818094E-16,-1.07));
#312 = LINE('',#313,#314);
#313 = CARTESIAN_POINT('',(-0.815,-1.845190666927E-15,-2.77));
#314 = VECTOR('',#315,1.);
#315 = DIRECTION('',(0.,6.661338147751E-16,1.));
#316 = ORIENTED_EDGE('',*,*,#317,.F.);
#317 = EDGE_CURVE('',#310,#310,#318,.T.);
#318 = CIRCLE('',#319,0.815);
#319 = AXIS2_PLACEMENT_3D('',#320,#321,#322);
#320 = CARTESIAN_POINT('',(0.,-7.127631818094E-16,-1.07));
#321 = DIRECTION('',(0.,6.661338147751E-16,1.));
#322 = DIRECTION('',(-1.,0.,0.));
#323 = ORIENTED_EDGE('',*,*,#309,.F.);
#324 = CYLINDRICAL_SURFACE('',#325,0.815);
#325 = AXIS2_PLACEMENT_3D('',#326,#327,#328);
#326 = CARTESIAN_POINT('',(0.,-1.845190666927E-15,-2.77));
#327 = DIRECTION('',(0.,6.661338147751E-16,1.));
#328 = DIRECTION('',(-1.,0.,0.));
#329 = ADVANCED_FACE('',(#330),#342,.F.);
#330 = FACE_BOUND('',#331,.F.);
#331 = EDGE_LOOP('',(#332,#333,#341));
#332 = ORIENTED_EDGE('',*,*,#317,.T.);
#333 = ORIENTED_EDGE('',*,*,#334,.T.);
#334 = EDGE_CURVE('',#310,#335,#337,.T.);
#335 = VERTEX_POINT('',#336);
#336 = CARTESIAN_POINT('',(0.,-3.993202639288E-16,-0.59945953061));
#337 = LINE('',#338,#339);
#338 = CARTESIAN_POINT('',(-0.815,-7.127631818094E-16,-1.07));
#339 = VECTOR('',#340,1.);
#340 = DIRECTION('',(0.866025403784,3.330669073876E-16,0.5));
#341 = ORIENTED_EDGE('',*,*,#334,.F.);
#342 = CONICAL_SURFACE('',#343,0.815,1.047197551197);
#343 = AXIS2_PLACEMENT_3D('',#344,#345,#346);
#344 = CARTESIAN_POINT('',(0.,-7.127631818094E-16,-1.07));
#345 = DIRECTION('',(0.,-6.661338147751E-16,-1.));
#346 = DIRECTION('',(-1.,0.,0.));
#347 = ( GEOMETRIC_REPRESENTATION_CONTEXT(3) 
GLOBAL_UNCERTAINTY_ASSIGNED_CONTEXT((#351)) GLOBAL_UNIT_ASSIGNED_CONTEXT
((#348,#349,#350)) REPRESENTATION_CONTEXT('Context #1',
  '3D Context with UNIT and UNCERTAINTY') );
#348 = ( LENGTH_UNIT() NAMED_UNIT(*) SI_UNIT(.MILLI.,.METRE.) );
#349 = ( NAMED_UNIT(*) PLANE_ANGLE_UNIT() SI_UNIT($,.RADIAN.) );
#350 = ( NAMED_UNIT(*) SI_UNIT($,.STERADIAN.) SOLID_ANGLE_UNIT() );
#351 = UNCERTAINTY_MEASURE_WITH_UNIT(LENGTH_MEASURE(1.E-07),#348,
  'distance_accuracy_value','confusion accuracy');
#352 = PRODUCT_RELATED_PRODUCT_CATEGORY('part',$,(#7));
#353 = MECHANICAL_DESIGN_GEOMETRIC_PRESENTATION_REPRESENTATION('',(#354)
  ,#347);
#354 = STYLED_ITEM('color',(#355),#15);
#355 = PRESENTATION_STYLE_ASSIGNMENT((#356,#362));
#356 = SURFACE_STYLE_USAGE(.BOTH.,#357);
#357 = SURFACE_SIDE_STYLE('',(#358));
#358 = SURFACE_STYLE_FILL_AREA(#359);
#359 = FILL_AREA_STYLE('',(#360));
#360 = FILL_AREA_STYLE_COLOUR('',#361);
#361 = COLOUR_RGB('',0.713999986649,0.428400009871,0.181439995766);
#362 = CURVE_STYLE('',#363,POSITIVE_LENGTH_MEASURE(0.1),#361);
#363 = DRAUGHTING_PRE_DEFINED_CURVE_FONT('continuous');
ENDSEC;
END-ISO-10303-21;
